[
  {
    "attributes": [
      {
        "description": "Загружено шихты общее",
        "engUnits": "т",
        "name": "F_sum_obsh",
        "type": 3,
        "value": "0",
        "values": null
      },
      {
        "description": "Загружено шихты за смену",
        "engUnits": "т",
        "name": "F_sum_sm",
        "type": 3,
        "value": "0",
        "values": null
      },
      {
        "description": "Разрежение",
        "engUnits": "Па",
        "name": "P_kol_g_i",
        "type": 3,
        "value": "0",
        "values": null
      }
    ],
    "hierarchicalName": "Chel_Zinc_Plant.Roasting_Shop",
    "parent": "Chel_Zinc_Plant",
    "securityGroup": "Roasting_Group",
    "shortDesc": "Обжиговый цех",
    "tagName": "Roasting_Shop"
  },
  {
    "attributes": [
      {
        "description": "Разрежение",
        "engUnits": "Па",
        "name": "P_kol_g_i",
        "type": 3,
        "value": "0",
        "values": null
      },
      {
        "description": "Уровень кислоты в баке 7 ",
        "engUnits": "",
        "name": "S07L",
        "type": 3,
        "value": "0",
        "values": null
      },
      {
        "description": "Уровень кислоты в баке 8",
        "engUnits": "",
        "name": "S08L",
        "type": 3,
        "value": "0",
        "values": null
      },
      {
        "description": "Уровень кислоты в баке 9",
        "engUnits": "",
        "name": "S09L",
        "type": 3,
        "value": "0",
        "values": null
      },
      {
        "description": "Уровень кислоты в баке 10",
        "engUnits": "",
        "name": "S10L",
        "type": 3,
        "value": "0",
        "values": null
      },
      {
        "description": "Температура на 2 т.т.",
        "engUnits": "",
        "name": "T2_tt",
        "type": 3,
        "value": "0",
        "values": null
      },
      {
        "description": "Свободный объем",
        "engUnits": "т",
        "name": "Vmng",
        "type": 3,
        "value": "0",
        "values": null
      },
      {
        "description": "Свободный объем 2 сорт",
        "engUnits": null,
        "name": "Vmng2",
        "type": 5,
        "value": "Свободный объем 2 сорт",
        "values": null
      }
    ],
    "hierarchicalName": "Chel_Zinc_Plant.Sulfuric_Acid_Shop",
    "parent": "Chel_Zinc_Plant",
    "securityGroup": "Default",
    "shortDesc": "Сернокислотный цех",
    "tagName": "Sulfuric_Acid_Shop"
  },
  {
    "attributes": [
      {
        "description": "Расход вельцокиси",
        "engUnits": "м3/ч",
        "name": "RVO",
        "type": 3,
        "value": "0",
        "values": null
      },
      {
        "description": "Конвеер 26",
        "engUnits": "м3/ч",
        "name": "Kr26",
        "type": 3,
        "value": "0",
        "values": null
      },
      {
        "description": "Конвеер 27",
        "engUnits": "м3/ч",
        "name": "Kr27",
        "type": 3,
        "value": "0",
        "values": null
      },
      {
        "description": "Конвеер 36",
        "engUnits": "м3/ч",
        "name": "Kr36",
        "type": 3,
        "value": "0",
        "values": null
      }
    ],
    "hierarchicalName": "Chel_Zinc_Plant.Waelz_Shop",
    "parent": "Chel_Zinc_Plant",
    "securityGroup": "Default",
    "shortDesc": "Вельц цех",
    "tagName": "Waelz_Shop"
  },
  {
    "attributes": [
	  {
        "description": "ОЭ",
        "engUnits": "м3/ч",
        "name": "OE",
        "type": 3,
        "value": "0",
        "values": null
      }
    ],
    "hierarchicalName": "Chel_Zinc_Plant.Leaching_Shop",
    "parent": "Chel_Zinc_Plant",
    "securityGroup": "Leaching_Group",
    "shortDesc": "Выщелачивательный цех",
    "tagName": "Leaching_Shop"
  },
  {
    "attributes": [
      {
        "description": "Расход после насоса 510А",
        "engUnits": "м3/ч",
        "name": "R_after-510A",
        "type": 3,
        "value": "0",
        "values": null
      },
      {
        "description": "Расход после насоса 510B",
        "engUnits": "м3/ч",
        "name": "R_after-510B",
        "type": 3,
        "value": "0",
        "values": null
      },
      {
        "description": "Расход после насоса 703А-B",
        "engUnits": "м3/ч",
        "name": "R_after-703А-B",
        "type": 3,
        "value": "0",
        "values": null
      }
    ],
    "hierarchicalName": "Chel_Zinc_Plant.Zinc_Electrolysis_Shop",
    "parent": "Chel_Zinc_Plant",
    "securityGroup": "Default",
    "shortDesc": "Комплекс Электролиза Цинка",
    "tagName": "Zinc_Electrolysis_Shop"
  },
  {
    "attributes": [
      {
        "description": "Вцс - восток - уровень ",
        "engUnits": "",
        "name": "Level_vcs_east",
        "type": 3,
        "value": "0",
        "values": null
      },
      {
        "description": "Вцс - запад - уровень ",
        "engUnits": "",
        "name": "Level_vcs_west",
        "type": 3,
        "value": "0",
        "values": null
      },
      {
        "description": "Всс1 - север - расход ",
        "engUnits": "м3/ч",
        "name": "Q_vss1_north",
        "type": 3,
        "value": "0",
        "values": null
      },
      {
        "description": "Всс2",
        "engUnits": "м3/ч",
        "name": "Q_vss2",
        "type": 3,
        "value": "0",
        "values": null
      },
      {
        "description": "Всс3 - север - расход ",
        "engUnits": "м3/ч",
        "name": "Q_vss3_north",
        "type": 3,
        "value": "0",
        "values": null
      },
      {
        "description": "Всс3 - юг - расход ",
        "engUnits": "м3/ч",
        "name": "Q_vss3_south",
        "type": 3,
        "value": "0",
        "values": null
      },
      {
        "description": "Расход исходного раствора",
        "engUnits": "м3/ч",
        "name": "RIR",
        "type": 3,
        "value": "0",
        "values": null
      }
    ],
    "hierarchicalName": "Chel_Zinc_Plant.Hydro_Metallurgical_Shop",
    "parent": "Chel_Zinc_Plant",
    "securityGroup": "Default",
    "shortDesc": "Гидрометаллургический цех",
    "tagName": "Hydro_Metallurgical_Shop"
  },
  {
    "attributes": [
      {
        "description": "Расход кислорода",
        "engUnits": "м3/ч",
        "name": "Q_O2",
        "type": 3,
        "value": "0",
        "values": null
      },
      {
        "description": "Расход воды",
        "engUnits": "т/ч",
        "name": "Q_water",
        "type": 3,
        "value": "0",
        "values": null
      },
      {
        "description": "Расход газа",
        "engUnits": "м3/ч",
        "name": "Q_gas",
        "type": 3,
        "value": "0",
        "values": null
      }
    ],
    "hierarchicalName": "Chel_Zinc_Plant.Energy_Shop",
    "parent": "Chel_Zinc_Plant",
    "securityGroup": "Default",
    "shortDesc": "Энергоцех",
    "tagName": "Energy_Shop"
  },
  {
    "attributes": [
    ],
    "hierarchicalName": "Chel_Zinc_Plant.Electrical_Shop",
    "parent": "Chel_Zinc_Plant",
    "securityGroup": "Default",
    "shortDesc": "Электротехнический цех",
    "tagName": "Electrical_Shop"
  }
]
