[
  {
    "attributes": [
      {
        "description": "Проток",
        "engUnits": "",
        "name": "Duct",
        "type": 1,
        "value": null,
        "values": null
      }
    ],
    "hierarchicalName": "Leach_Thickener1",
    "parent": "Leaching_Shop",
    "securityGroup": "Leaching_Group",
    "shortDesc": "Сгуститель 1",
    "tagName": "Leach_Thickener1"
  },
  {
    "attributes": [
      {
        "description": "Проток",
        "engUnits": "",
        "name": "Duct",
        "type": 1,
        "value": null,
        "values": null
      }
    ],
    "hierarchicalName": "Leach_Thickener2",
    "parent": "Leaching_Shop",
    "securityGroup": "Leaching_Group",
    "shortDesc": "Сгуститель 2",
    "tagName": "Leach_Thickener2"
  },
  {
    "attributes": [
      {
        "description": "Проток",
        "engUnits": "",
        "name": "Duct",
        "type": 1,
        "value": null,
        "values": null
      }
    ],
    "hierarchicalName": "Leach_Thickener3",
    "parent": "Leaching_Shop",
    "securityGroup": "Leaching_Group",
    "shortDesc": "Сгуститель 3",
    "tagName": "Leach_Thickener3"
  },
  {
    "attributes": [
      {
        "description": "Проток",
        "engUnits": "",
        "name": "Duct",
        "type": 1,
        "value": null,
        "values": null
      }
    ],
    "hierarchicalName": "Leach_Thickener4",
    "parent": "Leaching_Shop",
    "securityGroup": "Leaching_Group",
    "shortDesc": "Сгуститель 4",
    "tagName": "Leach_Thickener4"
  },
  {
    "attributes": [
      {
        "description": "Проток",
        "engUnits": "",
        "name": "Duct",
        "type": 1,
        "value": null,
        "values": null
      }
    ],
    "hierarchicalName": "Leach_Thickener5",
    "parent": "Leaching_Shop",
    "securityGroup": "Leaching_Group",
    "shortDesc": "Сгуститель 5",
    "tagName": "Leach_Thickener5"
  },
  {
    "attributes": [
      {
        "description": "Проток",
        "engUnits": "",
        "name": "Duct",
        "type": 1,
        "value": null,
        "values": null
      }
    ],
    "hierarchicalName": "Leach_Thickener6",
    "parent": "Leaching_Shop",
    "securityGroup": "Leaching_Group",
    "shortDesc": "Сгуститель 6",
    "tagName": "Leach_Thickener6"
  },
  {
    "attributes": [
      {
        "description": "Проток",
        "engUnits": "",
        "name": "Duct",
        "type": 1,
        "value": null,
        "values": null
      }
    ],
    "hierarchicalName": "Leach_Thickener7",
    "parent": "Leaching_Shop",
    "securityGroup": "Leaching_Group",
    "shortDesc": "Сгуститель 7",
    "tagName": "Leach_Thickener7"
  },
  {
    "attributes": [
      {
        "description": "Проток",
        "engUnits": "",
        "name": "Duct",
        "type": 1,
        "value": null,
        "values": null
      }
    ],
    "hierarchicalName": "Leach_Thickener8",
    "parent": "Leaching_Shop",
    "securityGroup": "Leaching_Group",
    "shortDesc": "Сгуститель 8",
    "tagName": "Leach_Thickener8"
  },
  {
    "attributes": [
      {
        "description": "Проток",
        "engUnits": "",
        "name": "Duct",
        "type": 1,
        "value": null,
        "values": null
      }
    ],
    "hierarchicalName": "Leach_Thickener9",
    "parent": "Leaching_Shop",
    "securityGroup": "Leaching_Group",
    "shortDesc": "Сгуститель 9",
    "tagName": "Leach_Thickener9"
  },
  {
    "attributes": [
      {
        "description": "Проток",
        "engUnits": "",
        "name": "Duct",
        "type": 1,
        "value": null,
        "values": null
      }
    ],
    "hierarchicalName": "Leach_Thickener10",
    "parent": "Leaching_Shop",
    "securityGroup": "Leaching_Group",
    "shortDesc": "Сгуститель 10",
    "tagName": "Leach_Thickener10"
  },
  {
    "attributes": [
      {
        "description": "Проток",
        "engUnits": "",
        "name": "Duct",
        "type": 1,
        "value": null,
        "values": null
      }
    ],
    "hierarchicalName": "Leach_Thickener12",
    "parent": "Leaching_Shop",
    "securityGroup": "Leaching_Group",
    "shortDesc": "Сгуститель 12",
    "tagName": "Leach_Thickener12"
  },
  {
    "attributes": [
      {
        "description": "Проток",
        "engUnits": "",
        "name": "Duct",
        "type": 1,
        "value": null,
        "values": null
      }
    ],
    "hierarchicalName": "Leach_Thickener11",
    "parent": "Leaching_Shop",
    "securityGroup": "Leaching_Group",
    "shortDesc": "Сгуститель 11",
    "tagName": "Leach_Thickener11"
  }
]
