<?xml version="1.0" encoding="UTF-8" standalone="no"?>
<!-- Created with Inkscape (http://www.inkscape.org/) -->

<svg
   xmlns:dc="http://purl.org/dc/elements/1.1/"
   xmlns:cc="http://creativecommons.org/ns#"
   xmlns:rdf="http://www.w3.org/1999/02/22-rdf-syntax-ns#"
   xmlns:svg="http://www.w3.org/2000/svg"
   xmlns="http://www.w3.org/2000/svg"
   xmlns:sodipodi="http://sodipodi.sourceforge.net/DTD/sodipodi-0.dtd"
   xmlns:inkscape="http://www.inkscape.org/namespaces/inkscape"
   width="400"
   height="210"
   viewBox="0 0 105.83333 55.562502"
   version="1.1"
   id="svg6492"
   inkscape:version="0.92.4 (5da689c313, 2019-01-14)"
   sodipodi:docname="thickener_002.svg">
  <defs
     id="defs6486" />
  <sodipodi:namedview
     id="base"
     pagecolor="#ffffff"
     bordercolor="#666666"
     borderopacity="1.0"
     inkscape:pageopacity="0.0"
     inkscape:pageshadow="2"
     inkscape:zoom="1.979899"
     inkscape:cx="252.85109"
     inkscape:cy="72.488483"
     inkscape:document-units="mm"
     inkscape:current-layer="layer1"
     showgrid="false"
     units="px"
     inkscape:window-width="1920"
     inkscape:window-height="1001"
     inkscape:window-x="-9"
     inkscape:window-y="-9"
     inkscape:window-maximized="1"
     inkscape:snap-page="true" />
  <metadata
     id="metadata6489">
    <rdf:RDF>
      <cc:Work
         rdf:about="">
        <dc:format>image/svg+xml</dc:format>
        <dc:type
           rdf:resource="http://purl.org/dc/dcmitype/StillImage" />
        <dc:title></dc:title>
      </cc:Work>
    </rdf:RDF>
  </metadata>
  <g
     inkscape:label="Layer 1"
     inkscape:groupmode="layer"
     id="layer1"
     transform="translate(0,-241.43748)">
    <path
       inkscape:connector-curvature="0"
       style="opacity:1;fill:#cccccc;fill-opacity:1;stroke:#ececec;stroke-width:0;stroke-linecap:round;stroke-linejoin:round;stroke-miterlimit:4;stroke-dasharray:none;stroke-opacity:1;paint-order:fill markers stroke"
       d="m 53.236354,247.34415 a 42.946952,16.218193 0 0 0 -42.946731,16.21865 42.946952,16.218193 0 0 0 42.946731,16.21813 42.946952,16.218193 0 0 0 12.634374,-0.71881 l -0.726572,-0.6904 A 41.020214,15.490594 0 0 1 53.236354,279.05333 41.020214,15.490594 0 0 1 12.21612,263.5628 41.020214,15.490594 0 0 1 53.236354,248.07176 41.020214,15.490594 0 0 1 94.256589,263.5628 41.020214,15.490594 0 0 1 80.422292,275.13729 l 0.920874,0.67541 A 42.946952,16.218193 0 0 0 96.183603,263.5628 42.946952,16.218193 0 0 0 53.236354,247.34415 Z m 1.773018,9.16172 0.427882,0.31367 c 4.42013,0.3733 7.722966,1.84244 7.722527,3.60185 1.35e-4,0.52064 -0.289955,1.01621 -0.811319,1.46554 l 0.493509,0.36122 c 0.115652,-0.0981 0.222369,-0.19819 0.31781,-0.30075 v 0.53381 l 0.607716,0.44597 v -2.50579 c -2.33e-4,-1.9676 -3.788185,-3.59674 -8.758125,-3.91552 z m 1.684137,1.23506 1.515669,1.11053 c 2.216787,0.58219 3.823954,1.50612 4.319116,2.41794 l 0.363286,-0.60616 c -1.111234,-1.3689 -2.997533,-2.47613 -6.198071,-2.92231 z M 44.138201,258.421 c -0.90855,0.58785 -1.431827,1.27065 -1.431954,2.00039 v 4.35271 h -5.29e-4 c -7.94e-4,2.19662 4.71433,3.97717 10.531141,3.97702 0.586066,0 1.157203,-0.0226 1.717207,-0.0574 l -0.298691,-0.28371 c -0.464447,0.0259 -0.935622,0.0434 -1.418516,0.0434 -5.47974,0 -9.922211,-2.13585 -9.922909,-4.17701 -0.0021,1.44958 -5.29e-4,-1.93136 -5.29e-4,-2.3306 1.167836,1.25672 3.895283,2.18331 7.189224,2.51974 l -0.595313,-0.56534 c -3.840625,-0.51019 -6.594313,-1.87301 -6.593911,-3.47886 -1.62e-4,-0.61796 0.408969,-1.19957 1.128612,-1.71152 z m 1.029912,0.97875 c -0.692057,0.47426 -1.179171,1.01405 -1.430404,1.59422 l 0.429948,0.4408 c 0.21377,-0.52408 0.767085,-1.0391 1.566831,-1.49759 z m -35.9957336,4.855 c -0.0387,0.27139 -0.05965,0.54265 -0.06305,0.81442 -2.6e-4,9.2034 19.7562856,16.66462 44.1275386,16.66462 5.072487,0 9.939963,-0.32758 14.47612,-0.92243 l -0.762228,-0.72398 c -4.326628,0.56601 -8.948179,0.87369 -13.713892,0.87591 -8.559141,-0.004 -16.658299,-0.98588 -23.400639,-2.70164 A 43.817588,16.654094 0 0 1 9.5645984,265.29448 c -0.15688,-0.35292 -0.289394,-0.70108 -0.392224,-1.03973 z m 88.0845456,0.0491 c -0.0799,0.25916 -0.175781,0.52344 -0.287322,0.79169 A 43.817588,16.654094 0 0 1 82.076456,276.7062 l -0.04082,0.9834 c 9.381974,-3.0559 15.32895,-7.57452 15.328778,-12.62042 -0.02029,-0.25547 -0.05614,-0.51047 -0.107484,-0.76533 z m -85.602527,7.81761 v 5.42138 l 0.02687,0.0222 c 0.14428,2.12802 1.350519,4.12702 3.346049,5.90869 2.12989,1.90163 5.170035,3.58403 8.907983,4.99556 7.47587,2.82309 17.750898,4.55579 29.098999,4.55579 11.348102,0 21.622613,-1.7327 29.098483,-4.55579 3.737938,-1.41153 6.778101,-3.09393 8.907981,-4.99556 2.129891,-1.90163 3.361603,-4.05082 3.361553,-6.34018 0.0136,-2.28628 -0.01707,-2.55022 -0.01707,-4.82968 l -1.136364,0.97875 0.25528,4.41575 c -0.18194,1.77932 -1.219271,3.50317 -3.040123,5.12889 -2.012921,1.79717 -4.96738,3.4459 -8.637199,4.83174 -7.33962,2.77164 -17.532867,4.49947 -28.792558,4.49947 -11.259691,0 -21.452928,-1.72783 -28.792558,-4.49947 -3.669808,-1.38584 -6.624289,-3.03457 -8.637198,-4.83174 -1.91997,-1.71423 -2.969832,-3.53793 -3.062862,-5.42034 l 0.249597,-4.30724 z m 83.5334,2.55954 c 0.003,0.86909 0.0071,1.73774 0.0021,2.61017 4e-5,2.37432 -1.255173,4.60363 -3.425632,6.57583 -2.170432,1.97222 -5.268351,3.71661 -9.077481,5.18056 -7.61825,2.92785 -18.088233,4.72478 -29.652455,4.72478 -11.56422,0 -22.034719,-1.79693 -29.652969,-4.72478 -3.80913,-1.46395 -6.907032,-3.20834 -9.077482,-5.18056 -2.03342,-1.84779 -3.263098,-3.92132 -3.410128,-6.12831 l -0.02739,-0.0227 v -2.13527 c -0.33645,0.83143 -0.51755,1.67254 -0.52865,2.51716 -2.65e-4,9.27932 19.206308,16.47962 42.89919,16.47962 23.69289,0 42.8995,-7.2003 42.89919,-16.47962 -0.0158,-1.15043 -0.336034,-2.29512 -0.948264,-3.41685 z m -72.572828,3.44061 v 7.36338 l 1.13843,0.39894 -0.0021,-7.35407 z m 61.619491,0 -1.13688,0.40825 -0.0016,7.35407 1.137914,-0.39894 z m -18.033004,3.86127 -1.136883,0.0677 -0.0021,8.0884 1.13843,-0.16588 z m -25.55348,0.009 v 7.92768 l 1.137914,0.21963 -0.0011,-7.97212 z"
       id="path6246" />
    <path
       sodipodi:nodetypes="ccccc"
       inkscape:connector-curvature="0"
       id="path6248"
       d="m 43.33328,255.69779 -0.0083,1.5534 27.050493,24.96982 0.04038,-2.13151 z"
       style="opacity:1;fill:#cccccc;fill-opacity:1;stroke:#cccccc;stroke-width:0;stroke-linecap:round;stroke-linejoin:round;stroke-miterlimit:4;stroke-dasharray:none;stroke-opacity:1;paint-order:fill markers stroke" />
    <path
       style="opacity:1;fill:#cccccc;fill-opacity:1;stroke:#cccccc;stroke-width:0;stroke-linecap:round;stroke-linejoin:round;stroke-miterlimit:4;stroke-dasharray:none;stroke-opacity:1;paint-order:fill markers stroke"
       d="m 70.934964,280.0886 -0.09052,2.10151 10.660601,-3.22544 0.0832,-1.88345 z"
       id="path6250"
       inkscape:connector-curvature="0"
       sodipodi:nodetypes="ccccc" />
    <path
       sodipodi:nodetypes="ccccc"
       inkscape:connector-curvature="0"
       id="path6254"
       d="m 43.644666,255.59145 0.356391,0.23296 6.619579,-1.72602 -0.296051,-0.2493 z"
       style="opacity:1;fill:#cccccc;fill-opacity:1;stroke:#cccccc;stroke-width:0;stroke-linecap:round;stroke-linejoin:round;stroke-miterlimit:4;stroke-dasharray:none;stroke-opacity:1;paint-order:fill markers stroke" />
    <path
       style="opacity:1;fill:#cccccc;fill-opacity:1;stroke:#cccccc;stroke-width:0;stroke-linecap:round;stroke-linejoin:round;stroke-miterlimit:4;stroke-dasharray:none;stroke-opacity:1;paint-order:fill markers stroke"
       d="m 50.837332,253.73949 -0.390041,0.0781 30.531403,23.19547 0.476221,-0.12874 z"
       id="path6256"
       inkscape:connector-curvature="0"
       sodipodi:nodetypes="ccccc" />
  </g>
</svg>
