<?xml version="1.0" encoding="UTF-8" standalone="no"?>
<!-- Created with Inkscape (http://www.inkscape.org/) -->

<svg
   xmlns:dc="http://purl.org/dc/elements/1.1/"
   xmlns:cc="http://creativecommons.org/ns#"
   xmlns:rdf="http://www.w3.org/1999/02/22-rdf-syntax-ns#"
   xmlns:svg="http://www.w3.org/2000/svg"
   xmlns="http://www.w3.org/2000/svg"
   xmlns:xlink="http://www.w3.org/1999/xlink"
   xmlns:sodipodi="http://sodipodi.sourceforge.net/DTD/sodipodi-0.dtd"
   xmlns:inkscape="http://www.inkscape.org/namespaces/inkscape"
   width="450"
   height="200"
   viewBox="0 0 119.0625 52.916668"
   version="1.1"
   id="svg20263"
   inkscape:version="0.92.4 (5da689c313, 2019-01-14)"
   sodipodi:docname="induction_bake_013.svg">
  <defs
     id="defs20257">
    <clipPath
       clipPathUnits="userSpaceOnUse"
       id="clipPath23792">
      <g
         inkscape:label="Clip"
         id="use23794">
        <path
           transform="matrix(0.26458334,0,0,0.26458334,-266.47322,285.66069)"
           id="path23804"
           d="m 204.68359,52.435547 -16.02734,0.228515 -15.93359,59.429688 53.15234,0.35742 z m -2.08218,1.264437 18.07663,53.738706 -43.61454,-1.51631 14.3984,-51.617617 z"
           style="opacity:1;fill:#cccccc;fill-opacity:1;stroke:#aa4400;stroke-width:0;stroke-linecap:round;stroke-linejoin:round;stroke-miterlimit:4;stroke-dasharray:none;stroke-opacity:1;paint-order:fill markers stroke"
           inkscape:connector-curvature="0"
           sodipodi:nodetypes="cccccccccc" />
      </g>
    </clipPath>
    <clipPath
       clipPathUnits="userSpaceOnUse"
       id="clipPath23792-7">
      <g
         inkscape:label="Clip"
         id="use23794-9">
        <path
           transform="matrix(0.26458334,0,0,0.26458334,-266.47322,285.66069)"
           id="path23804-3"
           d="m 204.68359,52.435547 -16.02734,0.228515 -15.93359,59.429688 53.15234,0.35742 z m -2.08218,1.264437 18.07663,53.738706 -43.61454,-1.51631 14.3984,-51.617617 z"
           style="opacity:1;fill:#cccccc;fill-opacity:1;stroke:#aa4400;stroke-width:0;stroke-linecap:round;stroke-linejoin:round;stroke-miterlimit:4;stroke-dasharray:none;stroke-opacity:1;paint-order:fill markers stroke"
           inkscape:connector-curvature="0"
           sodipodi:nodetypes="cccccccccc" />
      </g>
    </clipPath>
    <clipPath
       clipPathUnits="userSpaceOnUse"
       id="clipPath23792-2">
      <g
         inkscape:label="Clip"
         id="use23794-93">
        <path
           transform="matrix(0.26458334,0,0,0.26458334,-266.47322,285.66069)"
           id="path23804-9"
           d="m 204.68359,52.435547 -16.02734,0.228515 -15.93359,59.429688 53.15234,0.35742 z m -2.08218,1.264437 18.07663,53.738706 -43.61454,-1.51631 14.3984,-51.617617 z"
           style="opacity:1;fill:#cccccc;fill-opacity:1;stroke:#aa4400;stroke-width:0;stroke-linecap:round;stroke-linejoin:round;stroke-miterlimit:4;stroke-dasharray:none;stroke-opacity:1;paint-order:fill markers stroke"
           inkscape:connector-curvature="0"
           sodipodi:nodetypes="cccccccccc" />
      </g>
    </clipPath>
    <clipPath
       clipPathUnits="userSpaceOnUse"
       id="clipPath23792-70">
      <g
         inkscape:label="Clip"
         id="use23794-7">
        <path
           transform="matrix(0.26458334,0,0,0.26458334,-266.47322,285.66069)"
           id="path23804-7"
           d="m 204.68359,52.435547 -16.02734,0.228515 -15.93359,59.429688 53.15234,0.35742 z m -2.08218,1.264437 18.07663,53.738706 -43.61454,-1.51631 14.3984,-51.617617 z"
           style="opacity:1;fill:#cccccc;fill-opacity:1;stroke:#aa4400;stroke-width:0;stroke-linecap:round;stroke-linejoin:round;stroke-miterlimit:4;stroke-dasharray:none;stroke-opacity:1;paint-order:fill markers stroke"
           inkscape:connector-curvature="0"
           sodipodi:nodetypes="cccccccccc" />
      </g>
    </clipPath>
    <clipPath
       clipPathUnits="userSpaceOnUse"
       id="clipPath23792-28">
      <g
         inkscape:label="Clip"
         id="use23794-2">
        <path
           transform="matrix(0.26458334,0,0,0.26458334,-266.47322,285.66069)"
           id="path23804-5"
           d="m 204.68359,52.435547 -16.02734,0.228515 -15.93359,59.429688 53.15234,0.35742 z m -2.08218,1.264437 18.07663,53.738706 -43.61454,-1.51631 14.3984,-51.617617 z"
           style="opacity:1;fill:#cccccc;fill-opacity:1;stroke:#aa4400;stroke-width:0;stroke-linecap:round;stroke-linejoin:round;stroke-miterlimit:4;stroke-dasharray:none;stroke-opacity:1;paint-order:fill markers stroke"
           inkscape:connector-curvature="0"
           sodipodi:nodetypes="cccccccccc" />
      </g>
    </clipPath>
    <clipPath
       clipPathUnits="userSpaceOnUse"
       id="clipPath23792-20">
      <g
         inkscape:label="Clip"
         id="use23794-0">
        <path
           transform="matrix(0.26458334,0,0,0.26458334,-266.47322,285.66069)"
           id="path23804-52"
           d="m 204.68359,52.435547 -16.02734,0.228515 -15.93359,59.429688 53.15234,0.35742 z m -2.08218,1.264437 18.07663,53.738706 -43.61454,-1.51631 14.3984,-51.617617 z"
           style="opacity:1;fill:#cccccc;fill-opacity:1;stroke:#aa4400;stroke-width:0;stroke-linecap:round;stroke-linejoin:round;stroke-miterlimit:4;stroke-dasharray:none;stroke-opacity:1;paint-order:fill markers stroke"
           inkscape:connector-curvature="0"
           sodipodi:nodetypes="cccccccccc" />
      </g>
    </clipPath>
    <clipPath
       clipPathUnits="userSpaceOnUse"
       id="clipPath23792-1">
      <g
         inkscape:label="Clip"
         id="use23794-72">
        <path
           transform="matrix(0.26458334,0,0,0.26458334,-266.47322,285.66069)"
           id="path23804-0"
           d="m 204.68359,52.435547 -16.02734,0.228515 -15.93359,59.429688 53.15234,0.35742 z m -2.08218,1.264437 18.07663,53.738706 -43.61454,-1.51631 14.3984,-51.617617 z"
           style="opacity:1;fill:#cccccc;fill-opacity:1;stroke:#aa4400;stroke-width:0;stroke-linecap:round;stroke-linejoin:round;stroke-miterlimit:4;stroke-dasharray:none;stroke-opacity:1;paint-order:fill markers stroke"
           inkscape:connector-curvature="0"
           sodipodi:nodetypes="cccccccccc" />
      </g>
    </clipPath>
    <clipPath
       clipPathUnits="userSpaceOnUse"
       id="clipPath23792-3">
      <g
         inkscape:label="Clip"
         id="use23794-0-5">
        <path
           transform="matrix(0.26458334,0,0,0.26458334,-266.47322,285.66069)"
           id="path23804-4"
           d="m 204.68359,52.435547 -16.02734,0.228515 -15.93359,59.429688 53.15234,0.35742 z m -2.08218,1.264437 18.07663,53.738706 -43.61454,-1.51631 14.3984,-51.617617 z"
           style="opacity:1;fill:#cccccc;fill-opacity:1;stroke:#aa4400;stroke-width:0;stroke-linecap:round;stroke-linejoin:round;stroke-miterlimit:4;stroke-dasharray:none;stroke-opacity:1;paint-order:fill markers stroke"
           inkscape:connector-curvature="0"
           sodipodi:nodetypes="cccccccccc" />
      </g>
    </clipPath>
    <clipPath
       clipPathUnits="userSpaceOnUse"
       id="clipPath23792-5">
      <g
         inkscape:label="Clip"
         id="use23794-6">
        <path
           transform="matrix(0.26458334,0,0,0.26458334,-266.47322,285.66069)"
           id="path23804-45"
           d="m 204.68359,52.435547 -16.02734,0.228515 -15.93359,59.429688 53.15234,0.35742 z m -2.08218,1.264437 18.07663,53.738706 -43.61454,-1.51631 14.3984,-51.617617 z"
           style="opacity:1;fill:#cccccc;fill-opacity:1;stroke:#aa4400;stroke-width:0;stroke-linecap:round;stroke-linejoin:round;stroke-miterlimit:4;stroke-dasharray:none;stroke-opacity:1;paint-order:fill markers stroke"
           inkscape:connector-curvature="0"
           sodipodi:nodetypes="cccccccccc" />
      </g>
    </clipPath>
    <clipPath
       clipPathUnits="userSpaceOnUse"
       id="clipPath23792-0">
      <g
         inkscape:label="Clip"
         id="use23794-4">
        <path
           transform="matrix(0.26458334,0,0,0.26458334,-266.47322,285.66069)"
           id="path23804-44"
           d="m 204.68359,52.435547 -16.02734,0.228515 -15.93359,59.429688 53.15234,0.35742 z m -2.08218,1.264437 18.07663,53.738706 -43.61454,-1.51631 14.3984,-51.617617 z"
           style="opacity:1;fill:#cccccc;fill-opacity:1;stroke:#aa4400;stroke-width:0;stroke-linecap:round;stroke-linejoin:round;stroke-miterlimit:4;stroke-dasharray:none;stroke-opacity:1;paint-order:fill markers stroke"
           inkscape:connector-curvature="0"
           sodipodi:nodetypes="cccccccccc" />
      </g>
    </clipPath>
    <clipPath
       clipPathUnits="userSpaceOnUse"
       id="clipPath23792-76">
      <g
         inkscape:label="Clip"
         id="use23794-96">
        <path
           transform="matrix(0.26458334,0,0,0.26458334,-266.47322,285.66069)"
           id="path23804-79"
           d="m 204.68359,52.435547 -16.02734,0.228515 -15.93359,59.429688 53.15234,0.35742 z m -2.08218,1.264437 18.07663,53.738706 -43.61454,-1.51631 14.3984,-51.617617 z"
           style="opacity:1;fill:#cccccc;fill-opacity:1;stroke:#aa4400;stroke-width:0;stroke-linecap:round;stroke-linejoin:round;stroke-miterlimit:4;stroke-dasharray:none;stroke-opacity:1;paint-order:fill markers stroke"
           inkscape:connector-curvature="0"
           sodipodi:nodetypes="cccccccccc" />
      </g>
    </clipPath>
    <clipPath
       clipPathUnits="userSpaceOnUse"
       id="clipPath23792-39">
      <g
         inkscape:label="Clip"
         id="use23794-3">
        <path
           transform="matrix(0.26458334,0,0,0.26458334,-266.47322,285.66069)"
           id="path23804-78"
           d="m 204.68359,52.435547 -16.02734,0.228515 -15.93359,59.429688 53.15234,0.35742 z m -2.08218,1.264437 18.07663,53.738706 -43.61454,-1.51631 14.3984,-51.617617 z"
           style="opacity:1;fill:#cccccc;fill-opacity:1;stroke:#aa4400;stroke-width:0;stroke-linecap:round;stroke-linejoin:round;stroke-miterlimit:4;stroke-dasharray:none;stroke-opacity:1;paint-order:fill markers stroke"
           inkscape:connector-curvature="0"
           sodipodi:nodetypes="cccccccccc" />
      </g>
    </clipPath>
    <clipPath
       clipPathUnits="userSpaceOnUse"
       id="clipPath23792-15">
      <g
         inkscape:label="Clip"
         id="use23794-92">
        <path
           transform="matrix(0.26458334,0,0,0.26458334,-266.47322,285.66069)"
           id="path23804-1"
           d="m 204.68359,52.435547 -16.02734,0.228515 -15.93359,59.429688 53.15234,0.35742 z m -2.08218,1.264437 18.07663,53.738706 -43.61454,-1.51631 14.3984,-51.617617 z"
           style="opacity:1;fill:#cccccc;fill-opacity:1;stroke:#aa4400;stroke-width:0;stroke-linecap:round;stroke-linejoin:round;stroke-miterlimit:4;stroke-dasharray:none;stroke-opacity:1;paint-order:fill markers stroke"
           inkscape:connector-curvature="0"
           sodipodi:nodetypes="cccccccccc" />
      </g>
    </clipPath>
    <linearGradient
       inkscape:collect="always"
       xlink:href="#linearGradient9997"
       id="linearGradient10457"
       gradientUnits="userSpaceOnUse"
       gradientTransform="matrix(0.26458333,0,0,0.26458333,-18.520833,-21.293767)"
       x1="1822.135"
       y1="1081.8363"
       x2="1876.4565"
       y2="1081.8363" />
    <linearGradient
       inkscape:collect="always"
       id="linearGradient9997">
      <stop
         style="stop-color:#bd0000;stop-opacity:1"
         offset="0"
         id="stop9993" />
      <stop
         id="stop10001"
         offset="0.48074889"
         style="stop-color:#800000;stop-opacity:1" />
      <stop
         style="stop-color:#b30000;stop-opacity:1"
         offset="1"
         id="stop9995" />
    </linearGradient>
  </defs>
  <sodipodi:namedview
     id="base"
     pagecolor="#ffffff"
     bordercolor="#666666"
     borderopacity="1.0"
     inkscape:pageopacity="0.0"
     inkscape:pageshadow="2"
     inkscape:zoom="0.9899495"
     inkscape:cx="388.96479"
     inkscape:cy="143.62292"
     inkscape:document-units="px"
     inkscape:current-layer="layer1"
     showgrid="false"
     units="px"
     inkscape:window-width="1920"
     inkscape:window-height="1001"
     inkscape:window-x="-9"
     inkscape:window-y="-9"
     inkscape:window-maximized="1"
     inkscape:snap-page="true" />
  <metadata
     id="metadata20260">
    <rdf:RDF>
      <cc:Work
         rdf:about="">
        <dc:format>image/svg+xml</dc:format>
        <dc:type
           rdf:resource="http://purl.org/dc/dcmitype/StillImage" />
        <dc:title></dc:title>
      </cc:Work>
    </rdf:RDF>
  </metadata>
  <g
     inkscape:label="Layer 1"
     inkscape:groupmode="layer"
     id="layer1"
     transform="translate(0,-244.08332)">
    <g
       clip-path="url(#clipPath23792)"
       id="g29480"
       transform="matrix(0.81671439,0,0,0.81671439,227.29733,14.77829)">
      <g
         id="g29478"
         inkscape:label="Clip" />
    </g>
    <g
       transform="matrix(0.81671439,0,0,0.81671439,227.29731,14.778205)"
       id="g28402"
       clip-path="url(#clipPath23792-7)">
      <g
         inkscape:label="Clip"
         id="g28400" />
    </g>
    <g
       clip-path="url(#clipPath23792-2)"
       id="g25098"
       transform="matrix(0.81671439,0,0,0.81671439,227.29731,14.778181)">
      <g
         id="g25096"
         inkscape:label="Clip" />
    </g>
    <g
       transform="matrix(0.81671439,0,0,0.81671439,227.29725,14.778197)"
       id="g23800"
       clip-path="url(#clipPath23792-70)">
      <g
         inkscape:label="Clip"
         id="g23798" />
    </g>
    <g
       clip-path="url(#clipPath23792-28)"
       id="g8498"
       transform="matrix(0.81671439,0,0,0.81671439,227.29725,14.778197)">
      <g
         id="g8496"
         inkscape:label="Clip" />
    </g>
    <g
       transform="matrix(0.81671439,0,0,0.81671439,227.29724,14.778207)"
       id="g8984"
       clip-path="url(#clipPath23792-20)">
      <g
         inkscape:label="Clip"
         id="g8982" />
    </g>
    <g
       clip-path="url(#clipPath23792-1)"
       id="g29814"
       transform="matrix(0.81671439,0,0,0.81671439,227.29724,14.778197)">
      <g
         id="g29812"
         inkscape:label="Clip" />
    </g>
    <g
       transform="matrix(0.81671439,0,0,0.81671439,227.29747,14.778197)"
       id="g23800-1"
       clip-path="url(#clipPath23792-3)">
      <g
         inkscape:label="Clip"
         id="g23798-3" />
    </g>
    <g
       transform="matrix(0.81671439,0,0,0.81671439,227.29729,14.778187)"
       id="g23800-8"
       clip-path="url(#clipPath23792-5)">
      <g
         inkscape:label="Clip"
         id="g23798-2" />
    </g>
    <g
       transform="matrix(0.81671439,0,0,0.81671439,227.29732,14.778278)"
       id="g7744"
       clip-path="url(#clipPath23792-0)">
      <g
         inkscape:label="Clip"
         id="g7742" />
    </g>
    <g
       clip-path="url(#clipPath23792-76)"
       id="g8332"
       transform="matrix(0.81671439,0,0,0.81671439,227.29731,14.778193)">
      <g
         id="g8330"
         inkscape:label="Clip" />
    </g>
    <g
       transform="matrix(0.81671439,0,0,0.81671439,227.29731,14.778217)"
       id="g8935"
       clip-path="url(#clipPath23792-39)">
      <g
         inkscape:label="Clip"
         id="g8933" />
    </g>
    <path
       style="opacity:1;fill:#cccccc;fill-opacity:1;stroke:#000000;stroke-width:0;stroke-linecap:butt;stroke-linejoin:miter;stroke-miterlimit:4;stroke-dasharray:none;stroke-opacity:1"
       d="M 187.80273 33.519531 L 185.1582 33.605469 L 184.49023 38.925781 L 190.86719 48.460938 C 192.80431 48.319961 194.7751 48.247984 196.75391 48.246094 C 196.86729 48.248399 196.98036 48.250127 197.09375 48.253906 L 190.16211 38.853516 L 187.80273 33.519531 z M 221.94922 34.759766 L 216.60547 38.652344 L 202.09766 48.431641 C 204.38699 48.577908 206.63605 48.818712 208.80859 49.148438 L 224.15039 39.066406 L 224.51758 35.033203 L 221.94922 34.759766 z M 152.08203 37.017578 L 149.69531 37.453125 L 153.7207 42.587891 L 180.20312 50.041016 C 181.97841 49.624852 183.8559 49.276876 185.80859 49.001953 L 158.9375 41.757812 L 152.08203 37.017578 z M 255.99414 40.804688 L 247.52734 43.714844 L 213.00586 49.916016 C 215.04533 50.361924 216.96545 50.889441 218.73242 51.490234 L 254.32031 45.113281 L 258.18945 41.40625 L 255.99414 40.804688 z M 121.875 45.123047 L 120.03125 45.855469 L 128.26367 50.183594 L 171.63281 52.964844 C 172.92284 52.331811 174.36829 51.749385 175.94727 51.226562 L 132.39844 48.697266 L 121.875 45.123047 z M 282.99414 51.001953 L 272.42383 52.576172 L 222.01758 52.771484 C 223.56325 53.459321 224.92357 54.208278 226.07617 55.003906 L 277.64453 54.787109 L 284.54883 51.855469 L 282.99414 51.001953 z M 168.73633 54.671875 L 113.74414 58.837891 L 100.82031 56.857422 L 99.742188 57.798828 L 111.18945 60.798828 L 166.26758 56.902344 C 166.90522 56.128032 167.73275 55.381255 168.73633 54.671875 z M 228.08008 56.630859 C 228.93837 57.47959 229.56799 58.35996 229.95898 59.255859 L 291.30859 66.923828 L 300.41992 65.119141 L 299.68945 64.115234 L 288.29102 64.166016 L 228.08008 56.630859 z M 165.05469 58.898438 L 105.01758 70.9375 L 91.257812 70.791016 L 91.076172 71.830078 L 104.35742 73.140625 L 164.69727 61.345703 L 164.66211 61.140625 C 164.62431 60.38831 164.75675 59.638582 165.05469 58.898438 z M 230.44531 61.033203 C 230.44909 61.067219 230.4552 61.103144 230.45898 61.138672 C 230.51303 62.008455 230.34383 62.876535 229.95117 63.728516 L 293.66797 80.056641 L 303.88086 79.595703 L 304.06641 78.564453 L 293.21484 77.083984 L 230.44531 61.033203 z M 165.30859 63.371094 L 107.66211 83.560547 L 94.71875 85.269531 L 95.453125 86.275391 L 108.96875 85.740234 L 167.13086 65.738281 C 166.33425 64.971944 165.72343 64.179195 165.30859 63.371094 z M 228.82422 65.417969 C 228.11023 66.271084 227.16645 67.089813 226.00977 67.861328 L 284.63867 92.617188 L 294.72461 93.558594 L 295.79883 92.621094 L 286.80859 89.787109 L 228.82422 65.417969 z M 169.49219 67.5625 L 121.14844 95.177734 L 110.58398 98.53125 L 112.14844 99.388672 L 124.26367 97.066406 L 173.24805 69.564453 C 171.83938 68.944157 170.58164 68.273354 169.49219 67.5625 z M 223.53711 69.291016 C 222.1236 69.99276 220.52153 70.632252 218.75781 71.199219 L 264.92773 103.06445 L 273.66992 105.29102 L 275.50977 104.5625 L 269.45508 100.71875 L 223.53711 69.291016 z M 176.98242 70.996094 L 143.84961 104.38281 L 136.94336 108.97852 L 139.15039 109.58203 L 148.4043 105.75586 L 178.28711 76.28125 L 179.55664 71.748047 C 178.66993 71.513279 177.81029 71.262996 176.98242 70.996094 z M 216.94336 74.503906 L 226.63672 96.451172 L 237.11914 110.15039 L 243.46094 113.39648 L 245.83984 112.96484 L 243.45898 108.57422 L 216.94336 74.503906 z "
       transform="matrix(0.26458334,0,0,0.26458334,0,244.08332)"
       id="path9978" />
    <path
       style="opacity:1;fill:#666666;fill-opacity:1;stroke:#000000;stroke-width:0;stroke-linecap:butt;stroke-linejoin:miter;stroke-miterlimit:4;stroke-dasharray:none;stroke-opacity:1"
       d="M 184.53516 22.021484 L 187.52344 33.037109 L 222.21484 34.302734 L 229.00195 23.642578 L 184.53516 22.021484 z M 181.87305 22.107422 L 139.04883 26.529297 L 151.36523 36.503906 L 184.83984 33.046875 L 181.87305 22.107422 z M 231.5918 23.919922 L 224.76172 34.650391 L 256.49414 40.46875 L 272.33984 31.390625 L 231.5918 23.919922 z M 136.63867 26.966797 L 100.62109 36.900391 L 120.67578 44.65625 L 148.87891 36.878906 L 136.63867 26.966797 z M 274.56055 31.998047 L 258.625 41.125 L 283.58398 50.779297 L 306.66406 44.414062 L 274.56055 31.998047 z M 98.763672 37.638672 L 73.896484 51.882812 L 99.21875 56.523438 L 118.7168 45.355469 L 98.763672 37.638672 z M 308.24219 45.277344 L 285.07227 51.666016 L 300.28906 63.986328 L 327.83789 61.142578 L 308.24219 45.277344 z M 72.8125 52.830078 L 62.089844 69.671875 L 89.640625 70.677734 L 98.056641 57.458984 L 72.8125 52.830078 z M 328.57812 62.160156 L 300.98242 65.009766 L 304.64844 78.517578 L 333.30273 79.5625 L 328.57812 62.160156 z M 61.908203 70.716797 L 66.630859 88.119141 L 93.148438 85.380859 L 89.441406 71.720703 L 61.908203 70.716797 z M 304.48242 79.564453 L 296.16211 92.636719 L 322.39844 97.447266 L 333.11914 80.607422 L 304.48242 79.564453 z M 93.939453 86.390625 L 67.373047 89.134766 L 86.966797 105 L 109.31055 98.837891 L 93.939453 86.390625 z M 295.15039 93.595703 L 275.82812 104.66406 L 296.44531 112.63867 L 321.31445 98.392578 L 295.15039 93.595703 z M 110.98047 99.673828 L 88.544922 105.85938 L 120.65039 118.27734 L 136.13867 109.4043 L 110.98047 99.673828 z M 274.06836 105.43945 L 246.04883 113.16602 L 258.57031 123.30664 L 294.58789 113.375 L 274.06836 105.43945 z M 138.44922 109.96094 L 122.86914 118.88477 L 163.60938 126.35352 L 166.11328 122.41992 L 167.58789 115.30273 L 138.44922 109.96094 z M 243.71875 113.66992 L 234.69727 114.60156 L 239.62695 125.45312 L 256.16406 123.74414 L 243.71875 113.66992 z "
       transform="matrix(0.26458334,0,0,0.26458334,0,244.08332)"
       id="path9980" />
    <path
       style="opacity:1;fill:#808080;fill-opacity:1;stroke:#000000;stroke-width:0;stroke-linecap:butt;stroke-linejoin:miter;stroke-miterlimit:4;stroke-dasharray:none;stroke-opacity:1"
       d="M 182.04688 14.636719 L 183.04883 18.699219 L 204.94141 18.701172 L 203.93555 14.638672 L 182.04688 14.636719 z M 214.36133 14.994141 L 208.23828 18.810547 L 229.89062 20.300781 L 236.01367 16.482422 L 214.36133 14.994141 z M 171.66797 14.996094 L 150.20898 16.486328 L 158.32031 20.302734 L 179.78125 18.814453 L 171.66797 14.996094 z M 183.97266 16.146484 L 202.75195 16.146484 L 203.01172 17.1875 L 184.23242 17.1875 L 183.97266 16.146484 z M 171.37891 16.53125 L 173.88281 17.705078 L 158.60938 18.767578 L 156.10742 17.585938 L 171.37891 16.53125 z M 214.75586 16.539062 L 231.25391 17.675781 L 229.50391 18.759766 L 213.00586 17.623047 L 214.75586 16.539062 z M 246.16211 17.541016 L 233.0957 20.632812 L 253.85156 23.568359 L 266.91602 20.474609 L 246.16211 17.541016 z M 140.19141 17.544922 L 119.79883 20.480469 L 134.76758 23.572266 L 155.15234 20.636719 L 140.19141 17.544922 z M 140.13867 19.078125 L 146.40039 20.369141 L 134.81641 22.037109 L 128.57227 20.746094 L 140.13867 19.078125 z M 246.22461 19.078125 L 258.76758 20.849609 L 253.7832 22.029297 L 241.24219 20.257812 L 246.22461 19.078125 z M 276.49023 22.203125 L 256.86914 24.113281 L 276.10156 28.402344 L 295.71484 26.492188 L 276.49023 22.203125 z M 110.44922 22.210938 L 91.767578 26.496094 L 113.12695 28.40625 L 131.81836 24.119141 L 110.44922 22.210938 z M 276.39453 23.728516 L 286.1543 25.90625 L 276.19531 26.873047 L 266.45117 24.695312 L 276.39453 23.728516 z M 110.56836 23.736328 L 122.1875 24.777344 L 113.02539 26.880859 L 101.40039 25.839844 L 110.56836 23.736328 z M 304.41602 28.837891 L 278.85156 29.142578 L 295.96484 34.65625 L 321.5293 34.351562 L 304.41602 28.837891 z M 83.359375 28.845703 L 66.9375 34.361328 L 94.050781 34.664062 L 110.48047 29.150391 L 83.359375 28.845703 z M 304.1875 30.349609 L 312.24023 32.949219 L 296.19336 33.138672 L 288.125 30.539062 L 304.1875 30.349609 z M 83.587891 30.355469 L 101.51758 30.554688 L 93.810547 33.146484 L 75.886719 32.947266 L 83.587891 30.355469 z M 298.35352 35.568359 L 312.83984 42.140625 L 343.58398 43.816406 L 329.09961 37.246094 L 298.35352 35.568359 z M 91.787109 35.576172 L 59.742188 37.253906 L 46.078125 43.826172 L 78.125 42.148438 L 91.787109 35.576172 z M 84.339844 37.478516 L 77.740234 40.652344 L 53.527344 41.923828 L 60.126953 38.748047 L 84.339844 37.478516 z M 306.30664 37.517578 L 328.73242 38.742188 L 335.62695 41.873047 L 313.20898 40.646484 L 306.30664 37.517578 z M 314.79883 43.199219 L 326.21094 50.626953 L 344.69727 52.724609 C 344.67907 52.258607 344.65626 51.647385 344.63867 51.199219 L 326.73828 49.166016 L 320.98828 45.421875 L 344.52148 48.095703 C 344.48882 47.271353 344.48829 47.295591 344.45898 46.5625 L 314.79883 43.199219 z M 76.300781 43.207031 L 40.306641 47.173828 L 29.824219 54.603516 L 65.824219 50.636719 L 76.300781 43.207031 z M 70.667969 45.355469 L 65.265625 49.179688 L 35.464844 52.457031 L 40.867188 48.634766 L 70.667969 45.355469 z M 327.67578 51.796875 L 335.67188 59.857422 L 345.0293 61.453125 C 345.00863 60.904683 344.99111 60.451758 344.9707 59.914062 L 336.40234 58.453125 L 332.06836 54.083984 L 344.83203 56.259766 C 344.81237 55.749589 344.79067 55.205757 344.77148 54.710938 L 327.67578 51.796875 z M 64.511719 51.808594 L 25.654297 58.314453 L 18.673828 66.376953 L 57.529297 59.869141 L 64.511719 51.808594 z M 60.615234 53.996094 L 56.738281 58.46875 L 22.560547 64.197266 L 26.451172 59.716797 L 60.615234 53.996094 z M 336.60938 61.105469 L 340.94141 69.556641 L 345.36328 70.570312 C 345.34417 70.036581 345.3317 69.540885 345.3125 69.009766 L 341.96875 68.244141 L 339.43555 63.304688 L 345.14844 64.615234 C 345.12709 64.039485 345.11106 63.618191 345.08984 63.050781 L 336.60938 61.105469 z M 56.757812 61.121094 L 16.220703 70.330078 L 12.953125 78.779297 L 53.488281 69.568359 L 56.757812 61.121094 z M 54.318359 63.224609 L 52.369141 68.273438 L 15.384766 76.681641 L 17.333984 71.632812 L 54.318359 63.224609 z M 341.31055 70.84375 L 341.84375 79.423828 L 345.69531 80.550781 C 345.67761 80.015259 345.66069 79.504223 345.64258 78.964844 L 343.28906 78.275391 L 342.94922 72.902344 L 345.46484 73.638672 C 345.44564 73.09129 345.4315 72.591606 345.41211 72.044922 L 341.31055 70.84375 z M 53.285156 70.857422 L 12.294922 82.855469 L 12.832031 91.433594 L 53.822266 79.435547 L 53.285156 70.857422 z M 51.896484 72.84375 L 52.236328 78.328125 L 14.226562 89.453125 L 13.878906 83.966797 L 51.896484 72.84375 z M 341.64453 80.712891 L 338.375 89.158203 L 346.06445 91.964844 C 346.04944 91.424709 346.03554 90.900554 346.01953 90.345703 L 340.33594 88.273438 L 342.51367 82.648438 L 345.80273 83.847656 C 345.7855 83.306724 345.76778 82.758269 345.75 82.210938 L 341.64453 80.712891 z M 54.191406 80.720703 L 14.003906 95.511719 L 18.337891 103.95703 L 58.525391 89.167969 L 54.191406 80.720703 z M 53.453125 82.603516 L 56.400391 88.339844 L 19.068359 102.07812 L 16.130859 96.341797 L 53.453125 82.603516 z M 337.60156 90.40625 L 330.62109 98.466797 L 346.3125 105.5332 C 346.31295 105.06448 346.30507 104.42045 346.30078 103.86914 L 333.0957 97.921875 L 338.00391 92.244141 L 346.16211 95.917969 C 346.14849 95.358013 346.13624 94.826252 346.12109 94.242188 L 337.60156 90.40625 z M 59.458984 90.417969 L 21.289062 107.91016 L 29.287109 115.97266 L 67.449219 98.478516 L 59.458984 90.417969 z M 59.130859 92.236328 L 64.851562 98.009766 L 29.617188 114.16211 L 23.882812 108.38086 L 59.130859 92.236328 z M 329.30273 99.638672 L 318.82422 107.06836 L 343.71875 120.91992 L 346.54102 120.76172 L 321.65234 106.91211 L 329.4043 101.42773 L 346.93945 111.18555 C 346.73028 110.56872 346.57156 109.90644 346.46875 109.18945 L 329.30273 99.638672 z M 68.919922 99.646484 L 33.933594 119.67773 L 45.345703 127.10742 L 80.333984 107.07812 L 68.919922 99.646484 z M 68.867188 101.41992 L 77.4375 106.99414 L 45.392578 125.33789 L 36.830078 119.76367 L 68.867188 101.41992 z M 317 108.12305 L 303.34375 114.69531 L 314.62305 122.55273 L 317.07422 122.41406 L 306.33594 114.93555 L 316.86914 109.87109 L 333.54688 121.49023 L 335.99219 121.35352 L 317 108.12305 z M 82.294922 108.13281 L 51.548828 130.45508 L 66.025391 137.02734 L 96.773438 114.70508 L 82.294922 108.13281 z M 82.472656 109.87891 L 93.78125 115.00781 L 65.847656 135.28711 L 54.546875 130.15625 L 82.472656 109.87891 z M 301.07422 115.61133 L 284.65234 121.12305 L 287.91797 124.04883 L 290.04297 123.92969 L 287.59375 121.73438 L 300.72461 117.32617 L 307.0293 122.97852 L 309.16016 122.85938 L 301.07422 115.61133 z M 99.167969 115.61914 L 73.59375 139.91992 L 90.708984 145.43555 L 116.28125 121.13281 L 99.167969 115.61914 z M 99.554688 117.33398 L 113.38672 121.79297 L 90.318359 143.72461 L 76.478516 139.26562 L 99.554688 117.33398 z M 281.99805 121.86719 L 267.50781 125.19336 L 276.45898 124.69141 L 281.42188 123.55078 L 282.10156 124.375 L 283.98047 124.26953 L 281.99805 121.86719 z M 119.0293 121.875 L 99.408203 147.7832 L 118.63477 152.07422 L 138.25586 126.16602 L 119.0293 121.875 z M 119.64844 123.56641 L 135.63672 127.13281 L 118.01562 150.38477 L 102.03516 146.82031 L 119.64844 123.56641 z M 141.2793 126.70703 L 128.20703 153.80078 L 148.96289 156.73438 L 162.03516 129.64258 L 141.2793 126.70703 z M 142.16211 128.35742 L 159.77539 130.85352 L 148.08203 155.08789 L 130.46875 152.5918 L 142.16211 128.35742 z M 303.0293 147.37109 L 297.16406 147.65234 L 285.24609 150.38477 L 283.53516 148.30859 L 281.6543 148.40039 L 284.67578 152.06445 L 303.36328 147.77539 L 303.0293 147.37109 z M 272.58398 148.83594 L 270.89648 148.91797 L 272.93945 152.61523 L 255.76172 155.08789 L 252.83203 149.78711 L 251.15039 149.86719 L 254.94336 156.73242 L 275.32617 153.79883 L 272.58398 148.83594 z "
       transform="matrix(0.26458334,0,0,0.26458334,0,244.08332)"
       id="path9982" />
    <path
       style="opacity:1;fill:#cccccc;fill-opacity:1;stroke:#aa4400;stroke-width:0;stroke-linecap:round;stroke-linejoin:round;stroke-miterlimit:4;stroke-dasharray:none;stroke-opacity:1;paint-order:fill markers stroke"
       d="m 43.431338,287.24455 v 5.6317 h 22.85132 v -5.6317 z m 1.570964,0.5147 h 19.709392 v 4.6023 H 45.002302 Z"
       id="path9986"
       inkscape:connector-curvature="0"
       sodipodi:nodetypes="cccccccccc" />
    <path
       style="opacity:1;fill:#cccccc;fill-opacity:1;stroke:#aa4400;stroke-width:0;stroke-linecap:round;stroke-linejoin:round;stroke-miterlimit:4;stroke-dasharray:none;stroke-opacity:1;paint-order:fill markers stroke"
       d="M 172.36523 115.95117 L 164.15039 159.59375 L 250.51758 159.59375 L 245.71484 150.12891 L 243.43359 150.23828 L 247.125 157.51367 L 166.65625 157.51367 L 174.08203 118.04883 L 227.44531 118.72852 L 231.74414 127.19922 L 234.01367 127.07227 L 228.73242 116.66602 L 172.36523 115.95117 z "
       transform="matrix(0.26458334,0,0,0.26458334,0,244.08332)"
       id="path9988" />
    <path
       style="opacity:1;fill:#cccccc;fill-opacity:1;stroke:#aa4400;stroke-width:0;stroke-linecap:round;stroke-linejoin:round;stroke-miterlimit:4;stroke-dasharray:none;stroke-opacity:1;paint-order:fill markers stroke"
       d="m 54.155748,257.95693 -4.240567,0.0605 -4.215763,15.72411 14.063224,0.0946 z m -0.31936,1.35961 4.551143,13.19351 -11.539347,-0.40153 3.577561,-12.76408 z"
       id="path9990"
       inkscape:connector-curvature="0"
       sodipodi:nodetypes="cccccccccc" />
    <g
       clip-path="url(#clipPath23792-15)"
       id="g9996"
       transform="matrix(0.81671439,0,0,0.81671439,227.29725,14.778197)">
      <g
         id="g9994"
         inkscape:label="Clip" />
    </g>
    <path
       style="opacity:1;fill:#cccccc;fill-opacity:1;stroke:#aa4400;stroke-width:0;stroke-linecap:round;stroke-linejoin:round;stroke-miterlimit:4;stroke-dasharray:none;stroke-opacity:1;paint-order:fill markers stroke"
       d="m 47.769801,276.40128 -0.749823,8.43876 12.061052,-0.032 -1.536859,-8.24291 z m 0.527617,0.56689 8.825074,0.15452 1.330153,7.13496 -10.804282,0.015 z"
       id="path9998"
       inkscape:connector-curvature="0"
       sodipodi:nodetypes="cccccccccc" />
    <path
       id="path10000"
       d="m 95.48529,279.9705 -37.50007,1.784 0.20147,1.13301 38.70019,-1.52771 3.34089,-3.96792 -2.11399,-0.51142 z"
       style="opacity:1;fill:#cccccc;fill-opacity:1;stroke:#aa4400;stroke-width:0;stroke-linecap:round;stroke-linejoin:round;stroke-miterlimit:4;stroke-dasharray:none;stroke-opacity:1;paint-order:fill markers stroke"
       inkscape:connector-curvature="0"
       sodipodi:nodetypes="ccccccc" />
    <path
       sodipodi:nodetypes="ccccc"
       inkscape:connector-curvature="0"
       style="opacity:1;fill:#666666;fill-opacity:1;stroke:#aa4400;stroke-width:0;stroke-linecap:round;stroke-linejoin:round;stroke-miterlimit:4;stroke-dasharray:none;stroke-opacity:1;paint-order:fill markers stroke"
       d="m 95.48529,279.9705 -38.10811,1.784 -0.12593,-1.46285 39.49531,-1.83177 z"
       id="path10002" />
    <path
       id="path10004"
       d="m 48.298225,276.94595 8.824267,0.17674 1.330153,7.13496 -10.820012,0.0258 z"
       style="opacity:1;fill:#666666;fill-opacity:1;stroke:#aa4400;stroke-width:0;stroke-linecap:round;stroke-linejoin:round;stroke-miterlimit:4;stroke-dasharray:none;stroke-opacity:1;paint-order:fill markers stroke"
       inkscape:connector-curvature="0"
       sodipodi:nodetypes="ccccc" />
    <path
       style="opacity:1;fill:#cccccc;fill-opacity:1;stroke:#aa4400;stroke-width:0;stroke-linecap:round;stroke-linejoin:round;stroke-miterlimit:4;stroke-dasharray:none;stroke-dashoffset:0;stroke-opacity:1;paint-order:markers fill stroke"
       d="m 50.01337,259.0442 7.73131,13.6183 h 0.85007 L 50.711,259.0442 Z"
       id="path10006"
       inkscape:connector-curvature="0"
       sodipodi:nodetypes="ccccc" />
    <path
       sodipodi:nodetypes="ccccc"
       inkscape:connector-curvature="0"
       id="path10008"
       d="m 53.75061,259.07727 -7.25072,13.38679 h 0.85007 l 7.03213,-12.95684 z"
       style="opacity:1;fill:#cccccc;fill-opacity:1;stroke:#aa4400;stroke-width:0;stroke-linecap:round;stroke-linejoin:round;stroke-miterlimit:4;stroke-dasharray:none;stroke-dashoffset:0;stroke-opacity:1;paint-order:markers fill stroke" />
    <g
       id="g10047"
       transform="translate(-367.0142,-3.0033416)">
      <path
         inkscape:connector-curvature="0"
         id="path10019"
         d="m 470.81106,254.63513 c -1.18975,-2e-5 -2.31622,0.0408 -3.35433,0.1111 l 0.45836,1.17253 c 0.90048,-0.0581 1.87272,-0.092 2.89597,-0.092 4.54194,3e-5 8.22357,0.62151 8.22275,1.38803 v 3.64887 c 0.48106,-0.0684 0.74094,-0.20116 0.71105,-0.5452 0.0679,-0.54465 -0.12296,-1.20226 0.24806,-1.32136 v -2.81223 c 0,-0.85587 -4.11049,-1.54974 -9.18186,-1.54977 z m -11.84063,0.15762 -0.14264,0.68781 2.80088,2.36728 c 0.27575,0.26622 0.1292,0.67199 0.26096,0.93535 0.20635,0.25887 0.62119,0.81891 0.69815,0.32245 v -1.85931 z m 2.65824,18.47328 v 2.64065 c 0,0.85593 4.11075,1.54982 9.18239,1.5498 5.07143,-3e-5 9.18239,-0.69392 9.18186,-1.5498 v -1.25574 c -0.30546,0.14859 -0.6404,0.26154 -0.99115,0.3447 -0.35719,0.71088 -3.88604,1.26916 -8.19071,1.26918 -4.54213,3e-5 -8.2241,-0.62148 -8.22328,-1.38803 v -1.17771 c -0.0539,-0.0273 -0.10821,-0.0544 -0.16123,-0.0827 z"
         style="opacity:1;fill:#cccccc;fill-opacity:1;stroke:#ffff00;stroke-width:0;stroke-linecap:round;stroke-linejoin:round;stroke-miterlimit:4;stroke-dasharray:none;stroke-opacity:1;paint-order:fill markers stroke"
         sodipodi:nodetypes="ccccccccsccccccccccsccccccccc" />
      <path
         inkscape:connector-curvature="0"
         id="path10021"
         d="m 461.60076,258.15325 c -0.056,0.003 -0.11129,0.0143 -0.16434,0.0326 -0.2585,0.0844 -0.49913,0.20785 -0.68006,0.44132 -0.18089,0.23342 -0.23487,0.57745 -0.17362,0.83198 0.12237,0.50901 0.45808,0.78796 0.83611,1.0821 0.0314,0.0244 0.0663,0.0477 0.0987,0.0718 -0.0271,0.005 -0.0549,0.007 -0.0811,0.016 -0.2585,0.0844 -0.49913,0.20786 -0.68006,0.4413 -0.18089,0.23347 -0.23487,0.57748 -0.17362,0.83201 0.12237,0.50901 0.45808,0.78796 0.83611,1.08209 0.0553,0.043 0.11555,0.0849 0.17415,0.12714 -0.0533,0.004 -0.10602,0.0136 -0.15658,0.031 -0.2585,0.0844 -0.49913,0.20785 -0.68006,0.44129 -0.18089,0.23347 -0.23487,0.57748 -0.17362,0.83201 0.1102,0.45847 0.39619,0.72986 0.72761,0.99425 -0.2096,0.0828 -0.40315,0.19913 -0.55399,0.39378 -0.18089,0.23342 -0.23487,0.57746 -0.17362,0.83199 0.12237,0.509 0.45808,0.78795 0.83611,1.08209 0.0314,0.0244 0.0663,0.0477 0.0987,0.0718 -0.0271,0.005 -0.0549,0.007 -0.0811,0.016 -0.2585,0.0844 -0.49913,0.20785 -0.68006,0.4413 -0.18089,0.23346 -0.23487,0.57748 -0.17362,0.832 0.12237,0.50901 0.45808,0.78796 0.83611,1.0821 0.0553,0.043 0.11555,0.0849 0.17415,0.12713 -0.0533,0.004 -0.10602,0.0136 -0.15658,0.031 -0.2585,0.0844 -0.49913,0.20786 -0.68006,0.4413 -0.18089,0.23347 -0.23484,0.57748 -0.17362,0.83201 0.12237,0.509 0.45808,0.78795 0.83611,1.08209 0.7561,0.5883 1.83664,1.10329 2.78691,1.35186 1.73956,0.45503 4.43892,0.9719 6.51174,1.08985 2.07733,0.11821 5.75871,-0.0501 7.52928,-0.28163 0.93453,-0.12221 1.84814,-0.39206 2.46496,-0.95705 0.3084,-0.28249 0.56409,-0.74049 0.46871,-1.23198 -0.18764,-0.45217 -0.43831,-0.81161 -0.77877,-1.04126 0.10916,-0.0741 0.2142,-0.15251 0.31006,-0.2403 0.30837,-0.28249 0.56409,-0.74049 0.46871,-1.23198 -0.1779,-0.42873 -0.4127,-0.77388 -0.72657,-1.00459 0.0906,-0.0643 0.1769,-0.13253 0.25786,-0.2067 0.30837,-0.28249 0.56409,-0.74049 0.46871,-1.23195 -0.15073,-0.36325 -0.34266,-0.66633 -0.58809,-0.89143 0.0398,-0.0323 0.0818,-0.0622 0.11938,-0.0966 0.30837,-0.2825 0.56409,-0.74049 0.46871,-1.23198 -0.18764,-0.45217 -0.43831,-0.81163 -0.77877,-1.04127 0.10916,-0.0741 0.2142,-0.1525 0.31006,-0.24029 0.30837,-0.2825 0.56409,-0.74049 0.46871,-1.23198 -0.1779,-0.42873 -0.4127,-0.77388 -0.72657,-1.0046 0.0906,-0.0643 0.1769,-0.13253 0.25786,-0.20669 0.30837,-0.2825 0.56409,-0.74049 0.46871,-1.23195 -0.26424,-0.63683 -0.64926,-1.09575 -1.24179,-1.25627 v 1.46399 c 0.003,0.005 0.0178,0.0243 0.0176,0.0233 -0.008,0.009 -0.0275,0.0315 -0.0863,0.0853 -0.1419,0.12999 -0.46903,0.29126 -0.86556,0.42373 4.2e-4,0.60347 6.6e-4,0.56343 0.001,1.30845 0.32771,-0.0783 0.6441,-0.17883 0.93327,-0.31367 v 0.91623 c 0.003,0.005 0.0178,0.0243 0.0176,0.0233 -0.008,0.009 -0.0275,0.0315 -0.0863,0.0852 -0.14182,0.12996 -0.46874,0.2913 -0.86506,0.42375 1.3e-4,0.39921 -5.8e-4,0.8876 -5e-4,1.30845 0.32806,-0.0784 0.64484,-0.1787 0.9343,-0.31367 v 0.9865 c 0.003,0.005 0.0178,0.0243 0.0176,0.0233 -0.008,0.009 -0.0275,0.0315 -0.0863,0.0853 -0.1419,0.13004 -0.46895,0.29178 -0.86556,0.42428 -3e-5,0.43606 -4.2e-4,0.86096 -5.3e-4,1.30845 0.32829,-0.0784 0.64521,-0.17915 0.93483,-0.3142 v 0.69297 c 0.003,0.005 0.0178,0.0243 0.0176,0.0233 -0.008,0.009 -0.0275,0.0315 -0.0863,0.0853 -0.14203,0.13009 -0.46956,0.2917 -0.86662,0.42426 -1.6e-4,0.45227 -2.1e-4,0.85381 -5e-4,1.30844 0.32864,-0.0784 0.64595,-0.17902 0.93586,-0.31419 v 0.91622 c 0.003,0.005 0.0178,0.0243 0.0176,0.0233 -0.008,0.009 -0.0275,0.0315 -0.0863,0.0853 -0.14214,0.13025 -0.47009,0.29218 -0.86765,0.42479 -4e-4,0.45217 5.8e-4,0.86333 0,1.30794 0.32882,-0.0784 0.64632,-0.17894 0.93639,-0.31419 v 0.98649 c 0.003,0.005 0.0178,0.0243 0.0176,0.0233 -0.008,0.009 -0.0275,0.0314 -0.0863,0.0852 -0.24358,0.22312 -1.02516,0.54139 -1.78541,0.64079 -1.61901,0.2117 -5.37419,0.38061 -7.29464,0.27131 -1.92495,-0.10954 -4.61579,-0.61788 -6.26991,-1.05058 -1.21045,-0.34309 -2.2978,-0.79553 -2.89129,-1.7508 v -0.75862 c 0.29025,0.20572 0.61725,0.39886 0.95911,0.57259 6.1e-4,-0.4467 -3.7e-4,-0.84675 0,-1.38081 -0.38489,-0.25 -0.71527,-0.5542 -0.95911,-0.94671 v -0.68884 c 0.29025,0.20572 0.61725,0.39926 0.95911,0.57309 1.9e-4,-0.57994 -2e-5,-0.76896 0,-1.38078 -0.38489,-0.25003 -0.71527,-0.55422 -0.95911,-0.94673 v -0.46509 c 0.29025,0.20572 0.61725,0.39886 0.95911,0.57259 -8e-5,-0.6159 1.6e-4,-0.78338 0,-1.38081 -0.38489,-0.25001 -0.71527,-0.5542 -0.95911,-0.94671 v -0.75861 c 0.29025,0.20571 0.61725,0.39886 0.95911,0.57259 -2.3e-4,-0.55883 2.4e-4,-0.89752 0,-1.38081 -0.38489,-0.25001 -0.71527,-0.5542 -0.95911,-0.94671 v -0.68884 c 0.29025,0.20571 0.61725,0.39926 0.95911,0.57309 -2.3e-4,-0.40381 1.9e-4,-1.108 0,-1.38078 -0.38489,-0.25004 -0.71527,-0.55423 -0.95911,-0.94674 v -0.78599 c -0.009,-2.2e-4 -0.0185,-2.2e-4 -0.0279,0 z"
         style="color:#000000;font-style:normal;font-variant:normal;font-weight:normal;font-stretch:normal;font-size:medium;line-height:normal;font-family:sans-serif;font-variant-ligatures:normal;font-variant-position:normal;font-variant-caps:normal;font-variant-numeric:normal;font-variant-alternates:normal;font-feature-settings:normal;text-indent:0;text-align:start;text-decoration:none;text-decoration-line:none;text-decoration-style:solid;text-decoration-color:#000000;letter-spacing:normal;word-spacing:normal;text-transform:none;writing-mode:lr-tb;direction:ltr;text-orientation:mixed;dominant-baseline:auto;baseline-shift:baseline;text-anchor:start;white-space:normal;shape-padding:0;clip-rule:nonzero;display:inline;overflow:visible;visibility:visible;opacity:1;isolation:auto;mix-blend-mode:normal;color-interpolation:sRGB;color-interpolation-filters:linearRGB;solid-color:#000000;solid-opacity:1;vector-effect:none;fill:#cccccc;fill-opacity:1;fill-rule:nonzero;stroke:none;stroke-width:1.24354172;stroke-linecap:round;stroke-linejoin:miter;stroke-miterlimit:4;stroke-dasharray:none;stroke-dashoffset:0;stroke-opacity:1;color-rendering:auto;image-rendering:auto;shape-rendering:auto;text-rendering:auto;enable-background:accumulate" />
      <ellipse
         ry="0.68442249"
         rx="0.44354036"
         cy="263.01364"
         cx="462.58777"
         id="ellipse10023"
         style="opacity:1;fill:#ff0000;fill-opacity:1;stroke:#aa4400;stroke-width:0;stroke-linecap:round;stroke-linejoin:round;stroke-miterlimit:4;stroke-dasharray:none;stroke-opacity:1;paint-order:fill markers stroke" />
      <ellipse
         style="opacity:1;fill:#ff0000;fill-opacity:1;stroke:#aa4400;stroke-width:0;stroke-linecap:round;stroke-linejoin:round;stroke-miterlimit:4;stroke-dasharray:none;stroke-opacity:1;paint-order:fill markers stroke"
         id="ellipse10025"
         cx="462.58777"
         cy="260.57202"
         rx="0.44354036"
         ry="0.68603855" />
      <ellipse
         style="opacity:1;fill:#ff0000;fill-opacity:1;stroke:#aa4400;stroke-width:0;stroke-linecap:round;stroke-linejoin:round;stroke-miterlimit:4;stroke-dasharray:none;stroke-opacity:1;paint-order:fill markers stroke"
         id="ellipse10027"
         cx="462.58777"
         cy="265.51218"
         rx="0.44354036"
         ry="0.66940397" />
      <ellipse
         ry="0.69038981"
         rx="0.44354036"
         cy="267.75317"
         cx="462.58777"
         id="ellipse10029"
         style="opacity:1;fill:#ff0000;fill-opacity:1;stroke:#aa4400;stroke-width:0;stroke-linecap:round;stroke-linejoin:round;stroke-miterlimit:4;stroke-dasharray:none;stroke-opacity:1;paint-order:fill markers stroke" />
      <ellipse
         style="opacity:1;fill:#ff0000;fill-opacity:1;stroke:#aa4400;stroke-width:0;stroke-linecap:round;stroke-linejoin:round;stroke-miterlimit:4;stroke-dasharray:none;stroke-opacity:1;paint-order:fill markers stroke"
         id="ellipse10031"
         cx="462.58777"
         cy="270.19644"
         rx="0.44354036"
         ry="0.69040531" />
      <ellipse
         ry="0.65710115"
         rx="0.44354036"
         cy="261.90936"
         cx="479.00436"
         id="ellipse10033"
         style="opacity:1;fill:#ff0000;fill-opacity:1;stroke:#aa4400;stroke-width:0;stroke-linecap:round;stroke-linejoin:round;stroke-miterlimit:4;stroke-dasharray:none;stroke-opacity:1;paint-order:fill markers stroke" />
      <ellipse
         style="opacity:1;fill:#ff0000;fill-opacity:1;stroke:#aa4400;stroke-width:0;stroke-linecap:round;stroke-linejoin:round;stroke-miterlimit:4;stroke-dasharray:none;stroke-opacity:1;paint-order:fill markers stroke"
         id="ellipse10035"
         cx="479.00485"
         cy="264.35266"
         rx="0.44354036"
         ry="0.65710115" />
      <ellipse
         ry="0.65710115"
         rx="0.44354036"
         cy="266.86673"
         cx="479.00436"
         id="ellipse10037"
         style="opacity:1;fill:#ff0000;fill-opacity:1;stroke:#aa4400;stroke-width:0;stroke-linecap:round;stroke-linejoin:round;stroke-miterlimit:4;stroke-dasharray:none;stroke-opacity:1;paint-order:fill markers stroke" />
      <ellipse
         style="opacity:1;fill:#ff0000;fill-opacity:1;stroke:#aa4400;stroke-width:0;stroke-linecap:round;stroke-linejoin:round;stroke-miterlimit:4;stroke-dasharray:none;stroke-opacity:1;paint-order:fill markers stroke"
         id="ellipse10039"
         cx="479.0033"
         cy="269.08673"
         rx="0.44354036"
         ry="0.65710115" />
      <ellipse
         ry="0.65710115"
         rx="0.44354036"
         cy="271.53052"
         cx="479.00226"
         id="ellipse10041"
         style="opacity:1;fill:#ff0000;fill-opacity:1;stroke:#aa4400;stroke-width:0;stroke-linecap:round;stroke-linejoin:round;stroke-miterlimit:4;stroke-dasharray:none;stroke-opacity:1;paint-order:fill markers stroke" />
      <path
         sodipodi:nodetypes="ccccccccc"
         inkscape:connector-curvature="0"
         id="path10043"
         d="m 467.03577,254.8164 -7.51578,-0.14057 4.13182,2.68782 c -0.009,4.58123 -0.10668,10.05271 -0.0471,14.63889 2.53291,0.96743 9.22732,1.83261 14.29062,1.14618 0.006,-5.55488 0.13836,-11.57753 0,-15.78507 -1.71558,-0.74353 -6.24818,-1.05828 -10.00871,-0.76483 l -0.39253,-0.60989 z"
         style="opacity:1;fill:#808080;fill-opacity:1;stroke:#aa4400;stroke-width:0;stroke-linecap:round;stroke-linejoin:round;stroke-miterlimit:4;stroke-dasharray:none;stroke-opacity:1;paint-order:fill markers stroke" />
      <path
         style="opacity:1;fill:url(#linearGradient10457);fill-opacity:1;stroke:#aa4400;stroke-width:0;stroke-linecap:round;stroke-linejoin:round;stroke-miterlimit:4;stroke-dasharray:none;stroke-opacity:1;paint-order:fill markers stroke"
         d="m 466.44046,254.79161 -3.44704,-0.29988 -2.74545,0.16785 3.83222,2.54225 c -0.009,4.58123 -0.01,9.998 0.0498,14.58418 2.53291,0.96742 8.27212,1.65555 13.33543,0.96911 0.006,-5.55487 0.10527,-10.82018 -0.0331,-15.02772 -1.71558,-0.74353 -5.9092,-0.98385 -9.66972,-0.6904 l -0.58063,-0.91583 z"
         id="path10045"
         inkscape:connector-curvature="0"
         sodipodi:nodetypes="cccccccccc" />
    </g>
    <path
       style="opacity:1;fill:#cccccc;fill-opacity:1;stroke:#aa4400;stroke-width:0;stroke-linecap:round;stroke-linejoin:round;stroke-miterlimit:4;stroke-dasharray:none;stroke-dashoffset:0;stroke-opacity:1;paint-order:markers fill stroke"
       d="m 36.836785,284.74537 c -0.565943,-0.089 -1.294696,-0.20778 -1.619453,-0.26395 l -0.590463,-0.10208 1.501209,-3.13968 1.501206,-3.13965 2.127911,0.30581 c 1.170353,0.16817 2.177066,0.35494 2.237145,0.41502 0.06008,0.0601 -0.541634,1.46394 -1.337138,3.11968 l -1.446374,3.01045 -0.672528,-0.022 c -0.36989,-0.0119 -1.135574,-0.0947 -1.701515,-0.18372 z"
       id="path12472"
       inkscape:connector-curvature="0" />
    <path
       style="opacity:1;fill:#cccccc;fill-opacity:1;stroke:#aa4400;stroke-width:0;stroke-linecap:round;stroke-linejoin:round;stroke-miterlimit:4;stroke-dasharray:none;stroke-dashoffset:0;stroke-opacity:1;paint-order:markers fill stroke"
       d="m 29.164003,283.39276 c -1.101447,-0.25132 -2.021258,-0.47559 -2.044025,-0.49837 -0.03282,-0.0328 4.166299,-5.64681 4.479481,-5.98881 0.0747,-0.0816 4.197617,0.76046 4.197617,0.8573 0,0.0437 -4.595447,6.11238 -4.616768,6.09682 -0.0075,-0.006 -0.91486,-0.21561 -2.016305,-0.46694 z"
       id="path12474"
       inkscape:connector-curvature="0" />
    <path
       style="opacity:1;fill:#cccccc;fill-opacity:1;stroke:#aa4400;stroke-width:0;stroke-linecap:round;stroke-linejoin:round;stroke-miterlimit:4;stroke-dasharray:none;stroke-dashoffset:0;stroke-opacity:1;paint-order:markers fill stroke"
       d="m 22.076363,281.49184 -1.793808,-0.58092 1.419632,-1.34213 c 0.780796,-0.73818 2.143289,-2.03271 3.02776,-2.87676 l 1.608126,-1.53463 1.782856,0.57216 c 0.980569,0.31469 1.782855,0.58565 1.782855,0.60216 0,0.0308 -4.857719,4.66683 -5.612662,5.35647 l -0.42095,0.38454 z"
       id="path12476"
       inkscape:connector-curvature="0" />
    <path
       style="opacity:1;fill:#cccccc;fill-opacity:1;stroke:#aa4400;stroke-width:0;stroke-linecap:round;stroke-linejoin:round;stroke-miterlimit:4;stroke-dasharray:none;stroke-dashoffset:0;stroke-opacity:1;paint-order:markers fill stroke"
       d="m 15.903602,279.17192 -1.418468,-0.65752 3.242583,-2.3537 c 1.783421,-1.29456 3.436315,-2.49169 3.673099,-2.66034 l 0.430517,-0.3066 1.416666,0.63736 c 0.779167,0.35054 1.416807,0.66439 1.416984,0.69741 2.65e-4,0.0695 -7.078371,5.22431 -7.237243,5.27029 -0.05812,0.0169 -0.743979,-0.2653 -1.524138,-0.6269 z"
       id="path12478"
       inkscape:connector-curvature="0" />
    <path
       style="opacity:1;fill:#cccccc;fill-opacity:1;stroke:#aa4400;stroke-width:0;stroke-linecap:round;stroke-linejoin:round;stroke-miterlimit:4;stroke-dasharray:none;stroke-dashoffset:0;stroke-opacity:1;paint-order:markers fill stroke"
       d="m 10.891714,276.48947 -1.0983305,-0.71732 4.2131615,-2.41059 4.213162,-2.41062 1.069692,0.68303 c 0.58833,0.37562 1.070406,0.70942 1.071276,0.7417 0.0011,0.0427 -8.001923,4.6677 -8.32386,4.81039 -0.02572,0.0114 -0.54102,-0.30207 -1.145101,-0.69659 z"
       id="path12480"
       inkscape:connector-curvature="0" />
    <path
       style="opacity:1;fill:#cccccc;fill-opacity:1;stroke:#aa4400;stroke-width:0;stroke-linecap:round;stroke-linejoin:round;stroke-miterlimit:4;stroke-dasharray:none;stroke-dashoffset:0;stroke-opacity:1;paint-order:markers fill stroke"
       d="m 7.0931412,273.5224 c -0.3692472,-0.39931 -0.6392519,-0.75485 -0.6000141,-0.79015 0.03924,-0.0353 2.1111792,-0.99642 4.6043109,-2.13585 l 4.532966,-2.07169 0.727657,0.72338 c 0.400212,0.39788 0.696648,0.75101 0.658744,0.7848 -0.08483,0.0756 -8.897472,4.11591 -9.1039661,4.17388 -0.095216,0.0267 -0.3887761,-0.21838 -0.8196977,-0.68437 z"
       id="path12482"
       inkscape:connector-curvature="0" />
    <path
       style="opacity:1;fill:#cccccc;fill-opacity:1;stroke:#aa4400;stroke-width:0;stroke-linecap:round;stroke-linejoin:round;stroke-miterlimit:4;stroke-dasharray:none;stroke-dashoffset:0;stroke-opacity:1;paint-order:markers fill stroke"
       d="m 4.680583,270.3237 -0.3871754,-0.72803 4.9056979,-1.80705 c 2.6981335,-0.99391 4.9195565,-1.79179 4.9364985,-1.77311 0.07887,0.087 0.716071,1.41264 0.690157,1.43584 -0.02233,0.0201 -9.2073147,3.41117 -9.6644539,3.56823 -0.051451,0.0177 -0.2677742,-0.29549 -0.4807241,-0.69588 z"
       id="path12484"
       inkscape:connector-curvature="0" />
    <path
       style="opacity:1;fill:#cccccc;fill-opacity:1;stroke:#aa4400;stroke-width:0;stroke-linecap:round;stroke-linejoin:round;stroke-miterlimit:4;stroke-dasharray:none;stroke-dashoffset:0;stroke-opacity:1;paint-order:markers fill stroke"
       d="m 3.77198,267.67815 c -7.937e-4,-0.033 -0.021325,-0.3503 -0.045842,-0.70501 -0.024527,-0.35472 -0.037955,-0.65608 -0.029858,-0.66974 0.0081,-0.0138 0.032446,-0.0249 0.05411,-0.0251 0.021669,-2.1e-4 2.2718105,-0.65376 5.0003261,-1.45233 2.7285159,-0.79856 4.9637239,-1.4492 4.9671259,-1.44586 0.01397,0.0137 0.08646,1.4112 0.07376,1.42195 -0.0076,0.006 -2.238778,0.66193 -4.9581996,1.45669 -2.7194193,0.79475 -4.9704441,1.4528 -5.0022787,1.46232 -0.04001,0.0119 -0.058267,0 -0.05914,-0.0428 z"
       id="path12486"
       inkscape:connector-curvature="0" />
    <path
       style="opacity:1;fill:#cccccc;fill-opacity:1;stroke:#aa4400;stroke-width:0;stroke-linecap:round;stroke-linejoin:round;stroke-miterlimit:4;stroke-dasharray:none;stroke-dashoffset:0;stroke-opacity:1;paint-order:markers fill stroke"
       d="m 4.1038178,264.33205 c -2.381e-4,-0.033 0.4691803,-1.24198 0.4924319,-1.26826 0.01733,-0.0196 1.5690295,-0.37573 9.1154043,-2.09222 0.345612,-0.0786 0.630965,-0.1407 0.634113,-0.13798 0.0055,0.005 -0.485375,1.28752 -0.497848,1.30093 -0.0045,0.005 -8.5916106,1.9607 -9.6033879,2.18734 -0.077306,0.0172 -0.1406287,0.022 -0.1407133,0.0103 z"
       id="path12488"
       inkscape:connector-curvature="0" />
    <path
       style="opacity:1;fill:#cccccc;fill-opacity:1;stroke:#aa4400;stroke-width:0;stroke-linecap:round;stroke-linejoin:round;stroke-miterlimit:4;stroke-dasharray:none;stroke-dashoffset:0;stroke-opacity:1;paint-order:markers fill stroke"
       d="m 6.0222005,261.03523 c 0,-0.0145 0.7230507,-0.85897 0.9412578,-1.0991 0.037338,-0.0411 8.8821817,-1.54091 8.9731297,-1.52157 0.04348,0.009 -0.857668,1.07119 -0.951627,1.12144 -0.02728,0.0145 -2.021581,0.35465 -4.431771,0.7557 -2.4101874,0.40108 -4.4156471,0.73673 -4.4565755,0.74594 -0.040926,0.009 -0.074414,0.008 -0.074414,-0.003 z"
       id="path12490"
       inkscape:connector-curvature="0" />
    <path
       style="opacity:1;fill:#cccccc;fill-opacity:1;stroke:#aa4400;stroke-width:0;stroke-linecap:round;stroke-linejoin:round;stroke-miterlimit:4;stroke-dasharray:none;stroke-dashoffset:0;stroke-opacity:1;paint-order:markers fill stroke"
       d="m 9.4783203,257.91722 c 0.078785,-0.0827 1.3552007,-0.96517 1.3960557,-0.96517 0.06946,0 7.550901,-0.8232 7.68246,-0.84532 0.09267,-0.0156 -0.02434,0.0801 -0.586504,0.4798 l -0.702263,0.49927 -3.762581,0.41296 c -2.06942,0.22714 -3.8295557,0.42201 -3.9114125,0.4331 -0.1034256,0.014 -0.1387369,0.01 -0.1157552,-0.0146 z"
       id="path12492"
       inkscape:connector-curvature="0" />
    <path
       style="opacity:1;fill:#cccccc;fill-opacity:1;stroke:#aa4400;stroke-width:0;stroke-linecap:round;stroke-linejoin:round;stroke-miterlimit:4;stroke-dasharray:none;stroke-dashoffset:0;stroke-opacity:1;paint-order:markers fill stroke"
       d="m 15.055121,254.75852 0.847373,-0.41135 2.956012,-0.15263 c 1.625807,-0.084 3.052752,-0.15984 3.170987,-0.16865 l 0.214973,-0.0161 -0.832233,0.40931 -0.832236,0.40931 -2.92154,0.1515 c -1.606849,0.0833 -3.040605,0.16016 -3.186126,0.17069 l -0.264583,0.0193 z"
       id="path12494"
       inkscape:connector-curvature="0" />
    <path
       style="opacity:1;fill:#cccccc;fill-opacity:1;stroke:#aa4400;stroke-width:0;stroke-linecap:round;stroke-linejoin:round;stroke-miterlimit:4;stroke-dasharray:none;stroke-dashoffset:0;stroke-opacity:1;paint-order:markers fill stroke"
       d="m 22.55758,252.82558 c -0.704866,-0.008 -1.538304,-0.0193 -1.852084,-0.0262 l -0.570508,-0.0124 0.995347,-0.33432 0.995347,-0.33433 1.427244,0.0169 c 0.784985,0.009 1.841701,0.0222 2.34826,0.0284 l 0.921014,0.0114 -0.995429,0.33523 -0.995428,0.33523 -0.496094,-0.003 c -0.272852,-0.003 -1.072803,-0.009 -1.777669,-0.0169 z"
       id="path12496"
       inkscape:connector-curvature="0" />
    <path
       style="opacity:1;fill:#cccccc;fill-opacity:1;stroke:#aa4400;stroke-width:0;stroke-linecap:round;stroke-linejoin:round;stroke-miterlimit:4;stroke-dasharray:none;stroke-dashoffset:0;stroke-opacity:1;paint-order:markers fill stroke"
       d="m 28.419754,251.05819 c -0.782174,-0.0711 -1.451901,-0.13171 -1.488281,-0.13456 -0.04662,-0.004 0.207222,-0.0681 0.859896,-0.21805 0.509323,-0.11708 1.047234,-0.24087 1.195361,-0.27511 l 0.269319,-0.0622 1.495947,0.13401 c 0.822772,0.0737 1.495919,0.13795 1.495882,0.1428 -8.2e-5,0.0111 -2.347306,0.54813 -2.381184,0.54488 -0.01365,0 -0.664765,-0.0606 -1.44694,-0.13174 z"
       id="path12498"
       inkscape:connector-curvature="0" />
    <path
       style="opacity:1;fill:#cccccc;fill-opacity:1;stroke:#aa4400;stroke-width:0;stroke-linecap:round;stroke-linejoin:round;stroke-miterlimit:4;stroke-dasharray:none;stroke-dashoffset:0;stroke-opacity:1;paint-order:markers fill stroke"
       d="m 34.827632,249.73652 -0.768945,-0.16071 0.107487,-0.018 c 0.05912,-0.01 0.739108,-0.10877 1.511093,-0.21971 l 1.403607,-0.20172 0.791469,0.16272 c 0.435309,0.0895 0.785953,0.16738 0.779206,0.17309 -0.0067,0.006 -0.149929,0.03 -0.318188,0.054 -0.168259,0.0241 -0.824235,0.11821 -1.457727,0.20942 -0.633492,0.0912 -1.180436,0.16491 -1.21543,0.16375 -0.035,0 -0.409651,-0.0744 -0.832572,-0.1628 z"
       id="path12500"
       inkscape:connector-curvature="0" />
    <path
       style="opacity:1;fill:#cccccc;fill-opacity:1;stroke:#aa4400;stroke-width:0;stroke-linecap:round;stroke-linejoin:round;stroke-miterlimit:4;stroke-dasharray:none;stroke-dashoffset:0;stroke-opacity:1;paint-order:markers fill stroke"
       d="m 41.633785,248.8907 c -0.17375,-0.0824 -0.315138,-0.15052 -0.314193,-0.1514 0.0011,0 0.907706,-0.0639 2.015029,-0.14015 l 2.013313,-0.13856 0.324546,0.15222 c 0.178501,0.0837 0.319886,0.15295 0.314193,0.15391 -0.0057,0 -0.06803,0.006 -0.13851,0.0103 -0.1724,0.0117 -0.812768,0.0561 -2.446128,0.16979 -0.75192,0.0523 -1.386301,0.0949 -1.409735,0.0944 -0.03736,0 -0.08148,-0.0193 -0.358515,-0.15055 z"
       id="path12502"
       inkscape:connector-curvature="0" />
    <path
       style="opacity:1;fill:#cccccc;fill-opacity:1;stroke:#aa4400;stroke-width:0;stroke-linecap:round;stroke-linejoin:round;stroke-miterlimit:4;stroke-dasharray:none;stroke-dashoffset:0;stroke-opacity:1;paint-order:markers fill stroke"
       d="m 48.711918,248.49216 -0.03386,-0.13642 h 2.482498 2.482495 l 0.0303,0.12194 c 0.01667,0.0671 0.03226,0.12849 0.03466,0.13642 0.0041,0.0138 -0.11775,0.0146 -2.478937,0.0146 h -2.483292 z"
       id="path12504"
       inkscape:connector-curvature="0" />
    <path
       style="opacity:1;fill:#cccccc;fill-opacity:1;stroke:#aa4400;stroke-width:0;stroke-linecap:round;stroke-linejoin:round;stroke-miterlimit:4;stroke-dasharray:none;stroke-dashoffset:0;stroke-opacity:1;paint-order:markers fill stroke"
       d="m 58.5021,248.89102 c -1.131888,-0.0789 -2.073762,-0.14537 -2.093056,-0.14775 -0.03115,-0.004 -0.01,-0.0198 0.189439,-0.1425 l 0.224518,-0.13822 2.169631,0.14957 c 1.1933,0.0823 2.169446,0.15235 2.169215,0.15576 -2.3e-4,0.003 -0.09687,0.0654 -0.214762,0.13774 l -0.214344,0.13155 -0.08633,-0.003 c -0.04748,0 -1.01242,-0.0659 -2.144307,-0.14481 z"
       id="path12506"
       inkscape:connector-curvature="0" />
    <path
       style="opacity:1;fill:#cccccc;fill-opacity:1;stroke:#aa4400;stroke-width:0;stroke-linecap:round;stroke-linejoin:round;stroke-miterlimit:4;stroke-dasharray:none;stroke-dashoffset:0;stroke-opacity:1;paint-order:markers fill stroke"
       d="m 66.237048,249.78044 c -0.45983,-0.0657 -1.185021,-0.16865 -1.611537,-0.22879 l -0.775484,-0.10935 0.648547,-0.15383 0.648544,-0.1538 1.630207,0.23016 c 0.896612,0.12661 1.636344,0.23225 1.643845,0.23482 0.0231,0.008 -1.251487,0.30342 -1.301297,0.30178 -0.02572,0 -0.422998,-0.0553 -0.882825,-0.12099 z"
       id="path12508"
       inkscape:connector-curvature="0" />
    <path
       style="opacity:1;fill:#cccccc;fill-opacity:1;stroke:#aa4400;stroke-width:0;stroke-linecap:round;stroke-linejoin:round;stroke-miterlimit:4;stroke-dasharray:none;stroke-dashoffset:0;stroke-opacity:1;paint-order:markers fill stroke"
       d="m 71.829519,250.90664 c -0.668843,-0.15187 -1.221339,-0.27824 -1.22777,-0.2808 -0.0064,-0.003 0.556589,-0.0616 1.251156,-0.13105 l 1.262848,-0.12634 1.227769,0.27157 c 0.675274,0.14936 1.238294,0.27797 1.251156,0.28583 0.01977,0.0122 -2.411848,0.26172 -2.514004,0.25813 -0.01929,0 -0.582313,-0.1255 -1.251155,-0.27734 z"
       id="path12510"
       inkscape:connector-curvature="0" />
    <path
       style="opacity:1;fill:#cccccc;fill-opacity:1;stroke:#aa4400;stroke-width:0;stroke-linecap:round;stroke-linejoin:round;stroke-miterlimit:4;stroke-dasharray:none;stroke-dashoffset:0;stroke-opacity:1;paint-order:markers fill stroke"
       d="m 77.332648,252.51263 c -0.561874,-0.18187 -1.019532,-0.33271 -1.017018,-0.33522 0.0025,-0.003 0.941058,-0.0167 2.085655,-0.0315 l 2.081085,-0.027 1.037892,0.33514 1.037892,0.33515 -1.026199,0.0148 c -0.56441,0.008 -1.510291,0.0204 -2.101959,0.027 l -1.07576,0.0122 z"
       id="path12512"
       inkscape:connector-curvature="0" />
    <path
       style="opacity:1;fill:#cccccc;fill-opacity:1;stroke:#aa4400;stroke-width:0;stroke-linecap:round;stroke-linejoin:round;stroke-miterlimit:4;stroke-dasharray:none;stroke-dashoffset:0;stroke-opacity:1;paint-order:markers fill stroke"
       d="m 85.624832,254.98077 -2.761589,-0.15518 -0.867064,-0.39272 c -0.476886,-0.216 -0.863426,-0.39637 -0.858979,-0.40081 0.0044,-0.005 1.324802,0.0649 2.934122,0.15398 l 2.926036,0.16206 0.843359,0.38484 c 0.463848,0.21166 0.849561,0.39092 0.85714,0.39833 0.02241,0.022 -0.182587,0.0119 -3.073025,-0.1505 z"
       id="path12514"
       inkscape:connector-curvature="0" />
    <path
       inkscape:connector-curvature="0"
       id="path12518"
       d="m 86.449442,257.09192 -1.52136,-0.99064 6.226322,0.70734 0.03235,0.8213 z"
       style="opacity:1;fill:#cccccc;fill-opacity:1;stroke:#aa4400;stroke-width:0;stroke-linecap:round;stroke-linejoin:round;stroke-miterlimit:4;stroke-dasharray:none;stroke-dashoffset:0;stroke-opacity:1;paint-order:markers fill stroke"
       sodipodi:nodetypes="ccccc" />
    <path
       sodipodi:nodetypes="ccccc"
       style="opacity:1;fill:#cccccc;fill-opacity:1;stroke:#aa4400;stroke-width:0;stroke-linecap:round;stroke-linejoin:round;stroke-miterlimit:4;stroke-dasharray:none;stroke-dashoffset:0;stroke-opacity:1;paint-order:markers fill stroke"
       d="m 89.006392,259.54898 -1.1467,-1.156 3.378997,0.57605 0.03685,0.96679 z"
       id="path12520"
       inkscape:connector-curvature="0" />
    <path
       inkscape:connector-curvature="0"
       id="path12526"
       d="m 90.479172,262.1394 -0.67025,-1.3069 1.51316,0.34716 0.04254,1.16269 z"
       style="opacity:1;fill:#cccccc;fill-opacity:1;stroke:#aa4400;stroke-width:0;stroke-linecap:round;stroke-linejoin:round;stroke-miterlimit:4;stroke-dasharray:none;stroke-dashoffset:0;stroke-opacity:1;paint-order:markers fill stroke"
       sodipodi:nodetypes="ccccc" />
    <path
       sodipodi:nodetypes="ccccc"
       style="opacity:1;fill:#cccccc;fill-opacity:1;stroke:#aa4400;stroke-width:0;stroke-linecap:round;stroke-linejoin:round;stroke-miterlimit:4;stroke-dasharray:none;stroke-dashoffset:0;stroke-opacity:1;paint-order:markers fill stroke"
       d="m 90.828492,264.79388 -0.08991,-1.42162 0.669735,0.19605 0.04851,1.40953 z"
       id="path12528"
       inkscape:connector-curvature="0" />
    <path
       inkscape:connector-curvature="0"
       id="path12530"
       d="m 90.047152,267.43914 0.57619,-1.48828 0.87595,0.31935 0.05247,1.71778 z"
       style="opacity:1;fill:#cccccc;fill-opacity:1;stroke:#aa4400;stroke-width:0;stroke-linecap:round;stroke-linejoin:round;stroke-miterlimit:4;stroke-dasharray:none;stroke-dashoffset:0;stroke-opacity:1;paint-order:markers fill stroke"
       sodipodi:nodetypes="ccccc" />
    <path
       sodipodi:nodetypes="ccccc"
       style="opacity:1;fill:#cccccc;fill-opacity:1;stroke:#aa4400;stroke-width:0;stroke-linecap:round;stroke-linejoin:round;stroke-miterlimit:4;stroke-dasharray:none;stroke-dashoffset:0;stroke-opacity:1;paint-order:markers fill stroke"
       d="m 88.131522,269.99178 1.29864,-1.50223 2.161319,0.97315 0.03946,2.10506 z"
       id="path12532"
       inkscape:connector-curvature="0" />
    <path
       inkscape:connector-curvature="0"
       id="path12534"
       d="m 85.103752,272.37031 2.05104,-1.45107 4.637028,2.58011 -0.102699,2.53563 z"
       style="opacity:1;fill:#cccccc;fill-opacity:1;stroke:#aa4400;stroke-width:0;stroke-linecap:round;stroke-linejoin:round;stroke-miterlimit:4;stroke-dasharray:none;stroke-dashoffset:0;stroke-opacity:1;paint-order:markers fill stroke"
       sodipodi:nodetypes="ccccc" />
    <path
       sodipodi:nodetypes="ccccc"
       style="opacity:1;fill:#cccccc;fill-opacity:1;stroke:#aa4400;stroke-width:0;stroke-linecap:round;stroke-linejoin:round;stroke-miterlimit:4;stroke-dasharray:none;stroke-dashoffset:0;stroke-opacity:1;paint-order:markers fill stroke"
       d="m 81.051292,274.49359 2.78691,-1.33997 4.412242,3.07416 -4.358615,0.24438 z"
       id="path12536"
       inkscape:connector-curvature="0" />
    <path
       inkscape:connector-curvature="0"
       id="path12538"
       d="m 76.092422,276.29232 3.4742,-1.16634 1.667858,1.49517 -4.494161,0.25198 z"
       style="opacity:1;fill:#cccccc;fill-opacity:1;stroke:#aa4400;stroke-width:0;stroke-linecap:round;stroke-linejoin:round;stroke-miterlimit:4;stroke-dasharray:none;stroke-dashoffset:0;stroke-opacity:1;paint-order:markers fill stroke"
       sodipodi:nodetypes="ccccc" />
    <path
       sodipodi:nodetypes="cccc"
       style="opacity:1;fill:#cccccc;fill-opacity:1;stroke:#aa4400;stroke-width:0;stroke-linecap:round;stroke-linejoin:round;stroke-miterlimit:4;stroke-dasharray:none;stroke-dashoffset:0;stroke-opacity:1;paint-order:markers fill stroke"
       d="m 73.146539,277.07463 1.312903,-0.30185 0.179936,0.21815 z"
       id="path12540"
       inkscape:connector-curvature="0" />
    <path
       inkscape:connector-curvature="0"
       id="path12542"
       d="m 75.471272,283.8726 -0.452837,-0.54921 3.605924,-0.17347 z"
       style="opacity:1;fill:#cccccc;fill-opacity:1;stroke:#aa4400;stroke-width:0;stroke-linecap:round;stroke-linejoin:round;stroke-miterlimit:4;stroke-dasharray:none;stroke-dashoffset:0;stroke-opacity:1;paint-order:markers fill stroke"
       sodipodi:nodetypes="cccc" />
    <path
       sodipodi:nodetypes="ccccc"
       style="opacity:1;fill:#cccccc;fill-opacity:1;stroke:#aa4400;stroke-width:0;stroke-linecap:round;stroke-linejoin:round;stroke-miterlimit:4;stroke-dasharray:none;stroke-dashoffset:0;stroke-opacity:1;paint-order:markers fill stroke"
       d="m 66.895124,283.7142 4.779563,-0.22994 0.540445,0.97836 -4.54494,0.65422 z"
       id="path12544"
       inkscape:connector-curvature="0" />
  </g>
</svg>
