<?xml version="1.0" encoding="UTF-8" standalone="no"?>
<!-- Created with Inkscape (http://www.inkscape.org/) -->

<svg
   xmlns:dc="http://purl.org/dc/elements/1.1/"
   xmlns:cc="http://creativecommons.org/ns#"
   xmlns:rdf="http://www.w3.org/1999/02/22-rdf-syntax-ns#"
   xmlns:svg="http://www.w3.org/2000/svg"
   xmlns="http://www.w3.org/2000/svg"
   xmlns:xlink="http://www.w3.org/1999/xlink"
   xmlns:sodipodi="http://sodipodi.sourceforge.net/DTD/sodipodi-0.dtd"
   xmlns:inkscape="http://www.inkscape.org/namespaces/inkscape"
   width="450"
   height="200"
   viewBox="0 0 119.0625 52.916668"
   version="1.1"
   id="svg20263"
   inkscape:version="0.92.4 (5da689c313, 2019-01-14)"
   sodipodi:docname="induction_bake_011.svg">
  <defs
     id="defs20257">
    <clipPath
       clipPathUnits="userSpaceOnUse"
       id="clipPath23792">
      <g
         inkscape:label="Clip"
         id="use23794">
        <path
           transform="matrix(0.26458334,0,0,0.26458334,-266.47322,285.66069)"
           id="path23804"
           d="m 204.68359,52.435547 -16.02734,0.228515 -15.93359,59.429688 53.15234,0.35742 z m -2.08218,1.264437 18.07663,53.738706 -43.61454,-1.51631 14.3984,-51.617617 z"
           style="opacity:1;fill:#cccccc;fill-opacity:1;stroke:#aa4400;stroke-width:0;stroke-linecap:round;stroke-linejoin:round;stroke-miterlimit:4;stroke-dasharray:none;stroke-opacity:1;paint-order:fill markers stroke"
           inkscape:connector-curvature="0"
           sodipodi:nodetypes="cccccccccc" />
      </g>
    </clipPath>
    <clipPath
       clipPathUnits="userSpaceOnUse"
       id="clipPath23792-7">
      <g
         inkscape:label="Clip"
         id="use23794-9">
        <path
           transform="matrix(0.26458334,0,0,0.26458334,-266.47322,285.66069)"
           id="path23804-3"
           d="m 204.68359,52.435547 -16.02734,0.228515 -15.93359,59.429688 53.15234,0.35742 z m -2.08218,1.264437 18.07663,53.738706 -43.61454,-1.51631 14.3984,-51.617617 z"
           style="opacity:1;fill:#cccccc;fill-opacity:1;stroke:#aa4400;stroke-width:0;stroke-linecap:round;stroke-linejoin:round;stroke-miterlimit:4;stroke-dasharray:none;stroke-opacity:1;paint-order:fill markers stroke"
           inkscape:connector-curvature="0"
           sodipodi:nodetypes="cccccccccc" />
      </g>
    </clipPath>
    <clipPath
       clipPathUnits="userSpaceOnUse"
       id="clipPath23792-2">
      <g
         inkscape:label="Clip"
         id="use23794-93">
        <path
           transform="matrix(0.26458334,0,0,0.26458334,-266.47322,285.66069)"
           id="path23804-9"
           d="m 204.68359,52.435547 -16.02734,0.228515 -15.93359,59.429688 53.15234,0.35742 z m -2.08218,1.264437 18.07663,53.738706 -43.61454,-1.51631 14.3984,-51.617617 z"
           style="opacity:1;fill:#cccccc;fill-opacity:1;stroke:#aa4400;stroke-width:0;stroke-linecap:round;stroke-linejoin:round;stroke-miterlimit:4;stroke-dasharray:none;stroke-opacity:1;paint-order:fill markers stroke"
           inkscape:connector-curvature="0"
           sodipodi:nodetypes="cccccccccc" />
      </g>
    </clipPath>
    <clipPath
       clipPathUnits="userSpaceOnUse"
       id="clipPath23792-70">
      <g
         inkscape:label="Clip"
         id="use23794-7">
        <path
           transform="matrix(0.26458334,0,0,0.26458334,-266.47322,285.66069)"
           id="path23804-7"
           d="m 204.68359,52.435547 -16.02734,0.228515 -15.93359,59.429688 53.15234,0.35742 z m -2.08218,1.264437 18.07663,53.738706 -43.61454,-1.51631 14.3984,-51.617617 z"
           style="opacity:1;fill:#cccccc;fill-opacity:1;stroke:#aa4400;stroke-width:0;stroke-linecap:round;stroke-linejoin:round;stroke-miterlimit:4;stroke-dasharray:none;stroke-opacity:1;paint-order:fill markers stroke"
           inkscape:connector-curvature="0"
           sodipodi:nodetypes="cccccccccc" />
      </g>
    </clipPath>
    <clipPath
       clipPathUnits="userSpaceOnUse"
       id="clipPath23792-28">
      <g
         inkscape:label="Clip"
         id="use23794-2">
        <path
           transform="matrix(0.26458334,0,0,0.26458334,-266.47322,285.66069)"
           id="path23804-5"
           d="m 204.68359,52.435547 -16.02734,0.228515 -15.93359,59.429688 53.15234,0.35742 z m -2.08218,1.264437 18.07663,53.738706 -43.61454,-1.51631 14.3984,-51.617617 z"
           style="opacity:1;fill:#cccccc;fill-opacity:1;stroke:#aa4400;stroke-width:0;stroke-linecap:round;stroke-linejoin:round;stroke-miterlimit:4;stroke-dasharray:none;stroke-opacity:1;paint-order:fill markers stroke"
           inkscape:connector-curvature="0"
           sodipodi:nodetypes="cccccccccc" />
      </g>
    </clipPath>
    <clipPath
       clipPathUnits="userSpaceOnUse"
       id="clipPath23792-20">
      <g
         inkscape:label="Clip"
         id="use23794-0">
        <path
           transform="matrix(0.26458334,0,0,0.26458334,-266.47322,285.66069)"
           id="path23804-52"
           d="m 204.68359,52.435547 -16.02734,0.228515 -15.93359,59.429688 53.15234,0.35742 z m -2.08218,1.264437 18.07663,53.738706 -43.61454,-1.51631 14.3984,-51.617617 z"
           style="opacity:1;fill:#cccccc;fill-opacity:1;stroke:#aa4400;stroke-width:0;stroke-linecap:round;stroke-linejoin:round;stroke-miterlimit:4;stroke-dasharray:none;stroke-opacity:1;paint-order:fill markers stroke"
           inkscape:connector-curvature="0"
           sodipodi:nodetypes="cccccccccc" />
      </g>
    </clipPath>
    <clipPath
       clipPathUnits="userSpaceOnUse"
       id="clipPath23792-1">
      <g
         inkscape:label="Clip"
         id="use23794-72">
        <path
           transform="matrix(0.26458334,0,0,0.26458334,-266.47322,285.66069)"
           id="path23804-0"
           d="m 204.68359,52.435547 -16.02734,0.228515 -15.93359,59.429688 53.15234,0.35742 z m -2.08218,1.264437 18.07663,53.738706 -43.61454,-1.51631 14.3984,-51.617617 z"
           style="opacity:1;fill:#cccccc;fill-opacity:1;stroke:#aa4400;stroke-width:0;stroke-linecap:round;stroke-linejoin:round;stroke-miterlimit:4;stroke-dasharray:none;stroke-opacity:1;paint-order:fill markers stroke"
           inkscape:connector-curvature="0"
           sodipodi:nodetypes="cccccccccc" />
      </g>
    </clipPath>
    <clipPath
       clipPathUnits="userSpaceOnUse"
       id="clipPath23792-3">
      <g
         inkscape:label="Clip"
         id="use23794-0-5">
        <path
           transform="matrix(0.26458334,0,0,0.26458334,-266.47322,285.66069)"
           id="path23804-4"
           d="m 204.68359,52.435547 -16.02734,0.228515 -15.93359,59.429688 53.15234,0.35742 z m -2.08218,1.264437 18.07663,53.738706 -43.61454,-1.51631 14.3984,-51.617617 z"
           style="opacity:1;fill:#cccccc;fill-opacity:1;stroke:#aa4400;stroke-width:0;stroke-linecap:round;stroke-linejoin:round;stroke-miterlimit:4;stroke-dasharray:none;stroke-opacity:1;paint-order:fill markers stroke"
           inkscape:connector-curvature="0"
           sodipodi:nodetypes="cccccccccc" />
      </g>
    </clipPath>
    <clipPath
       clipPathUnits="userSpaceOnUse"
       id="clipPath23792-5">
      <g
         inkscape:label="Clip"
         id="use23794-6">
        <path
           transform="matrix(0.26458334,0,0,0.26458334,-266.47322,285.66069)"
           id="path23804-45"
           d="m 204.68359,52.435547 -16.02734,0.228515 -15.93359,59.429688 53.15234,0.35742 z m -2.08218,1.264437 18.07663,53.738706 -43.61454,-1.51631 14.3984,-51.617617 z"
           style="opacity:1;fill:#cccccc;fill-opacity:1;stroke:#aa4400;stroke-width:0;stroke-linecap:round;stroke-linejoin:round;stroke-miterlimit:4;stroke-dasharray:none;stroke-opacity:1;paint-order:fill markers stroke"
           inkscape:connector-curvature="0"
           sodipodi:nodetypes="cccccccccc" />
      </g>
    </clipPath>
    <linearGradient
       inkscape:collect="always"
       id="linearGradient9997">
      <stop
         style="stop-color:#bd0000;stop-opacity:1"
         offset="0"
         id="stop9993" />
      <stop
         id="stop10001"
         offset="0.48074889"
         style="stop-color:#800000;stop-opacity:1" />
      <stop
         style="stop-color:#b30000;stop-opacity:1"
         offset="1"
         id="stop9995" />
    </linearGradient>
    <clipPath
       clipPathUnits="userSpaceOnUse"
       id="clipPath23792-0">
      <g
         inkscape:label="Clip"
         id="use23794-4">
        <path
           transform="matrix(0.26458334,0,0,0.26458334,-266.47322,285.66069)"
           id="path23804-44"
           d="m 204.68359,52.435547 -16.02734,0.228515 -15.93359,59.429688 53.15234,0.35742 z m -2.08218,1.264437 18.07663,53.738706 -43.61454,-1.51631 14.3984,-51.617617 z"
           style="opacity:1;fill:#cccccc;fill-opacity:1;stroke:#aa4400;stroke-width:0;stroke-linecap:round;stroke-linejoin:round;stroke-miterlimit:4;stroke-dasharray:none;stroke-opacity:1;paint-order:fill markers stroke"
           inkscape:connector-curvature="0"
           sodipodi:nodetypes="cccccccccc" />
      </g>
    </clipPath>
    <clipPath
       clipPathUnits="userSpaceOnUse"
       id="clipPath23792-76">
      <g
         inkscape:label="Clip"
         id="use23794-96">
        <path
           transform="matrix(0.26458334,0,0,0.26458334,-266.47322,285.66069)"
           id="path23804-79"
           d="m 204.68359,52.435547 -16.02734,0.228515 -15.93359,59.429688 53.15234,0.35742 z m -2.08218,1.264437 18.07663,53.738706 -43.61454,-1.51631 14.3984,-51.617617 z"
           style="opacity:1;fill:#cccccc;fill-opacity:1;stroke:#aa4400;stroke-width:0;stroke-linecap:round;stroke-linejoin:round;stroke-miterlimit:4;stroke-dasharray:none;stroke-opacity:1;paint-order:fill markers stroke"
           inkscape:connector-curvature="0"
           sodipodi:nodetypes="cccccccccc" />
      </g>
    </clipPath>
    <linearGradient
       inkscape:collect="always"
       xlink:href="#linearGradient9997"
       id="linearGradient43012"
       gradientUnits="userSpaceOnUse"
       gradientTransform="matrix(0.26458333,0,0,0.26458333,-18.520833,-21.293767)"
       x1="1822.135"
       y1="1081.8363"
       x2="1876.4565"
       y2="1081.8363" />
  </defs>
  <sodipodi:namedview
     id="base"
     pagecolor="#ffffff"
     bordercolor="#666666"
     borderopacity="1.0"
     inkscape:pageopacity="0.0"
     inkscape:pageshadow="2"
     inkscape:zoom="1.979899"
     inkscape:cx="260.01277"
     inkscape:cy="107.25489"
     inkscape:document-units="px"
     inkscape:current-layer="layer1"
     showgrid="false"
     units="px"
     inkscape:window-width="1920"
     inkscape:window-height="1001"
     inkscape:window-x="-9"
     inkscape:window-y="-9"
     inkscape:window-maximized="1"
     inkscape:snap-page="true" />
  <metadata
     id="metadata20260">
    <rdf:RDF>
      <cc:Work
         rdf:about="">
        <dc:format>image/svg+xml</dc:format>
        <dc:type
           rdf:resource="http://purl.org/dc/dcmitype/StillImage" />
        <dc:title></dc:title>
      </cc:Work>
    </rdf:RDF>
  </metadata>
  <g
     inkscape:label="Layer 1"
     inkscape:groupmode="layer"
     id="layer1"
     transform="translate(0,-244.08332)">
    <g
       clip-path="url(#clipPath23792)"
       id="g29480"
       transform="matrix(0.81671439,0,0,0.81671439,227.29733,14.77829)">
      <g
         id="g29478"
         inkscape:label="Clip" />
    </g>
    <g
       transform="matrix(0.81671439,0,0,0.81671439,227.29731,14.778205)"
       id="g28402"
       clip-path="url(#clipPath23792-7)">
      <g
         inkscape:label="Clip"
         id="g28400" />
    </g>
    <g
       clip-path="url(#clipPath23792-2)"
       id="g25098"
       transform="matrix(0.81671439,0,0,0.81671439,227.29731,14.778181)">
      <g
         id="g25096"
         inkscape:label="Clip" />
    </g>
    <g
       transform="matrix(0.81671439,0,0,0.81671439,227.29725,14.778197)"
       id="g23800"
       clip-path="url(#clipPath23792-70)">
      <g
         inkscape:label="Clip"
         id="g23798" />
    </g>
    <g
       clip-path="url(#clipPath23792-28)"
       id="g8498"
       transform="matrix(0.81671439,0,0,0.81671439,227.29725,14.778197)">
      <g
         id="g8496"
         inkscape:label="Clip" />
    </g>
    <g
       transform="matrix(0.81671439,0,0,0.81671439,227.29724,14.778207)"
       id="g8984"
       clip-path="url(#clipPath23792-20)">
      <g
         inkscape:label="Clip"
         id="g8982" />
    </g>
    <g
       clip-path="url(#clipPath23792-1)"
       id="g29814"
       transform="matrix(0.81671439,0,0,0.81671439,227.29724,14.778197)">
      <g
         id="g29812"
         inkscape:label="Clip" />
    </g>
    <g
       transform="matrix(0.81671439,0,0,0.81671439,227.29747,14.778197)"
       id="g23800-1"
       clip-path="url(#clipPath23792-3)">
      <g
         inkscape:label="Clip"
         id="g23798-3" />
    </g>
    <g
       transform="matrix(0.81671439,0,0,0.81671439,227.29729,14.778187)"
       id="g23800-8"
       clip-path="url(#clipPath23792-5)">
      <g
         inkscape:label="Clip"
         id="g23798-2" />
    </g>
    <g
       transform="matrix(0.81671439,0,0,0.81671439,227.29732,14.778278)"
       id="g7744"
       clip-path="url(#clipPath23792-0)">
      <g
         inkscape:label="Clip"
         id="g7742" />
    </g>
    <path
       style="opacity:1;fill:#cccccc;fill-opacity:1;stroke:#000000;stroke-width:0;stroke-linecap:butt;stroke-linejoin:miter;stroke-miterlimit:4;stroke-dasharray:none;stroke-opacity:1"
       d="M 199.10156 33.525391 L 196.66406 38.742188 L 195.14648 48.289062 C 197.1163 48.248622 199.09561 48.277552 201.06055 48.376953 C 201.17242 48.384512 201.28461 48.396738 201.39648 48.404297 L 202.31836 38.962891 L 201.75391 33.578125 L 199.10156 33.525391 z M 165.13086 35.208984 L 162.61719 35.515625 L 164.90039 40.787109 L 184.03516 49.302734 C 185.93618 48.982608 187.91338 48.736308 189.94336 48.564453 L 170.35547 40.234375 L 165.13086 35.208984 z M 235.23828 36.537109 L 228.63477 40.107422 L 206.30273 48.832031 C 208.52646 49.092819 210.67995 49.442976 212.72656 49.878906 L 235.98633 40.900391 L 237.69531 36.9375 L 235.23828 36.537109 z M 132.44336 41.667969 L 130.36914 42.296875 L 137.09766 46.988281 L 174.55273 51.751953 C 176.0444 51.192961 177.67039 50.69329 179.41211 50.257812 L 141.69531 45.732422 L 132.44336 41.667969 z M 267.01562 44.236328 L 257.64062 46.675781 L 216.63672 50.849609 C 218.5125 51.39337 220.24322 52.012541 221.79688 52.695312 L 263.91797 48.400391 L 268.99414 44.939453 L 267.01562 44.236328 z M 107.62891 52.175781 L 106.24609 53.048828 L 116.60938 56.591797 L 167.91211 55.365234 C 168.80328 54.633669 169.8727 53.937856 171.10547 53.289062 L 119.79688 54.787109 L 107.62891 52.175781 z M 224.62891 54.126953 C 225.93386 54.884295 227.03528 55.691377 227.91406 56.535156 L 283.84375 59.134766 L 291.67578 56.591797 L 290.41602 55.671875 L 279.40039 56.6875 L 224.62891 54.126953 z M 166.04297 57.273438 L 107.09961 66.28125 L 93.490234 65.4375 L 92.908203 66.660156 L 105.71094 68.421875 L 164.87109 59.669922 L 164.9043 59.466797 C 165.1186 58.722608 165.5003 57.988524 166.04297 57.273438 z M 229.36133 58.244141 C 229.9303 59.125262 230.26221 60.025776 230.35156 60.929688 L 293.36133 71.806641 L 303.00781 70.488281 L 302.61523 69.460938 L 291.28516 68.929688 L 229.36133 58.244141 z M 164.80273 61.699219 L 105.51562 78.873047 L 92.097656 79.898438 L 92.492188 80.929688 L 106.08594 81.087891 L 165.82227 64.126953 C 165.28708 63.330229 164.94503 62.517638 164.80273 61.699219 z M 230.24023 62.708984 C 230.23268 62.743 230.22826 62.779304 230.2207 62.814453 C 229.9841 63.675392 229.52557 64.523063 228.85156 65.34375 L 291.32422 84.884766 L 301.61719 84.949219 L 302.14258 83.939453 L 291.86719 81.927734 L 230.24023 62.708984 z M 167.55859 66.048828 L 115.0293 91.021484 L 103.42578 93.792969 L 104.69141 94.716797 L 117.49219 93.042969 L 170.61914 68.214844 C 169.42768 67.531052 168.40298 66.805679 167.55859 66.048828 z M 227.16992 66.953125 C 226.17666 67.758542 224.966 68.518316 223.56055 69.220703 L 278.17188 96.818359 L 287.87109 98.259766 L 289.24805 97.388672 L 281.26758 94.136719 L 227.16992 66.953125 z M 173.84766 69.816406 L 134.49414 101.25977 L 126.10547 105.44336 L 128.09375 106.15039 L 138.55664 102.84766 L 178.59375 71.458984 C 176.88548 70.970934 175.29646 70.420413 173.84766 69.816406 z M 220.62891 70.503906 C 219.16229 71.059706 217.5442 71.550601 215.83203 71.986328 L 216.29688 73.039062 L 255.12305 106.12109 L 263.05664 108.76367 L 265.125 108.13867 L 260.39648 104.03906 L 220.62891 70.503906 z M 176.10156 84.083984 L 161.56836 108.35547 L 157.4043 113.44531 L 159.87305 113.84766 L 166.73633 109.31641 L 170.94141 102.5 L 176.10156 84.083984 z "
       transform="matrix(0.26458334,0,0,0.26458334,0,244.08332)"
       id="path8304" />
    <path
       style="opacity:1;fill:#666666;fill-opacity:1;stroke:#000000;stroke-width:0;stroke-linecap:butt;stroke-linejoin:miter;stroke-miterlimit:4;stroke-dasharray:none;stroke-opacity:1"
       d="M 199.67383 22.013672 L 155.68945 24.197266 L 164.58984 34.666016 L 198.9707 32.958984 L 199.67383 22.013672 z M 202.3457 22.064453 L 201.63672 33.085938 L 235.65234 36.101562 L 245.94336 25.927734 L 202.3457 22.064453 z M 153.15234 24.505859 L 114.08594 32.474609 L 131.40625 41.148438 L 161.99609 34.910156 L 153.15234 24.505859 z M 248.42383 26.333984 L 238.06445 36.574219 L 267.62305 43.929688 L 286.38086 35.779297 L 248.42383 26.333984 z M 111.99609 33.107422 L 82.5625 45.894531 L 106.15039 51.765625 L 129.22852 41.736328 L 111.99609 33.107422 z M 288.38281 36.490234 L 269.51953 44.685547 L 291.07617 55.480469 L 316.10742 50.376953 L 288.38281 36.490234 z M 81.167969 46.777344 L 64.910156 62.847656 L 91.923828 65.242188 L 104.68555 52.628906 L 81.167969 46.777344 z M 317.38672 51.308594 L 292.25586 56.433594 L 303.25195 69.363281 L 325.55078 68.255859 L 328.36523 64.216797 L 317.38672 51.308594 z M 64.380859 63.869141 L 63.263672 81.28125 L 90.501953 79.929688 L 91.376953 66.261719 L 64.380859 63.869141 z M 324.78516 69.357422 L 303.60156 70.410156 L 302.73438 83.923828 L 330.83008 86.414062 L 331.24219 79.96875 L 324.29492 77.996094 L 321.58398 73.953125 L 324.78516 69.357422 z M 90.951172 80.966797 L 63.664062 82.320312 L 77.822266 98.972656 L 102.05859 94.03125 L 90.951172 80.966797 z M 302.2207 84.949219 L 289.60352 97.423828 L 314.04297 103.50586 L 330.29883 87.4375 L 302.2207 84.949219 z M 103.4375 94.939453 L 79.103516 99.902344 L 106.83008 113.78906 L 125.16406 105.82227 L 103.4375 94.939453 z M 288.2793 98.320312 L 265.40625 108.25586 L 283.21289 117.17383 L 312.65039 104.38477 L 288.2793 98.320312 z M 127.27344 106.48828 L 108.83008 114.50195 L 146.78125 123.94531 L 156.96484 113.87695 L 127.27344 106.48828 z M 263.40234 108.93164 L 234.77344 114.76953 L 237.14648 119.99414 L 242.05859 125.77148 L 281.125 117.80469 L 263.40234 108.93164 z M 159.52344 114.2168 L 149.27148 124.35352 L 165.41602 125.78516 L 167.66211 114.9375 L 159.52344 114.2168 z "
       transform="matrix(0.26458334,0,0,0.26458334,0,244.08332)"
       id="path8306" />
    <path
       style="opacity:1;fill:#808080;fill-opacity:1;stroke:#000000;stroke-width:0;stroke-linecap:butt;stroke-linejoin:miter;stroke-miterlimit:4;stroke-dasharray:none;stroke-opacity:1"
       d="M 195.91602 14.636719 L 174.11719 15.015625 L 176.89453 19.035156 L 198.69336 18.658203 L 195.91602 14.636719 z M 206.33789 14.8125 L 201.97852 18.710938 L 223.70703 19.828125 L 228.06445 15.925781 L 206.33789 14.8125 z M 163.82031 15.548828 L 142.60156 17.408203 L 152.42578 21.060547 L 173.63867 19.203125 L 163.82031 15.548828 z M 195.13281 16.162109 L 195.8418 17.195312 L 177.68164 17.511719 L 176.96484 16.470703 L 195.13281 16.162109 z M 206.88477 16.353516 L 224.32031 17.253906 L 223.16211 18.287109 L 205.72461 17.394531 L 206.88477 16.353516 z M 238.29688 16.808594 L 226.94531 20.103516 L 247.93945 22.675781 L 259.29297 19.380859 L 238.29688 16.808594 z M 163.61133 17.083984 L 166.83008 18.279297 L 152.63477 19.527344 L 149.4082 18.332031 L 163.61133 17.083984 z M 238.41992 18.345703 L 251.78906 19.984375 L 247.81641 21.136719 L 234.44727 19.498047 L 238.41992 18.345703 z M 132.74414 18.638672 L 112.76953 21.917969 L 129.33398 24.728516 L 149.31445 21.451172 L 132.74414 18.638672 z M 132.73242 20.177734 L 140.12305 21.425781 L 129.33789 23.197266 L 121.95508 21.941406 L 132.73242 20.177734 z M 269.01367 20.939453 L 251.01172 23.166016 L 270.63477 27.119141 L 288.63672 24.892578 L 269.01367 20.939453 z M 268.9668 22.472656 L 279.19727 24.533203 L 270.69336 25.587891 L 260.44727 23.521484 L 268.9668 22.472656 z M 103.63672 23.806641 L 85.498047 28.412109 L 108.30859 29.933594 L 126.45508 25.328125 L 103.63672 23.806641 z M 103.77344 25.330078 L 116.86133 26.201172 L 108.17383 28.408203 L 95.09375 27.537109 L 103.77344 25.330078 z M 297.56445 27.083984 L 273.44922 27.810547 L 291.10938 33.021484 L 315.21875 32.294922 L 297.56445 27.083984 z M 297.36328 28.599609 L 305.7207 31.066406 L 291.30273 31.501953 L 282.94727 29.035156 L 297.36328 28.599609 z M 105.75781 30.71875 L 77.390625 30.902344 L 61.636719 36.691406 L 90.003906 36.507812 L 105.75781 30.71875 z M 97.107422 32.291016 L 89.726562 35 L 70.283203 35.125 L 77.650391 32.416016 L 97.107422 32.291016 z M 293.5918 33.892578 L 308.74219 40.203125 L 338.2207 41.365234 L 323.07227 35.052734 L 293.5918 33.892578 z M 301.94727 35.738281 L 322.75 36.558594 L 329.88086 39.525391 L 309.07227 38.705078 L 301.94727 35.738281 z M 87.839844 37.458984 L 54.789062 39.701172 L 41.90625 46.498047 L 74.962891 44.257812 L 87.839844 37.458984 z M 80.832031 39.451172 L 74.541016 42.773438 L 48.919922 44.507812 L 55.216797 41.185547 L 80.832031 39.451172 z M 310.80664 41.226562 L 322.99414 48.449219 L 342.58594 50.398438 L 344.03516 49.023438 L 323.48047 46.980469 L 317.44922 43.408203 L 344.27539 46.072266 L 346.03906 47.117188 L 347.17969 46.035156 L 344.76953 44.607422 L 310.80664 41.226562 z M 73.269531 45.34375 L 36.529297 49.947266 L 26.912109 57.546875 L 63.650391 52.943359 L 73.269531 45.34375 z M 68.074219 47.519531 L 63.041016 51.498047 L 32.111328 55.375 L 37.144531 51.394531 L 68.074219 47.519531 z M 324.58789 49.591797 L 333.4375 57.503906 L 334.87109 57.728516 L 336.25195 56.417969 L 334.11133 56.082031 L 329.4082 51.875 L 339.38477 53.439453 L 340.76953 52.125 L 324.58789 49.591797 z M 62.46875 54.136719 L 23.160156 61.320312 L 17.097656 69.492188 L 56.40625 62.306641 L 62.46875 54.136719 z M 58.966797 56.3125 L 55.548828 60.925781 L 20.595703 67.318359 L 24.019531 62.697266 L 58.966797 56.3125 z M 55.773438 63.568359 L 15.085938 73.480469 L 12.757812 81.972656 L 53.447266 72.060547 L 55.773438 63.568359 z M 53.636719 65.642578 L 52.226562 70.802734 L 14.896484 79.896484 L 16.306641 74.736328 L 53.636719 65.642578 z M 53.384766 73.345703 L 12.5625 86.050781 L 14.046875 94.607422 L 54.869141 81.900391 L 53.384766 73.345703 z M 52.189453 75.298828 L 53.15625 80.849609 L 15.242188 92.652344 L 14.275391 87.101562 L 52.189453 75.298828 z M 55.380859 83.179688 L 15.658203 98.65625 L 20.908203 107.01953 L 60.623047 91.541016 L 55.380859 83.179688 z M 54.765625 85.048828 L 58.375 90.800781 L 21.525391 105.1582 L 17.916016 99.400391 L 54.765625 85.048828 z M 339.41211 86.494141 L 339.35352 86.708984 L 339.81641 86.869141 C 339.70721 86.768264 339.51929 86.593141 339.41211 86.494141 z M 338.72656 87.970703 L 332.66406 96.138672 L 364.3457 109.68945 C 363.26017 108.67251 362.21395 107.69366 361.10547 106.6582 L 335.01953 95.501953 L 339.23438 89.832031 L 346.25391 92.835938 C 345.15139 91.814981 343.96404 90.710749 342.95898 89.78125 L 338.72656 87.970703 z M 61.693359 92.769531 L 24.287109 110.91211 L 33.136719 118.82422 L 70.544922 100.68164 L 61.693359 92.769531 z M 61.445312 94.572266 L 67.853516 100.30078 L 33.386719 117.01953 L 26.972656 111.28516 L 61.445312 94.572266 z M 331.48242 97.328125 L 321.86328 104.92773 L 351.34375 120.49414 L 353.97461 120.3457 L 354.13477 120.25391 L 324.61719 104.67773 L 331.64648 99.126953 L 362.55273 115.44727 L 364.11133 114.55859 L 331.48242 97.328125 z M 72.138672 101.82617 L 38.177734 122.44531 L 50.357422 129.66602 L 84.320312 109.04688 L 72.138672 101.82617 z M 72.150391 103.5918 L 81.376953 109.0625 L 50.34375 127.90039 L 41.117188 122.43164 L 72.150391 103.5918 z M 320.16406 106.01758 L 307.28516 112.81445 L 321.49609 122.16602 L 324.0332 122.02539 L 310.25195 112.95312 L 320.08594 107.77148 L 340.3457 121.10938 L 342.88281 120.9668 L 320.16406 106.01758 z M 86.392578 110.07031 L 56.904297 132.90625 L 72.054688 139.21875 L 101.54297 116.38086 L 86.392578 110.07031 z M 86.619141 111.80078 L 98.5625 116.77734 L 71.824219 137.48242 L 59.880859 132.50781 L 86.619141 111.80078 z M 305.12109 113.76172 L 289.37305 119.55078 L 294.30469 123.69141 L 296.50977 123.56836 L 292.3418 120.06836 L 304.82422 115.48438 L 313.32812 122.625 L 315.5293 122.50195 L 305.12109 113.76172 z M 104.01953 117.25391 L 79.904297 141.97656 L 97.560547 147.1875 L 121.67578 122.46484 L 104.01953 117.25391 z M 104.4668 118.96094 L 118.83789 123.20703 L 97.113281 145.47656 L 82.740234 141.23242 L 104.4668 118.96094 z M 286.81445 120.3418 L 268.67578 124.94336 L 268.83398 125.11914 L 275.64258 124.73828 L 286.30469 122.0332 L 288.09766 124.03906 L 290.02344 123.93164 L 286.81445 120.3418 z M 124.49609 123.15234 L 106.48633 149.37891 L 126.11133 153.33203 L 144.11914 127.10547 L 124.49609 123.15234 z M 125.17969 124.83008 L 141.57422 128.13672 L 125.42969 151.64844 L 109.03516 148.34961 L 125.17969 124.83008 z M 147.19141 127.5957 L 135.83789 154.89062 L 156.83398 157.46289 L 160.86523 147.76367 L 161.37305 145.3125 L 162.49219 139.9082 L 155.88086 155.82617 L 138.00195 153.63477 L 148.14453 129.23828 L 164.29297 131.21094 L 164.59961 129.72852 L 147.19141 127.5957 z M 303.82422 147.33203 L 296.22461 147.69922 L 292.00195 148.76953 L 291.25781 147.9375 L 289.3125 148.03125 L 291.48633 150.46289 L 303.82422 147.33203 z M 279.9707 148.48047 L 278.24805 148.5625 L 279.89648 151.22852 L 263.13867 153.98047 L 260.32617 149.42578 L 258.59766 149.50977 L 262.38281 155.63477 L 282.36328 152.35352 L 279.9707 148.48047 z "
       transform="matrix(0.26458334,0,0,0.26458334,0,244.08332)"
       id="path8308" />
    <path
       style="fill:#cccccc;fill-opacity:1;stroke:#000000;stroke-width:0;stroke-linecap:butt;stroke-linejoin:miter;stroke-miterlimit:4;stroke-dasharray:none;stroke-opacity:1"
       d="m 36.51324,284.73234 2.68353,-6.4549 4.27286,0.52208 -0.47601,2.29876 -1.74996,4.21387 z"
       id="path8310"
       inkscape:connector-curvature="0" />
    <path
       style="opacity:1;fill:#cccccc;fill-opacity:1;stroke:#aa4400;stroke-width:0;stroke-linecap:round;stroke-linejoin:round;stroke-miterlimit:4;stroke-dasharray:none;stroke-dashoffset:0;stroke-opacity:1;paint-order:markers fill stroke"
       d="m 30.98731,283.75642 c -1.14475,-0.23291 -2.08714,-0.42824 -2.0942,-0.43406 -0.009,-0.007 3.89736,-5.73032 4.22233,-6.18654 0.0204,-0.0286 4.27964,0.85543 4.27964,0.88821 0,0.0805 -4.19971,6.14031 -4.26066,6.14779 -0.0362,0.004 -1.00236,-0.18249 -2.14711,-0.4154 z"
       id="path8312"
       inkscape:connector-curvature="0" />
    <path
       style="opacity:1;fill:#cccccc;fill-opacity:1;stroke:#aa4400;stroke-width:0;stroke-linecap:round;stroke-linejoin:round;stroke-miterlimit:4;stroke-dasharray:none;stroke-dashoffset:0;stroke-opacity:1;paint-order:markers fill stroke"
       d="m 23.79609,282.0005 c -1.00969,-0.29903 -1.83581,-0.55596 -1.83581,-0.57095 0,-0.0243 4.24347,-4.398 5.27965,-5.44172 l 0.40877,-0.41173 1.8447,0.54203 c 1.01459,0.29812 1.86464,0.54793 1.889,0.55513 0.0465,0.0138 -5.66393,5.87902 -5.71882,5.87389 -0.0174,-0.002 -0.8578,-0.24763 -1.86749,-0.54665 z"
       id="path8314"
       inkscape:connector-curvature="0" />
    <path
       style="opacity:1;fill:#cccccc;fill-opacity:1;stroke:#aa4400;stroke-width:0;stroke-linecap:round;stroke-linejoin:round;stroke-miterlimit:4;stroke-dasharray:none;stroke-dashoffset:0;stroke-opacity:1;paint-order:markers fill stroke"
       d="m 17.60943,279.86338 c -0.7583,-0.31609 -1.45968,-0.6089 -1.55863,-0.65067 l -0.1799,-0.076 3.45395,-2.67215 c 1.89967,-1.46968 3.48552,-2.69881 3.5241,-2.73141 0.0584,-0.0493 0.32787,0.0487 1.60181,0.58235 0.8424,0.35289 1.54213,0.65209 1.55494,0.6649 0.0191,0.0191 -6.78866,5.3237 -6.96381,5.42621 -0.0295,0.0173 -0.67416,-0.22717 -1.43246,-0.54327 z"
       id="path8316"
       inkscape:connector-curvature="0" />
    <path
       style="opacity:1;fill:#cccccc;fill-opacity:1;stroke:#aa4400;stroke-width:0;stroke-linecap:round;stroke-linejoin:round;stroke-miterlimit:4;stroke-dasharray:none;stroke-dashoffset:0;stroke-opacity:1;paint-order:markers fill stroke"
       d="m 12.06751,277.15928 -1.13563,-0.68383 3.94638,-2.39678 c 2.17051,-1.31823 4.01729,-2.42399 4.10395,-2.45725 0.10279,-0.0394 0.56242,0.17717 1.3219,0.62297 0.99294,0.58283 1.1412,0.69938 1.0073,0.7918 -0.54051,0.3731 -7.82446,4.74505 -7.95181,4.77281 -0.0861,0.0188 -0.66749,-0.27361 -1.29209,-0.64972 z"
       id="path8318"
       inkscape:connector-curvature="0" />
    <path
       style="opacity:1;fill:#cccccc;fill-opacity:1;stroke:#aa4400;stroke-width:0;stroke-linecap:round;stroke-linejoin:round;stroke-miterlimit:4;stroke-dasharray:none;stroke-opacity:1;paint-order:fill markers stroke"
       d="m 43.431398,287.24455 v 5.6317 h 22.85132 v -5.6317 z m 1.570964,0.5147 h 19.709392 v 4.6023 H 45.002362 Z"
       id="path8322"
       inkscape:connector-curvature="0"
       sodipodi:nodetypes="cccccccccc" />
    <path
       style="opacity:1;fill:#cccccc;fill-opacity:1;stroke:#aa4400;stroke-width:0;stroke-linecap:round;stroke-linejoin:round;stroke-miterlimit:4;stroke-dasharray:none;stroke-opacity:1;paint-order:fill markers stroke"
       d="M 172.36523 115.95117 L 164.15039 159.59375 L 250.51758 159.59375 L 245.71484 150.12891 L 243.43359 150.23828 L 247.125 157.51367 L 166.65625 157.51367 L 174.08203 118.04883 L 227.44531 118.72852 L 231.74414 127.19922 L 234.01367 127.07227 L 228.73242 116.66602 L 172.36523 115.95117 z "
       transform="matrix(0.26458334,0,0,0.26458334,0,244.08332)"
       id="path8324" />
    <path
       style="opacity:1;fill:#cccccc;fill-opacity:1;stroke:#aa4400;stroke-width:0;stroke-linecap:round;stroke-linejoin:round;stroke-miterlimit:4;stroke-dasharray:none;stroke-opacity:1;paint-order:fill markers stroke"
       d="m 54.155808,257.95693 -4.240567,0.0605 -4.215763,15.72411 14.063224,0.0946 z m -0.31936,1.35961 4.551143,13.19351 -11.539347,-0.40153 3.577561,-12.76408 z"
       id="path8326"
       inkscape:connector-curvature="0"
       sodipodi:nodetypes="cccccccccc" />
    <g
       clip-path="url(#clipPath23792-76)"
       id="g8332"
       transform="matrix(0.81671439,0,0,0.81671439,227.29731,14.778193)">
      <g
         id="g8330"
         inkscape:label="Clip" />
    </g>
    <path
       style="opacity:1;fill:#cccccc;fill-opacity:1;stroke:#aa4400;stroke-width:0;stroke-linecap:round;stroke-linejoin:round;stroke-miterlimit:4;stroke-dasharray:none;stroke-opacity:1;paint-order:fill markers stroke"
       d="m 47.769861,276.40128 -0.749823,8.43876 12.061052,-0.032 -1.536859,-8.24291 z m 0.527617,0.56689 8.825074,0.15452 1.330153,7.13496 -10.804282,0.015 z"
       id="path8334"
       inkscape:connector-curvature="0"
       sodipodi:nodetypes="cccccccccc" />
    <path
       id="path8336"
       d="m 95.48535,279.9705 -37.50007,1.784 0.20147,1.13301 38.70019,-1.52771 3.34089,-3.96792 -2.11399,-0.51142 z"
       style="opacity:1;fill:#cccccc;fill-opacity:1;stroke:#aa4400;stroke-width:0;stroke-linecap:round;stroke-linejoin:round;stroke-miterlimit:4;stroke-dasharray:none;stroke-opacity:1;paint-order:fill markers stroke"
       inkscape:connector-curvature="0"
       sodipodi:nodetypes="ccccccc" />
    <path
       sodipodi:nodetypes="ccccc"
       inkscape:connector-curvature="0"
       style="opacity:1;fill:#666666;fill-opacity:1;stroke:#aa4400;stroke-width:0;stroke-linecap:round;stroke-linejoin:round;stroke-miterlimit:4;stroke-dasharray:none;stroke-opacity:1;paint-order:fill markers stroke"
       d="m 95.48535,279.9705 -38.10811,1.784 -0.12593,-1.46285 39.49531,-1.83177 z"
       id="path8338" />
    <path
       id="path8340"
       d="m 48.298285,276.94595 8.824267,0.17674 1.330153,7.13496 -10.820012,0.0258 z"
       style="opacity:1;fill:#666666;fill-opacity:1;stroke:#aa4400;stroke-width:0;stroke-linecap:round;stroke-linejoin:round;stroke-miterlimit:4;stroke-dasharray:none;stroke-opacity:1;paint-order:fill markers stroke"
       inkscape:connector-curvature="0"
       sodipodi:nodetypes="ccccc" />
    <path
       style="opacity:1;fill:#cccccc;fill-opacity:1;stroke:#aa4400;stroke-width:0;stroke-linecap:round;stroke-linejoin:round;stroke-miterlimit:4;stroke-dasharray:none;stroke-dashoffset:0;stroke-opacity:1;paint-order:markers fill stroke"
       d="m 50.01343,259.0442 7.73131,13.6183 h 0.85007 l -7.88375,-13.6183 z"
       id="path8342"
       inkscape:connector-curvature="0"
       sodipodi:nodetypes="ccccc" />
    <path
       sodipodi:nodetypes="ccccc"
       inkscape:connector-curvature="0"
       id="path8344"
       d="m 53.75067,259.07727 -7.25072,13.38679 h 0.85007 l 7.03213,-12.95684 z"
       style="opacity:1;fill:#cccccc;fill-opacity:1;stroke:#aa4400;stroke-width:0;stroke-linecap:round;stroke-linejoin:round;stroke-miterlimit:4;stroke-dasharray:none;stroke-dashoffset:0;stroke-opacity:1;paint-order:markers fill stroke" />
    <path
       inkscape:connector-curvature="0"
       id="path8645"
       d="m 8.0084797,274.28763 c -0.4469527,-0.40155 -0.7892574,-0.75111 -0.7606771,-0.7768 0.098258,-0.0883 8.9732464,-4.36611 9.0210454,-4.34818 0.09111,0.0342 1.581182,1.38841 1.581182,1.43703 0,0.0347 -8.7077128,4.29944 -8.9958334,4.40582 -0.018203,0.007 -0.3987615,-0.31633 -0.8457169,-0.71787 z"
       style="opacity:1;fill:#cccccc;fill-opacity:1;stroke:#aa4400;stroke-width:0;stroke-linecap:round;stroke-linejoin:round;stroke-miterlimit:4;stroke-dasharray:none;stroke-dashoffset:0;stroke-opacity:1;paint-order:markers fill stroke" />
    <path
       inkscape:connector-curvature="0"
       id="path8647"
       d="m 5.2579851,271.17154 c -0.2412762,-0.38436 -0.4386845,-0.7225 -0.4386845,-0.75143 0,-0.0289 0.2455651,-0.14619 0.5457032,-0.26057 0.3001354,-0.11438 2.4603287,-0.95443 4.8004252,-1.86676 2.3401,-0.91234 4.274865,-1.65836 4.29948,-1.65781 0.07684,0.002 0.930878,1.41867 0.883449,1.46577 -0.04157,0.0413 -9.3054414,3.67015 -9.5446698,3.73888 -0.077798,0.0223 -0.2267876,-0.16006 -0.5457031,-0.66808 z"
       style="opacity:1;fill:#cccccc;fill-opacity:1;stroke:#aa4400;stroke-width:0;stroke-linecap:round;stroke-linejoin:round;stroke-miterlimit:4;stroke-dasharray:none;stroke-dashoffset:0;stroke-opacity:1;paint-order:markers fill stroke" />
    <path
       inkscape:connector-curvature="0"
       id="path8649"
       d="m 3.9247311,267.85739 c -0.0655,-0.38215 -0.1068202,-0.70378 -0.091821,-0.71472 0.015002,-0.011 0.339815,-0.11701 0.7218072,-0.23569 0.3819922,-0.11868 1.349375,-0.41942 2.1497396,-0.66832 5.9212931,-1.84141 7.0296191,-2.18437 7.0590761,-2.18437 0.04206,0 0.281199,1.38192 0.244239,1.41138 -0.015,0.012 -0.324929,0.11378 -0.688732,0.22628 -0.363802,0.11251 -2.582402,0.80209 -4.9302217,1.53241 -2.34782,0.73031 -4.2859141,1.32785 -4.306877,1.32785 -0.020955,0 -0.091707,-0.31267 -0.1572102,-0.69482 z"
       style="opacity:1;fill:#cccccc;fill-opacity:1;stroke:#aa4400;stroke-width:0;stroke-linecap:round;stroke-linejoin:round;stroke-miterlimit:4;stroke-dasharray:none;stroke-dashoffset:0;stroke-opacity:1;paint-order:markers fill stroke" />
    <path
       inkscape:connector-curvature="0"
       id="path8651"
       d="m 4.1380171,264.56692 c 0.090982,-0.33652 0.1847532,-0.63265 0.2083805,-0.65807 0.048715,-0.0524 9.7544154,-2.43211 9.7884304,-2.39997 0.01212,0.0115 -0.05869,0.30529 -0.157361,0.65298 -0.118049,0.41598 -0.216064,0.64304 -0.286621,0.66398 -0.178424,0.0529 -9.6421893,2.35293 -9.6816202,2.35293 -0.020135,0 0.037809,-0.27533 0.1287913,-0.61185 z"
       style="opacity:1;fill:#cccccc;fill-opacity:1;stroke:#aa4400;stroke-width:0;stroke-linecap:round;stroke-linejoin:round;stroke-miterlimit:4;stroke-dasharray:none;stroke-dashoffset:0;stroke-opacity:1;paint-order:markers fill stroke" />
    <path
       inkscape:connector-curvature="0"
       id="path8653"
       d="m 5.8794146,261.33287 c 0.2284704,-0.30404 0.4331574,-0.57327 0.4548558,-0.59829 0.021696,-0.025 1.5277386,-0.3166 3.3467491,-0.64797 1.8190105,-0.33136 3.8692585,-0.70639 4.5561065,-0.83339 0.686851,-0.12699 1.257546,-0.22217 1.268214,-0.2115 0.01066,0.0107 -0.169886,0.27283 -0.40123,0.58259 l -0.420621,0.5632 -1.575194,0.28682 c -3.4147078,0.62176 -7.2734468,1.33105 -7.454009,1.37014 -0.1835097,0.0397 -0.1755061,0.0215 0.2251286,-0.5116 z"
       style="opacity:1;fill:#cccccc;fill-opacity:1;stroke:#aa4400;stroke-width:0;stroke-linecap:round;stroke-linejoin:round;stroke-miterlimit:4;stroke-dasharray:none;stroke-dashoffset:0;stroke-opacity:1;paint-order:markers fill stroke" />
    <path
       inkscape:connector-curvature="0"
       id="path8655"
       d="m 8.5660098,258.69333 c 0.029771,-0.0296 0.3143938,-0.25605 1.1168248,-0.88846 l 0.1463013,-0.11531 4.0631931,-0.50951 c 2.234756,-0.28023 4.066379,-0.50674 4.070271,-0.50334 0.0141,0.0123 -1.259129,1.00587 -1.310595,1.02273 -0.02908,0.01 -1.831388,0.23882 -4.005123,0.50954 -2.173737,0.27072 -3.9890803,0.4983 -4.0340992,0.50574 -0.072639,0.012 -0.077904,0.01 -0.046773,-0.0214 z"
       style="opacity:1;fill:#cccccc;fill-opacity:1;stroke:#aa4400;stroke-width:0;stroke-linecap:round;stroke-linejoin:round;stroke-miterlimit:4;stroke-dasharray:none;stroke-dashoffset:0;stroke-opacity:1;paint-order:markers fill stroke" />
    <path
       inkscape:connector-curvature="0"
       id="path8657"
       d="m 13.009981,255.8391 c 0.0068,-0.007 0.369837,-0.20207 0.80682,-0.43254 l 0.794512,-0.41902 2.139826,-0.14456 c 1.176906,-0.0795 2.675736,-0.18122 3.330739,-0.22602 0.655002,-0.0448 1.201438,-0.078 1.214308,-0.0737 0.01286,0.004 -0.338879,0.19809 -0.781656,0.43066 l -0.80505,0.42286 -3.180509,0.21359 c -1.749277,0.11747 -3.259434,0.22002 -3.355901,0.22789 -0.09647,0.008 -0.169857,0.008 -0.163089,7.9e-4 z"
       style="opacity:1;fill:#cccccc;fill-opacity:1;stroke:#aa4400;stroke-width:0;stroke-linecap:round;stroke-linejoin:round;stroke-miterlimit:4;stroke-dasharray:none;stroke-dashoffset:0;stroke-opacity:1;paint-order:markers fill stroke" />
    <path
       inkscape:connector-curvature="0"
       id="path8659"
       d="m 18.692186,253.35075 c 0.01929,-0.008 0.442925,-0.16443 0.941406,-0.34784 l 0.90633,-0.33345 2.531425,-0.0166 c 1.392285,-0.009 2.52589,-0.0105 2.519127,-0.003 -0.0068,0.007 -0.427715,0.16522 -0.935445,0.35078 l -0.923145,0.33738 -2.537388,0.0136 c -1.395566,0.007 -2.521604,0.007 -2.50231,-7.4e-4 z"
       style="opacity:1;fill:#cccccc;fill-opacity:1;stroke:#aa4400;stroke-width:0;stroke-linecap:round;stroke-linejoin:round;stroke-miterlimit:4;stroke-dasharray:none;stroke-dashoffset:0;stroke-opacity:1;paint-order:markers fill stroke" />
    <path
       inkscape:connector-curvature="0"
       id="path8661"
       d="m 26.830542,251.47415 c -1.34433,-0.0922 -1.586902,-0.11406 -1.508403,-0.13585 0.05145,-0.0143 0.44609,-0.11565 0.87698,-0.22527 0.430887,-0.10961 0.888669,-0.22633 1.017294,-0.25938 l 0.23386,-0.0601 1.689698,0.11054 c 0.929335,0.0608 1.681781,0.11725 1.672105,0.12543 -0.04072,0.0345 -2.1997,0.56166 -2.286042,0.55823 -0.05145,-0.002 -0.814422,-0.0532 -1.695492,-0.1136 z"
       style="opacity:1;fill:#cccccc;fill-opacity:1;stroke:#aa4400;stroke-width:0;stroke-linecap:round;stroke-linejoin:round;stroke-miterlimit:4;stroke-dasharray:none;stroke-dashoffset:0;stroke-opacity:1;paint-order:markers fill stroke" />
    <path
       inkscape:connector-curvature="0"
       id="path8663"
       d="m 33.275482,250.05642 c -0.491985,-0.0856 -0.894519,-0.16162 -0.894519,-0.1689 0,-0.007 0.149963,-0.0367 0.333251,-0.0653 0.183287,-0.0286 0.800687,-0.12878 1.371999,-0.22254 l 1.038747,-0.17048 0.920257,0.1563 c 0.50614,0.086 0.924552,0.1606 0.929804,0.16585 0.009,0.009 -2.620965,0.44553 -2.74656,0.45591 -0.03216,0.003 -0.460997,-0.0652 -0.952979,-0.15083 z"
       style="opacity:1;fill:#cccccc;fill-opacity:1;stroke:#aa4400;stroke-width:0;stroke-linecap:round;stroke-linejoin:round;stroke-miterlimit:4;stroke-dasharray:none;stroke-dashoffset:0;stroke-opacity:1;paint-order:markers fill stroke" />
    <path
       inkscape:connector-curvature="0"
       id="path8665"
       d="m 39.958053,249.08635 c -0.273068,-0.1022 -0.367567,-0.14654 -0.32326,-0.15166 0.03444,-0.004 0.871072,-0.0785 1.859193,-0.16567 l 1.796584,-0.15844 0.374177,0.13855 c 0.205798,0.0762 0.381878,0.14583 0.391289,0.15473 0.01561,0.0147 -3.557161,0.33612 -3.665342,0.3297 -0.02572,-0.002 -0.220413,-0.0678 -0.432641,-0.14721 z"
       style="opacity:1;fill:#cccccc;fill-opacity:1;stroke:#aa4400;stroke-width:0;stroke-linecap:round;stroke-linejoin:round;stroke-miterlimit:4;stroke-dasharray:none;stroke-dashoffset:0;stroke-opacity:1;paint-order:markers fill stroke" />
    <path
       inkscape:connector-curvature="0"
       id="path8667"
       d="m 46.924802,248.58534 c -0.04826,-0.0702 -0.08473,-0.13056 -0.08104,-0.13425 0.0037,-0.004 0.399831,-0.0132 0.880314,-0.0212 1.042432,-0.0173 2.837889,-0.0477 3.458554,-0.0584 l 0.445117,-0.008 0.08833,0.1275 0.08833,0.1275 -0.03649,0.007 c -0.02008,0.004 -0.27328,0.0108 -0.562682,0.0149 -0.289404,0.004 -0.949767,0.0151 -1.467477,0.0242 -0.51771,0.009 -1.288574,0.0223 -1.713031,0.0291 -0.424458,0.007 -0.825839,0.0138 -0.891959,0.0154 l -0.120218,0.003 z"
       style="opacity:1;fill:#cccccc;fill-opacity:1;stroke:#aa4400;stroke-width:0;stroke-linecap:round;stroke-linejoin:round;stroke-miterlimit:4;stroke-dasharray:none;stroke-dashoffset:0;stroke-opacity:1;paint-order:markers fill stroke" />
    <path
       inkscape:connector-curvature="0"
       id="path8669"
       d="m 58.629895,248.89796 c -0.15458,-0.009 -1.156544,-0.0605 -2.226588,-0.11533 -1.070046,-0.0548 -1.947346,-0.10148 -1.949558,-0.10369 -0.0021,-0.002 0.04472,-0.0479 0.104304,-0.1015 0.05958,-0.0536 0.124574,-0.11251 0.144439,-0.13088 l 0.03612,-0.0334 1.255964,0.0649 c 2.610644,0.13501 2.840556,0.14688 3.074231,0.15872 0.131839,0.007 0.247007,0.0132 0.255928,0.0146 0.0089,0.001 -0.04997,0.0616 -0.130876,0.13396 l -0.147098,0.13155 -0.06791,-0.002 c -0.03735,-9e-4 -0.194379,-0.009 -0.348959,-0.0173 z"
       style="opacity:1;fill:#cccccc;fill-opacity:1;stroke:#aa4400;stroke-width:0;stroke-linecap:round;stroke-linejoin:round;stroke-miterlimit:4;stroke-dasharray:none;stroke-dashoffset:0;stroke-opacity:1;paint-order:markers fill stroke" />
    <path
       inkscape:connector-curvature="0"
       id="path8671"
       d="m 63.826619,249.44741 -1.730161,-0.21285 0.455295,-0.1286 c 0.250412,-0.0707 0.513321,-0.12899 0.58424,-0.12946 0.07092,-4.7e-4 0.861547,0.0883 1.756947,0.1972 1.787131,0.21741 1.728031,0.19347 0.983731,0.39845 l -0.319894,0.0881 z"
       style="opacity:1;fill:#cccccc;fill-opacity:1;stroke:#aa4400;stroke-width:0;stroke-linecap:round;stroke-linejoin:round;stroke-miterlimit:4;stroke-dasharray:none;stroke-dashoffset:0;stroke-opacity:1;paint-order:markers fill stroke" />
    <path
       inkscape:connector-curvature="0"
       id="path8673"
       d="m 70.37431,250.59065 c -0.66884,-0.13812 -1.247648,-0.25808 -1.286234,-0.26658 -0.03859,-0.008 0.413935,-0.0747 1.005601,-0.14714 l 1.075762,-0.13168 1.250122,0.24818 c 0.687565,0.1365 1.2348,0.26139 1.216075,0.27753 -0.01873,0.0161 -0.423423,0.0756 -0.899329,0.13213 -0.475909,0.0565 -0.928428,0.11086 -1.005602,0.12073 -0.07717,0.01 -0.687552,-0.0951 -1.356395,-0.23317 z"
       style="opacity:1;fill:#cccccc;fill-opacity:1;stroke:#aa4400;stroke-width:0;stroke-linecap:round;stroke-linejoin:round;stroke-miterlimit:4;stroke-dasharray:none;stroke-dashoffset:0;stroke-opacity:1;paint-order:markers fill stroke" />
    <path
       inkscape:connector-curvature="0"
       id="path8675"
       d="m 76.022665,252.10097 c -0.520587,-0.15803 -0.937448,-0.29641 -0.926357,-0.3075 0.01109,-0.0111 0.822889,-0.0441 1.803996,-0.0734 l 1.783831,-0.0533 1.036799,0.30402 1.036799,0.30402 -0.608039,0.0298 c -0.33442,0.0164 -1.186844,0.042 -1.894271,0.0568 l -1.286235,0.0269 z"
       style="opacity:1;fill:#cccccc;fill-opacity:1;stroke:#aa4400;stroke-width:0;stroke-linecap:round;stroke-linejoin:round;stroke-miterlimit:4;stroke-dasharray:none;stroke-dashoffset:0;stroke-opacity:1;paint-order:markers fill stroke" />
    <path
       inkscape:connector-curvature="0"
       id="path8677"
       d="m 84.208148,254.41482 -2.435082,-0.098 -0.894879,-0.37247 c -0.868611,-0.36153 -0.891447,-0.37266 -0.778005,-0.37941 0.113279,-0.007 4.736349,0.16751 5.119855,0.19298 0.180723,0.012 0.236244,0.0317 1.08745,0.386 l 0.897007,0.37337 -0.280633,-0.002 c -0.154348,-0.001 -1.376421,-0.0463 -2.715713,-0.10023 z"
       style="opacity:1;fill:#cccccc;fill-opacity:1;stroke:#aa4400;stroke-width:0;stroke-linecap:round;stroke-linejoin:round;stroke-miterlimit:4;stroke-dasharray:none;stroke-dashoffset:0;stroke-opacity:1;paint-order:markers fill stroke" />
    <path
       sodipodi:nodetypes="cccccc"
       inkscape:connector-curvature="0"
       id="path8679"
       d="m 85.587416,256.5136 -1.595771,-0.94516 7.09776,0.70486 0.466873,0.27668 -0.530586,0.50408 z"
       style="fill:#cccccc;fill-opacity:1;stroke:#000000;stroke-width:0;stroke-linecap:butt;stroke-linejoin:miter;stroke-miterlimit:4;stroke-dasharray:none;stroke-opacity:1" />
    <path
       sodipodi:nodetypes="ccccc"
       style="fill:#cccccc;fill-opacity:1;stroke:#000000;stroke-width:0;stroke-linecap:butt;stroke-linejoin:miter;stroke-miterlimit:4;stroke-dasharray:none;stroke-opacity:1"
       d="m 88.400166,258.92172 -1.24437,-1.11311 2.63981,0.41409 -0.829148,0.78773 z"
       id="path8681"
       inkscape:connector-curvature="0" />
    <ellipse
       style="fill:#ffa100;fill-opacity:1;stroke:#ff8400;stroke-width:0;stroke-miterlimit:4;stroke-dasharray:none;stroke-opacity:0.8642857;paint-order:markers stroke fill"
       id="ellipse8683"
       cx="-67.866318"
       cy="276.53882"
       rx="0.26309967"
       ry="0.2144296"
       transform="rotate(-24.181165)" />
    <ellipse
       style="fill:#ffa100;fill-opacity:1;stroke:#ff8400;stroke-width:0;stroke-miterlimit:4;stroke-dasharray:none;stroke-opacity:0.8642857;paint-order:markers stroke fill"
       id="ellipse8685"
       cx="251.38367"
       cy="138.58682"
       rx="0.28295168"
       ry="0.23060927"
       transform="rotate(50.41157)" />
    <ellipse
       style="fill:#ffa100;fill-opacity:1;stroke:#ff8400;stroke-width:0;stroke-miterlimit:4;stroke-dasharray:none;stroke-opacity:0.8642857;paint-order:markers stroke fill"
       id="ellipse8687"
       cx="236.29158"
       cy="161.30675"
       rx="0.28742483"
       ry="0.23425491"
       transform="rotate(45.01134)" />
    <ellipse
       style="fill:#ffa100;fill-opacity:1;stroke:#ff8400;stroke-width:0;stroke-miterlimit:4;stroke-dasharray:none;stroke-opacity:0.8642857;paint-order:markers stroke fill"
       id="ellipse8689"
       cx="102.47254"
       cy="267.00128"
       rx="0.27375573"
       ry="0.22311443"
       transform="rotate(10.69308)" />
    <ellipse
       style="fill:#ffa100;fill-opacity:1;stroke:#ff8400;stroke-width:0;stroke-miterlimit:4;stroke-dasharray:none;stroke-opacity:0.8642857;paint-order:markers stroke fill"
       id="ellipse8691"
       cx="277.85165"
       cy="-63.673264"
       rx="0.27502507"
       ry="0.22414896"
       transform="rotate(92.017)" />
    <ellipse
       style="fill:#ffa100;fill-opacity:1;stroke:#ff8400;stroke-width:0;stroke-miterlimit:4;stroke-dasharray:none;stroke-opacity:0.8642857;paint-order:markers stroke fill"
       id="ellipse8693"
       cx="-72.05394"
       cy="275.66714"
       rx="0.27441877"
       ry="0.22365482"
       transform="rotate(-25.383925)" />
    <ellipse
       style="fill:#ffa100;fill-opacity:1;stroke:#ff8400;stroke-width:0;stroke-miterlimit:4;stroke-dasharray:none;stroke-opacity:0.8642857;paint-order:markers stroke fill"
       id="ellipse8695"
       cx="-204.69284"
       cy="-200.46411"
       rx="0.3012501"
       ry="0.24552268"
       transform="rotate(-145.07729)" />
    <ellipse
       style="fill:#ffa100;fill-opacity:1;stroke:#ff8400;stroke-width:0;stroke-miterlimit:4;stroke-dasharray:none;stroke-opacity:0.8642857;paint-order:markers stroke fill"
       id="ellipse8697"
       cx="85.294083"
       cy="270.01791"
       rx="0.32006747"
       ry="0.2608591"
       transform="rotate(6.530755)" />
    <ellipse
       style="fill:#ffa100;fill-opacity:1;stroke:#ff8400;stroke-width:0;stroke-miterlimit:4;stroke-dasharray:none;stroke-opacity:0.8642857;paint-order:markers stroke fill"
       id="ellipse8699"
       cx="284.59064"
       cy="16.430962"
       rx="0.31825188"
       ry="0.25937936"
       transform="rotate(76.05718)" />
    <ellipse
       style="fill:#ffa100;fill-opacity:1;stroke:#ff8400;stroke-width:0;stroke-miterlimit:4;stroke-dasharray:none;stroke-opacity:0.8642857;paint-order:markers stroke fill"
       id="ellipse8701"
       cx="280.69827"
       cy="-42.255589"
       rx="0.26269919"
       ry="0.21410322"
       transform="rotate(87.47921)" />
    <ellipse
       style="fill:#ffa100;fill-opacity:1;stroke:#ff8400;stroke-width:0;stroke-miterlimit:4;stroke-dasharray:none;stroke-opacity:0.8642857;paint-order:markers stroke fill"
       id="ellipse8705"
       cx="218.84135"
       cy="-179.52097"
       rx="0.26431257"
       ry="0.21541813"
       transform="rotate(118.20661)" />
    <ellipse
       style="fill:#ffa100;fill-opacity:1;stroke:#ff8400;stroke-width:0;stroke-miterlimit:4;stroke-dasharray:none;stroke-opacity:0.8642857;paint-order:markers stroke fill"
       id="ellipse8711"
       cx="281.32843"
       cy="-48.479427"
       rx="0.29242459"
       ry="0.23832978"
       transform="rotate(89.37043)" />
    <ellipse
       ry="0.21369724"
       rx="0.2622011"
       cy="96.587898"
       cx="270.15326"
       id="ellipse8715"
       style="fill:#ffa100;fill-opacity:1;stroke:#ff8400;stroke-width:0;stroke-miterlimit:4;stroke-dasharray:none;stroke-opacity:0.8642857;paint-order:markers stroke fill"
       transform="rotate(59.58771)" />
    <ellipse
       ry="0.19902323"
       rx="0.24419647"
       cy="-79.991867"
       cx="-275.05206"
       id="ellipse8717"
       style="fill:#ffa100;fill-opacity:1;stroke:#ff8400;stroke-width:0;stroke-miterlimit:4;stroke-dasharray:none;stroke-opacity:0.8642857;paint-order:markers stroke fill"
       transform="rotate(-116.67721)" />
    <ellipse
       ry="0.2071709"
       rx="0.25419345"
       cy="-36.473053"
       cx="-283.22449"
       id="ellipse8719"
       style="fill:#ffa100;fill-opacity:1;stroke:#ff8400;stroke-width:0;stroke-miterlimit:4;stroke-dasharray:none;stroke-opacity:0.8642857;paint-order:markers stroke fill"
       transform="rotate(-108.20588)" />
    <ellipse
       ry="0.19929299"
       rx="0.24452741"
       cy="-234.9321"
       cx="159.62152"
       id="ellipse8721"
       style="fill:#ffa100;fill-opacity:1;stroke:#ff8400;stroke-width:0;stroke-miterlimit:4;stroke-dasharray:none;stroke-opacity:0.8642857;paint-order:markers stroke fill"
       transform="rotate(134.70007)" />
    <ellipse
       ry="0.2005576"
       rx="0.24607909"
       cy="246.16016"
       cx="-144.59508"
       id="ellipse8723"
       style="fill:#ffa100;fill-opacity:1;stroke:#ff8400;stroke-width:0;stroke-miterlimit:4;stroke-dasharray:none;stroke-opacity:0.8642857;paint-order:markers stroke fill"
       transform="rotate(-40.980955)" />
    <ellipse
       ry="0.22656132"
       rx="0.27798501"
       cy="25.818085"
       cx="-284.73666"
       id="ellipse8725"
       style="fill:#ffa100;fill-opacity:1;stroke:#ff8400;stroke-width:0;stroke-miterlimit:4;stroke-dasharray:none;stroke-opacity:0.8642857;paint-order:markers stroke fill"
       transform="rotate(-95.036036)" />
    <ellipse
       ry="0.20102084"
       rx="0.24664745"
       cy="260.61401"
       cx="118.93303"
       id="ellipse8727"
       style="fill:#ffa100;fill-opacity:1;stroke:#ff8400;stroke-width:0;stroke-miterlimit:4;stroke-dasharray:none;stroke-opacity:0.8642857;paint-order:markers stroke fill"
       transform="rotate(13.77319)" />
    <ellipse
       ry="0.19579245"
       rx="0.24023236"
       cy="136.88872"
       cx="-251.13617"
       id="ellipse8729"
       style="fill:#ffa100;fill-opacity:1;stroke:#ff8400;stroke-width:0;stroke-miterlimit:4;stroke-dasharray:none;stroke-opacity:0.8642857;paint-order:markers stroke fill"
       transform="rotate(-72.211418)" />
    <ellipse
       ry="0.21528"
       rx="0.26414308"
       cy="187.19208"
       cx="220.30577"
       id="ellipse8733"
       style="fill:#ffa100;fill-opacity:1;stroke:#ff8400;stroke-width:0;stroke-miterlimit:4;stroke-dasharray:none;stroke-opacity:0.8642857;paint-order:markers stroke fill"
       transform="rotate(38.33388)" />
    <ellipse
       transform="rotate(-112.47889)"
       style="fill:#ffa100;fill-opacity:1;stroke:#ff8400;stroke-width:0;stroke-miterlimit:4;stroke-dasharray:none;stroke-opacity:0.8642857;paint-order:markers stroke fill"
       id="ellipse8735"
       cx="-279.80829"
       cy="-59.061436"
       rx="0.24419647"
       ry="0.19902323" />
    <ellipse
       style="fill:#ffa100;fill-opacity:1;stroke:#ff8400;stroke-width:0;stroke-miterlimit:4;stroke-dasharray:none;stroke-opacity:0.8642857;paint-order:markers stroke fill"
       id="ellipse8739"
       cx="48.240688"
       cy="-282.35449"
       rx="0.31663188"
       ry="0.25805905"
       transform="rotate(159.39155)" />
    <ellipse
       ry="0.22924936"
       rx="0.28128311"
       cy="161.90219"
       cx="-236.29344"
       id="ellipse8743"
       style="fill:#ffa100;fill-opacity:1;stroke:#ff8400;stroke-width:0;stroke-miterlimit:4;stroke-dasharray:none;stroke-opacity:0.8642857;paint-order:markers stroke fill"
       transform="rotate(-65.94053)" />
    <ellipse
       ry="0.22479068"
       rx="0.27581245"
       cy="256.83841"
       cx="-129.97327"
       id="ellipse8745"
       style="fill:#ffa100;fill-opacity:1;stroke:#ff8400;stroke-width:0;stroke-miterlimit:4;stroke-dasharray:none;stroke-opacity:0.8642857;paint-order:markers stroke fill"
       transform="rotate(-37.444655)" />
    <ellipse
       transform="rotate(140.48641)"
       ry="0.23993868"
       rx="0.29439867"
       cy="-248.39172"
       cx="139.66486"
       id="ellipse8747"
       style="fill:#ffa100;fill-opacity:1;stroke:#ff8400;stroke-width:0;stroke-miterlimit:4;stroke-dasharray:none;stroke-opacity:0.8642857;paint-order:markers stroke fill" />
    <ellipse
       transform="rotate(-132.978)"
       ry="0.2144296"
       rx="0.26309967"
       cy="-151.39702"
       cx="-239.20444"
       id="ellipse8749"
       style="fill:#ffa100;fill-opacity:1;stroke:#ff8400;stroke-width:0;stroke-miterlimit:4;stroke-dasharray:none;stroke-opacity:0.8642857;paint-order:markers stroke fill" />
    <ellipse
       transform="rotate(140.48641)"
       ry="0.23993868"
       rx="0.29439867"
       cy="-250.58881"
       cx="137.30658"
       id="ellipse8751"
       style="fill:#ffa100;fill-opacity:1;stroke:#ff8400;stroke-width:0;stroke-miterlimit:4;stroke-dasharray:none;stroke-opacity:0.8642857;paint-order:markers stroke fill" />
    <ellipse
       transform="rotate(56.61614)"
       ry="0.25290519"
       rx="0.31030825"
       cy="109.15636"
       cx="261.30374"
       id="ellipse8753"
       style="fill:#ffa100;fill-opacity:1;stroke:#ff8400;stroke-width:0;stroke-miterlimit:4;stroke-dasharray:none;stroke-opacity:0.8642857;paint-order:markers stroke fill" />
    <ellipse
       transform="rotate(11.31622)"
       ry="0.24507505"
       rx="0.30070087"
       cy="262.06693"
       cx="105.53907"
       id="ellipse8755"
       style="fill:#ffa100;fill-opacity:1;stroke:#ff8400;stroke-width:0;stroke-miterlimit:4;stroke-dasharray:none;stroke-opacity:0.8642857;paint-order:markers stroke fill" />
    <ellipse
       transform="rotate(-98.103756)"
       ry="0.22311443"
       rx="0.27375573"
       cy="13.88562"
       cx="-282.77832"
       id="ellipse8759"
       style="fill:#ffa100;fill-opacity:1;stroke:#ff8400;stroke-width:0;stroke-miterlimit:4;stroke-dasharray:none;stroke-opacity:0.8642857;paint-order:markers stroke fill" />
    <ellipse
       transform="rotate(53.43309)"
       ry="0.21934856"
       rx="0.26913512"
       cy="122.72227"
       cx="256.6572"
       id="ellipse8761"
       style="fill:#ffa100;fill-opacity:1;stroke:#ff8400;stroke-width:0;stroke-miterlimit:4;stroke-dasharray:none;stroke-opacity:0.8642857;paint-order:markers stroke fill" />
    <ellipse
       transform="rotate(41.69864)"
       ry="0.21478993"
       rx="0.26354179"
       cy="174.13904"
       cx="228.18152"
       id="ellipse8763"
       style="fill:#ffa100;fill-opacity:1;stroke:#ff8400;stroke-width:0;stroke-miterlimit:4;stroke-dasharray:none;stroke-opacity:0.8642857;paint-order:markers stroke fill" />
    <ellipse
       transform="rotate(-52.803585)"
       ry="0.26501682"
       rx="0.32516888"
       cy="215.19049"
       cx="-189.09633"
       id="ellipse8765"
       style="fill:#ffa100;fill-opacity:1;stroke:#ff8400;stroke-width:0;stroke-miterlimit:4;stroke-dasharray:none;stroke-opacity:0.8642857;paint-order:markers stroke fill" />
    <ellipse
       transform="rotate(-16.779836)"
       ry="0.22414896"
       rx="0.27502507"
       cy="283.79105"
       cx="-34.674919"
       id="ellipse8767"
       style="fill:#ffa100;fill-opacity:1;stroke:#ff8400;stroke-width:0;stroke-miterlimit:4;stroke-dasharray:none;stroke-opacity:0.8642857;paint-order:markers stroke fill" />
    <ellipse
       transform="rotate(-134.18076)"
       ry="0.22365482"
       rx="0.27441877"
       cy="-161.29646"
       cx="-237.21103"
       id="ellipse8769"
       style="fill:#ffa100;fill-opacity:1;stroke:#ff8400;stroke-width:0;stroke-miterlimit:4;stroke-dasharray:none;stroke-opacity:0.8642857;paint-order:markers stroke fill" />
    <ellipse
       transform="rotate(6.530755)"
       ry="0.2608591"
       rx="0.32006747"
       cy="271.26498"
       cx="86.175743"
       id="ellipse8771"
       style="fill:#ffa100;fill-opacity:1;stroke:#ff8400;stroke-width:0;stroke-miterlimit:4;stroke-dasharray:none;stroke-opacity:0.8642857;paint-order:markers stroke fill" />
    <ellipse
       transform="rotate(-120.16043)"
       ry="0.24866964"
       rx="0.30511132"
       cy="-95.109818"
       cx="-266.94162"
       id="ellipse8773"
       style="fill:#ffa100;fill-opacity:1;stroke:#ff8400;stroke-width:0;stroke-miterlimit:4;stroke-dasharray:none;stroke-opacity:0.8642857;paint-order:markers stroke fill" />
    <ellipse
       transform="rotate(-107.65496)"
       ry="0.25123513"
       rx="0.3082591"
       cy="-33.711266"
       cx="-282.03928"
       id="ellipse8777"
       style="fill:#ffa100;fill-opacity:1;stroke:#ff8400;stroke-width:0;stroke-miterlimit:4;stroke-dasharray:none;stroke-opacity:0.8642857;paint-order:markers stroke fill" />
    <ellipse
       transform="rotate(98.60928)"
       ry="0.24450421"
       rx="0.30000043"
       cy="-96.597977"
       cx="268.08496"
       id="ellipse8781"
       style="fill:#ffa100;fill-opacity:1;stroke:#ff8400;stroke-width:0;stroke-miterlimit:4;stroke-dasharray:none;stroke-opacity:0.8642857;paint-order:markers stroke fill" />
    <ellipse
       transform="rotate(48.2607)"
       ry="0.22858064"
       rx="0.28046259"
       cy="145.65314"
       cx="245.36259"
       id="ellipse8783"
       style="fill:#ffa100;fill-opacity:1;stroke:#ff8400;stroke-width:0;stroke-miterlimit:4;stroke-dasharray:none;stroke-opacity:0.8642857;paint-order:markers stroke fill" />
    <ellipse
       transform="rotate(-7.555625)"
       ry="0.23257677"
       rx="0.28536582"
       cy="285.35968"
       cx="17.960825"
       id="ellipse8785"
       style="fill:#ffa100;fill-opacity:1;stroke:#ff8400;stroke-width:0;stroke-miterlimit:4;stroke-dasharray:none;stroke-opacity:0.8642857;paint-order:markers stroke fill" />
    <ellipse
       transform="rotate(138.46097)"
       ry="0.22110619"
       rx="0.27129167"
       cy="-246.78244"
       cx="145.3443"
       id="ellipse8787"
       style="fill:#ffa100;fill-opacity:1;stroke:#ff8400;stroke-width:0;stroke-miterlimit:4;stroke-dasharray:none;stroke-opacity:0.8642857;paint-order:markers stroke fill" />
    <ellipse
       transform="rotate(148.06468)"
       ry="0.2210936"
       rx="0.27127624"
       cy="-268.30844"
       cx="102.06818"
       id="ellipse8789"
       style="fill:#ffa100;fill-opacity:1;stroke:#ff8400;stroke-width:0;stroke-miterlimit:4;stroke-dasharray:none;stroke-opacity:0.8642857;paint-order:markers stroke fill" />
    <ellipse
       transform="rotate(24.66917)"
       ry="0.25183991"
       rx="0.30900118"
       cy="235.31674"
       cx="164.76967"
       id="ellipse8791"
       style="fill:#ffa100;fill-opacity:1;stroke:#ff8400;stroke-width:0;stroke-miterlimit:4;stroke-dasharray:none;stroke-opacity:0.8642857;paint-order:markers stroke fill" />
    <ellipse
       transform="rotate(142.99728)"
       style="fill:#ffa100;fill-opacity:1;stroke:#ff8400;stroke-width:0;stroke-miterlimit:4;stroke-dasharray:none;stroke-opacity:0.8642857;paint-order:markers stroke fill"
       id="ellipse8795"
       cx="129.27933"
       cy="-254.62332"
       rx="0.25419345"
       ry="0.2071709" />
    <ellipse
       transform="rotate(-171.35514)"
       style="fill:#ffa100;fill-opacity:1;stroke:#ff8400;stroke-width:0;stroke-miterlimit:4;stroke-dasharray:none;stroke-opacity:0.8642857;paint-order:markers stroke fill"
       id="ellipse8797"
       cx="-96.315041"
       cy="-267.53906"
       rx="0.26680973"
       ry="0.21745333" />
    <ellipse
       transform="rotate(-56.442796)"
       style="fill:#ffa100;fill-opacity:1;stroke:#ff8400;stroke-width:0;stroke-miterlimit:4;stroke-dasharray:none;stroke-opacity:0.8642857;paint-order:markers stroke fill"
       id="ellipse8799"
       cx="-205.34018"
       cy="196.82175"
       rx="0.29226339"
       ry="0.23819835" />
    <ellipse
       transform="rotate(-161.85652)"
       style="fill:#ffa100;fill-opacity:1;stroke:#ff8400;stroke-width:0;stroke-miterlimit:4;stroke-dasharray:none;stroke-opacity:0.8642857;paint-order:markers stroke fill"
       id="ellipse8801"
       cx="-134.40559"
       cy="-253.91806"
       rx="0.24664745"
       ry="0.20102084" />
    <ellipse
       transform="rotate(178.99175)"
       style="fill:#ffa100;fill-opacity:1;stroke:#ff8400;stroke-width:0;stroke-miterlimit:4;stroke-dasharray:none;stroke-opacity:0.8642857;paint-order:markers stroke fill"
       id="ellipse8803"
       cx="-46.262032"
       cy="-281.58304"
       rx="0.24023236"
       ry="0.19579245" />
    <ellipse
       ry="0.19902323"
       rx="0.24419647"
       cy="-246.15205"
       cx="148.22351"
       id="ellipse8807"
       style="fill:#ffa100;fill-opacity:1;stroke:#ff8400;stroke-width:0;stroke-miterlimit:4;stroke-dasharray:none;stroke-opacity:0.8642857;paint-order:markers stroke fill"
       transform="rotate(138.72427)" />
    <ellipse
       transform="rotate(-13.191216)"
       ry="0.21753356"
       rx="0.26690814"
       cy="282.34656"
       cx="-14.202318"
       id="ellipse8809"
       style="fill:#ffa100;fill-opacity:1;stroke:#ff8400;stroke-width:0;stroke-miterlimit:4;stroke-dasharray:none;stroke-opacity:0.8642857;paint-order:markers stroke fill" />
    <ellipse
       style="fill:#ffa100;fill-opacity:1;stroke:#ff8400;stroke-width:0;stroke-miterlimit:4;stroke-dasharray:none;stroke-opacity:0.8642857;paint-order:markers stroke fill"
       id="ellipse8811"
       cx="193.45981"
       cy="213.4931"
       rx="0.29439867"
       ry="0.23993868"
       transform="rotate(31.68957)" />
    <ellipse
       transform="rotate(165.41298)"
       ry="0.25290519"
       rx="0.31030825"
       cy="-284.2562"
       cx="19.181694"
       id="ellipse8815"
       style="fill:#ffa100;fill-opacity:1;stroke:#ff8400;stroke-width:0;stroke-miterlimit:4;stroke-dasharray:none;stroke-opacity:0.8642857;paint-order:markers stroke fill" />
    <ellipse
       transform="rotate(41.69864)"
       ry="0.21478993"
       rx="0.26354179"
       cy="174.79431"
       cx="229.53235"
       id="ellipse8819"
       style="fill:#ffa100;fill-opacity:1;stroke:#ff8400;stroke-width:0;stroke-miterlimit:4;stroke-dasharray:none;stroke-opacity:0.8642857;paint-order:markers stroke fill" />
    <ellipse
       transform="rotate(-11.363595)"
       ry="0.24866964"
       rx="0.30511132"
       cy="284.03503"
       cx="-3.8675041"
       id="ellipse8825"
       style="fill:#ffa100;fill-opacity:1;stroke:#ff8400;stroke-width:0;stroke-miterlimit:4;stroke-dasharray:none;stroke-opacity:0.8642857;paint-order:markers stroke fill" />
    <ellipse
       transform="rotate(28.3293)"
       ry="0.26295099"
       rx="0.32263416"
       cy="218.85912"
       cx="182.06099"
       id="ellipse8829"
       style="fill:#ffa100;fill-opacity:1;stroke:#ff8400;stroke-width:0;stroke-miterlimit:4;stroke-dasharray:none;stroke-opacity:0.8642857;paint-order:markers stroke fill" />
    <ellipse
       transform="rotate(148.06468)"
       ry="0.2210936"
       rx="0.27127624"
       cy="-268.58054"
       cx="103.21637"
       id="ellipse8831"
       style="fill:#ffa100;fill-opacity:1;stroke:#ff8400;stroke-width:0;stroke-miterlimit:4;stroke-dasharray:none;stroke-opacity:0.8642857;paint-order:markers stroke fill" />
    <ellipse
       transform="rotate(15.4287)"
       ry="0.23177303"
       rx="0.2843796"
       cy="257.46823"
       cx="130.20575"
       id="ellipse8835"
       style="fill:#ffa100;fill-opacity:1;stroke:#ff8400;stroke-width:0;stroke-miterlimit:4;stroke-dasharray:none;stroke-opacity:0.8642857;paint-order:markers stroke fill" />
    <ellipse
       transform="rotate(-7.245154)"
       style="fill:#ffa100;fill-opacity:1;stroke:#ff8400;stroke-width:0;stroke-miterlimit:4;stroke-dasharray:none;stroke-opacity:0.8642857;paint-order:markers stroke fill"
       id="ellipse8837"
       cx="13.888759"
       cy="281.64444"
       rx="0.2622011"
       ry="0.21369724" />
    <ellipse
       transform="rotate(-94.610481)"
       style="fill:#ffa100;fill-opacity:1;stroke:#ff8400;stroke-width:0;stroke-miterlimit:4;stroke-dasharray:none;stroke-opacity:0.8642857;paint-order:markers stroke fill"
       id="ellipse8839"
       cx="-284.65613"
       cy="32.689083"
       rx="0.25825059"
       ry="0.21047753" />
    <ellipse
       transform="rotate(-112.9351)"
       style="fill:#ffa100;fill-opacity:1;stroke:#ff8400;stroke-width:0;stroke-miterlimit:4;stroke-dasharray:none;stroke-opacity:0.8642857;paint-order:markers stroke fill"
       id="ellipse8841"
       cx="-280.27151"
       cy="-58.358967"
       rx="0.25577983"
       ry="0.20846386" />
    <ellipse
       transform="rotate(14.40528)"
       style="fill:#ffa100;fill-opacity:1;stroke:#ff8400;stroke-width:0;stroke-miterlimit:4;stroke-dasharray:none;stroke-opacity:0.8642857;paint-order:markers stroke fill"
       id="ellipse8843"
       cx="123.27874"
       cy="258.75937"
       rx="0.28637752"
       ry="0.23340134" />
    <ellipse
       transform="rotate(43.20389)"
       style="fill:#ffa100;fill-opacity:1;stroke:#ff8400;stroke-width:0;stroke-miterlimit:4;stroke-dasharray:none;stroke-opacity:0.8642857;paint-order:markers stroke fill"
       id="ellipse8845"
       cx="230.89647"
       cy="164.94167"
       rx="0.28327158"
       ry="0.23086993" />
    <ellipse
       style="fill:#ffa100;fill-opacity:1;stroke:#ff8400;stroke-width:0;stroke-miterlimit:4;stroke-dasharray:none;stroke-opacity:0.8642857;paint-order:markers stroke fill"
       id="ellipse8853"
       cx="226.69824"
       cy="176.47046"
       rx="0.26354179"
       ry="0.21478993"
       transform="rotate(41.69864)" />
    <ellipse
       ry="0.23340134"
       rx="0.28637752"
       cy="260.15115"
       cx="120.89208"
       id="ellipse8859"
       style="fill:#ffa100;fill-opacity:1;stroke:#ff8400;stroke-width:0;stroke-miterlimit:4;stroke-dasharray:none;stroke-opacity:0.8642857;paint-order:markers stroke fill"
       transform="rotate(14.40528)" />
    <ellipse
       transform="rotate(97.65993)"
       ry="0.25727865"
       rx="0.31567436"
       cy="-85.787331"
       cx="270.47754"
       id="ellipse8863"
       style="fill:#ffa100;fill-opacity:1;stroke:#ff8400;stroke-width:0;stroke-miterlimit:4;stroke-dasharray:none;stroke-opacity:0.8642857;paint-order:markers stroke fill" />
    <ellipse
       transform="rotate(-11.633998)"
       style="fill:#ffa100;fill-opacity:1;stroke:#ff8400;stroke-width:0;stroke-miterlimit:4;stroke-dasharray:none;stroke-opacity:0.8642857;paint-order:markers stroke fill"
       id="ellipse8869"
       cx="-8.033803"
       cy="282.70026"
       rx="0.27634594"
       ry="0.22522549" />
    <ellipse
       transform="rotate(6.621408)"
       style="fill:#ffa100;fill-opacity:1;stroke:#ff8400;stroke-width:0;stroke-miterlimit:4;stroke-dasharray:none;stroke-opacity:0.8642857;paint-order:markers stroke fill"
       id="ellipse8871"
       cx="85.106544"
       cy="274.92172"
       rx="0.25925347"
       ry="0.21129489" />
    <ellipse
       transform="rotate(-75.078939)"
       style="fill:#ffa100;fill-opacity:1;stroke:#ff8400;stroke-width:0;stroke-miterlimit:4;stroke-dasharray:none;stroke-opacity:0.8642857;paint-order:markers stroke fill"
       id="ellipse8873"
       cx="-255.26225"
       cy="121.17745"
       rx="0.27711764"
       ry="0.22585443" />
    <ellipse
       transform="rotate(-139.14177)"
       style="fill:#ffa100;fill-opacity:1;stroke:#ff8400;stroke-width:0;stroke-miterlimit:4;stroke-dasharray:none;stroke-opacity:0.8642857;paint-order:markers stroke fill"
       id="ellipse8875"
       cx="-220.59052"
       cy="-179.38582"
       rx="0.25548607"
       ry="0.20822443" />
    <ellipse
       transform="rotate(49.13699)"
       style="fill:#ffa100;fill-opacity:1;stroke:#ff8400;stroke-width:0;stroke-miterlimit:4;stroke-dasharray:none;stroke-opacity:0.8642857;paint-order:markers stroke fill"
       id="ellipse8877"
       cx="245.99667"
       cy="143.0443"
       rx="0.26314268"
       ry="0.21446465" />
    <ellipse
       transform="rotate(-10.077384)"
       style="fill:#ffa100;fill-opacity:1;stroke:#ff8400;stroke-width:0;stroke-miterlimit:4;stroke-dasharray:none;stroke-opacity:0.8642857;paint-order:markers stroke fill"
       id="ellipse8879"
       cx="3.8627884"
       cy="282.56134"
       rx="0.26117426"
       ry="0.21286036" />
    <ellipse
       ry="0.21599704"
       rx="0.26502287"
       cy="88.745659"
       cx="-273.24454"
       id="ellipse8881"
       style="fill:#ffa100;fill-opacity:1;stroke:#ff8400;stroke-width:0;stroke-miterlimit:4;stroke-dasharray:none;stroke-opacity:0.8642857;paint-order:markers stroke fill"
       transform="rotate(-82.568579)" />
    <ellipse
       transform="rotate(129.61214)"
       ry="0.24412729"
       rx="0.29953799"
       cy="-219.27934"
       cx="181.80559"
       id="ellipse8883"
       style="fill:#ffa100;fill-opacity:1;stroke:#ff8400;stroke-width:0;stroke-miterlimit:4;stroke-dasharray:none;stroke-opacity:0.8642857;paint-order:markers stroke fill" />
    <ellipse
       transform="rotate(-170.99759)"
       style="fill:#ffa100;fill-opacity:1;stroke:#ff8400;stroke-width:0;stroke-miterlimit:4;stroke-dasharray:none;stroke-opacity:0.8642857;paint-order:markers stroke fill"
       id="ellipse8885"
       cx="-96.993263"
       cy="-266.63373"
       rx="0.25069442"
       ry="0.20431916" />
    <ellipse
       ry="0.22779384"
       rx="0.27949727"
       cy="-63.484482"
       cx="280.66055"
       id="ellipse8889"
       style="fill:#ffa100;fill-opacity:1;stroke:#ff8400;stroke-width:0;stroke-miterlimit:4;stroke-dasharray:none;stroke-opacity:0.8642857;paint-order:markers stroke fill"
       transform="rotate(92.25568)" />
    <g
       transform="rotate(-45,282.72294,708.00123)"
       id="g20523-0-8">
      <path
         sodipodi:nodetypes="ccccccccsccccccccccsccccccccc"
         style="opacity:1;fill:#cccccc;fill-opacity:1;stroke:#ffff00;stroke-width:0;stroke-linecap:round;stroke-linejoin:round;stroke-miterlimit:4;stroke-dasharray:none;stroke-opacity:1;paint-order:fill markers stroke"
         d="m 470.81106,254.63513 c -1.18975,-2e-5 -2.31622,0.0408 -3.35433,0.1111 l 0.45836,1.17253 c 0.90048,-0.0581 1.87272,-0.092 2.89597,-0.092 4.54194,3e-5 8.22357,0.62151 8.22275,1.38803 v 3.64887 c 0.48106,-0.0684 0.74094,-0.20116 0.71105,-0.5452 0.0679,-0.54465 -0.12296,-1.20226 0.24806,-1.32136 v -2.81223 c 0,-0.85587 -4.11049,-1.54974 -9.18186,-1.54977 z m -11.84063,0.15762 -0.14264,0.68781 2.80088,2.36728 c 0.27575,0.26622 0.1292,0.67199 0.26096,0.93535 0.20635,0.25887 0.62119,0.81891 0.69815,0.32245 v -1.85931 z m 2.65824,18.47328 v 2.64065 c 0,0.85593 4.11075,1.54982 9.18239,1.5498 5.07143,-3e-5 9.18239,-0.69392 9.18186,-1.5498 v -1.25574 c -0.30546,0.14859 -0.6404,0.26154 -0.99115,0.3447 -0.35719,0.71088 -3.88604,1.26916 -8.19071,1.26918 -4.54213,3e-5 -8.2241,-0.62148 -8.22328,-1.38803 v -1.17771 c -0.0539,-0.0273 -0.10821,-0.0544 -0.16123,-0.0827 z"
         id="path20495-52-1"
         inkscape:connector-curvature="0" />
      <path
         style="color:#000000;font-style:normal;font-variant:normal;font-weight:normal;font-stretch:normal;font-size:medium;line-height:normal;font-family:sans-serif;font-variant-ligatures:normal;font-variant-position:normal;font-variant-caps:normal;font-variant-numeric:normal;font-variant-alternates:normal;font-feature-settings:normal;text-indent:0;text-align:start;text-decoration:none;text-decoration-line:none;text-decoration-style:solid;text-decoration-color:#000000;letter-spacing:normal;word-spacing:normal;text-transform:none;writing-mode:lr-tb;direction:ltr;text-orientation:mixed;dominant-baseline:auto;baseline-shift:baseline;text-anchor:start;white-space:normal;shape-padding:0;clip-rule:nonzero;display:inline;overflow:visible;visibility:visible;opacity:1;isolation:auto;mix-blend-mode:normal;color-interpolation:sRGB;color-interpolation-filters:linearRGB;solid-color:#000000;solid-opacity:1;vector-effect:none;fill:#cccccc;fill-opacity:1;fill-rule:nonzero;stroke:none;stroke-width:1.24354172;stroke-linecap:round;stroke-linejoin:miter;stroke-miterlimit:4;stroke-dasharray:none;stroke-dashoffset:0;stroke-opacity:1;color-rendering:auto;image-rendering:auto;shape-rendering:auto;text-rendering:auto;enable-background:accumulate"
         d="m 461.60076,258.15325 c -0.056,0.003 -0.11129,0.0143 -0.16434,0.0326 -0.2585,0.0844 -0.49913,0.20785 -0.68006,0.44132 -0.18089,0.23342 -0.23487,0.57745 -0.17362,0.83198 0.12237,0.50901 0.45808,0.78796 0.83611,1.0821 0.0314,0.0244 0.0663,0.0477 0.0987,0.0718 -0.0271,0.005 -0.0549,0.007 -0.0811,0.016 -0.2585,0.0844 -0.49913,0.20786 -0.68006,0.4413 -0.18089,0.23347 -0.23487,0.57748 -0.17362,0.83201 0.12237,0.50901 0.45808,0.78796 0.83611,1.08209 0.0553,0.043 0.11555,0.0849 0.17415,0.12714 -0.0533,0.004 -0.10602,0.0136 -0.15658,0.031 -0.2585,0.0844 -0.49913,0.20785 -0.68006,0.44129 -0.18089,0.23347 -0.23487,0.57748 -0.17362,0.83201 0.1102,0.45847 0.39619,0.72986 0.72761,0.99425 -0.2096,0.0828 -0.40315,0.19913 -0.55399,0.39378 -0.18089,0.23342 -0.23487,0.57746 -0.17362,0.83199 0.12237,0.509 0.45808,0.78795 0.83611,1.08209 0.0314,0.0244 0.0663,0.0477 0.0987,0.0718 -0.0271,0.005 -0.0549,0.007 -0.0811,0.016 -0.2585,0.0844 -0.49913,0.20785 -0.68006,0.4413 -0.18089,0.23346 -0.23487,0.57748 -0.17362,0.832 0.12237,0.50901 0.45808,0.78796 0.83611,1.0821 0.0553,0.043 0.11555,0.0849 0.17415,0.12713 -0.0533,0.004 -0.10602,0.0136 -0.15658,0.031 -0.2585,0.0844 -0.49913,0.20786 -0.68006,0.4413 -0.18089,0.23347 -0.23484,0.57748 -0.17362,0.83201 0.12237,0.509 0.45808,0.78795 0.83611,1.08209 0.7561,0.5883 1.83664,1.10329 2.78691,1.35186 1.73956,0.45503 4.43892,0.9719 6.51174,1.08985 2.07733,0.11821 5.75871,-0.0501 7.52928,-0.28163 0.93453,-0.12221 1.84814,-0.39206 2.46496,-0.95705 0.3084,-0.28249 0.56409,-0.74049 0.46871,-1.23198 -0.18764,-0.45217 -0.43831,-0.81161 -0.77877,-1.04126 0.10916,-0.0741 0.2142,-0.15251 0.31006,-0.2403 0.30837,-0.28249 0.56409,-0.74049 0.46871,-1.23198 -0.1779,-0.42873 -0.4127,-0.77388 -0.72657,-1.00459 0.0906,-0.0643 0.1769,-0.13253 0.25786,-0.2067 0.30837,-0.28249 0.56409,-0.74049 0.46871,-1.23195 -0.15073,-0.36325 -0.34266,-0.66633 -0.58809,-0.89143 0.0398,-0.0323 0.0818,-0.0622 0.11938,-0.0966 0.30837,-0.2825 0.56409,-0.74049 0.46871,-1.23198 -0.18764,-0.45217 -0.43831,-0.81163 -0.77877,-1.04127 0.10916,-0.0741 0.2142,-0.1525 0.31006,-0.24029 0.30837,-0.2825 0.56409,-0.74049 0.46871,-1.23198 -0.1779,-0.42873 -0.4127,-0.77388 -0.72657,-1.0046 0.0906,-0.0643 0.1769,-0.13253 0.25786,-0.20669 0.30837,-0.2825 0.56409,-0.74049 0.46871,-1.23195 -0.26424,-0.63683 -0.64926,-1.09575 -1.24179,-1.25627 v 1.46399 c 0.003,0.005 0.0178,0.0243 0.0176,0.0233 -0.008,0.009 -0.0275,0.0315 -0.0863,0.0853 -0.1419,0.12999 -0.46903,0.29126 -0.86556,0.42373 4.2e-4,0.60347 6.6e-4,0.56343 0.001,1.30845 0.32771,-0.0783 0.6441,-0.17883 0.93327,-0.31367 v 0.91623 c 0.003,0.005 0.0178,0.0243 0.0176,0.0233 -0.008,0.009 -0.0275,0.0315 -0.0863,0.0852 -0.14182,0.12996 -0.46874,0.2913 -0.86506,0.42375 1.3e-4,0.39921 -5.8e-4,0.8876 -5e-4,1.30845 0.32806,-0.0784 0.64484,-0.1787 0.9343,-0.31367 v 0.9865 c 0.003,0.005 0.0178,0.0243 0.0176,0.0233 -0.008,0.009 -0.0275,0.0315 -0.0863,0.0853 -0.1419,0.13004 -0.46895,0.29178 -0.86556,0.42428 -3e-5,0.43606 -4.2e-4,0.86096 -5.3e-4,1.30845 0.32829,-0.0784 0.64521,-0.17915 0.93483,-0.3142 v 0.69297 c 0.003,0.005 0.0178,0.0243 0.0176,0.0233 -0.008,0.009 -0.0275,0.0315 -0.0863,0.0853 -0.14203,0.13009 -0.46956,0.2917 -0.86662,0.42426 -1.6e-4,0.45227 -2.1e-4,0.85381 -5e-4,1.30844 0.32864,-0.0784 0.64595,-0.17902 0.93586,-0.31419 v 0.91622 c 0.003,0.005 0.0178,0.0243 0.0176,0.0233 -0.008,0.009 -0.0275,0.0315 -0.0863,0.0853 -0.14214,0.13025 -0.47009,0.29218 -0.86765,0.42479 -4e-4,0.45217 5.8e-4,0.86333 0,1.30794 0.32882,-0.0784 0.64632,-0.17894 0.93639,-0.31419 v 0.98649 c 0.003,0.005 0.0178,0.0243 0.0176,0.0233 -0.008,0.009 -0.0275,0.0314 -0.0863,0.0852 -0.24358,0.22312 -1.02516,0.54139 -1.78541,0.64079 -1.61901,0.2117 -5.37419,0.38061 -7.29464,0.27131 -1.92495,-0.10954 -4.61579,-0.61788 -6.26991,-1.05058 -1.21045,-0.34309 -2.2978,-0.79553 -2.89129,-1.7508 v -0.75862 c 0.29025,0.20572 0.61725,0.39886 0.95911,0.57259 6.1e-4,-0.4467 -3.7e-4,-0.84675 0,-1.38081 -0.38489,-0.25 -0.71527,-0.5542 -0.95911,-0.94671 v -0.68884 c 0.29025,0.20572 0.61725,0.39926 0.95911,0.57309 1.9e-4,-0.57994 -2e-5,-0.76896 0,-1.38078 -0.38489,-0.25003 -0.71527,-0.55422 -0.95911,-0.94673 v -0.46509 c 0.29025,0.20572 0.61725,0.39886 0.95911,0.57259 -8e-5,-0.6159 1.6e-4,-0.78338 0,-1.38081 -0.38489,-0.25001 -0.71527,-0.5542 -0.95911,-0.94671 v -0.75861 c 0.29025,0.20571 0.61725,0.39886 0.95911,0.57259 -2.3e-4,-0.55883 2.4e-4,-0.89752 0,-1.38081 -0.38489,-0.25001 -0.71527,-0.5542 -0.95911,-0.94671 v -0.68884 c 0.29025,0.20571 0.61725,0.39926 0.95911,0.57309 -2.3e-4,-0.40381 1.9e-4,-1.108 0,-1.38078 -0.38489,-0.25004 -0.71527,-0.55423 -0.95911,-0.94674 v -0.78599 c -0.009,-2.2e-4 -0.0185,-2.2e-4 -0.0279,0 z"
         id="path20497-5-5"
         inkscape:connector-curvature="0" />
      <ellipse
         style="opacity:1;fill:#ff0000;fill-opacity:1;stroke:#aa4400;stroke-width:0;stroke-linecap:round;stroke-linejoin:round;stroke-miterlimit:4;stroke-dasharray:none;stroke-opacity:1;paint-order:fill markers stroke"
         id="ellipse20499-1-2"
         cx="462.58777"
         cy="263.01364"
         rx="0.44354036"
         ry="0.68442249" />
      <ellipse
         ry="0.68603855"
         rx="0.44354036"
         cy="260.57202"
         cx="462.58777"
         id="ellipse20501-8-9"
         style="opacity:1;fill:#ff0000;fill-opacity:1;stroke:#aa4400;stroke-width:0;stroke-linecap:round;stroke-linejoin:round;stroke-miterlimit:4;stroke-dasharray:none;stroke-opacity:1;paint-order:fill markers stroke" />
      <ellipse
         ry="0.66940397"
         rx="0.44354036"
         cy="265.51218"
         cx="462.58777"
         id="ellipse20503-8-6"
         style="opacity:1;fill:#ff0000;fill-opacity:1;stroke:#aa4400;stroke-width:0;stroke-linecap:round;stroke-linejoin:round;stroke-miterlimit:4;stroke-dasharray:none;stroke-opacity:1;paint-order:fill markers stroke" />
      <ellipse
         style="opacity:1;fill:#ff0000;fill-opacity:1;stroke:#aa4400;stroke-width:0;stroke-linecap:round;stroke-linejoin:round;stroke-miterlimit:4;stroke-dasharray:none;stroke-opacity:1;paint-order:fill markers stroke"
         id="ellipse20505-27-5"
         cx="462.58777"
         cy="267.75317"
         rx="0.44354036"
         ry="0.69038981" />
      <ellipse
         ry="0.69040531"
         rx="0.44354036"
         cy="270.19644"
         cx="462.58777"
         id="ellipse20507-0-3"
         style="opacity:1;fill:#ff0000;fill-opacity:1;stroke:#aa4400;stroke-width:0;stroke-linecap:round;stroke-linejoin:round;stroke-miterlimit:4;stroke-dasharray:none;stroke-opacity:1;paint-order:fill markers stroke" />
      <ellipse
         style="opacity:1;fill:#ff0000;fill-opacity:1;stroke:#aa4400;stroke-width:0;stroke-linecap:round;stroke-linejoin:round;stroke-miterlimit:4;stroke-dasharray:none;stroke-opacity:1;paint-order:fill markers stroke"
         id="ellipse20509-8-9"
         cx="479.00436"
         cy="261.90936"
         rx="0.44354036"
         ry="0.65710115" />
      <ellipse
         ry="0.65710115"
         rx="0.44354036"
         cy="264.35266"
         cx="479.00485"
         id="ellipse20511-6-4"
         style="opacity:1;fill:#ff0000;fill-opacity:1;stroke:#aa4400;stroke-width:0;stroke-linecap:round;stroke-linejoin:round;stroke-miterlimit:4;stroke-dasharray:none;stroke-opacity:1;paint-order:fill markers stroke" />
      <ellipse
         style="opacity:1;fill:#ff0000;fill-opacity:1;stroke:#aa4400;stroke-width:0;stroke-linecap:round;stroke-linejoin:round;stroke-miterlimit:4;stroke-dasharray:none;stroke-opacity:1;paint-order:fill markers stroke"
         id="ellipse20513-7-3"
         cx="479.00436"
         cy="266.86673"
         rx="0.44354036"
         ry="0.65710115" />
      <ellipse
         ry="0.65710115"
         rx="0.44354036"
         cy="269.08673"
         cx="479.0033"
         id="ellipse20515-0-0"
         style="opacity:1;fill:#ff0000;fill-opacity:1;stroke:#aa4400;stroke-width:0;stroke-linecap:round;stroke-linejoin:round;stroke-miterlimit:4;stroke-dasharray:none;stroke-opacity:1;paint-order:fill markers stroke" />
      <ellipse
         style="opacity:1;fill:#ff0000;fill-opacity:1;stroke:#aa4400;stroke-width:0;stroke-linecap:round;stroke-linejoin:round;stroke-miterlimit:4;stroke-dasharray:none;stroke-opacity:1;paint-order:fill markers stroke"
         id="ellipse20517-6-0"
         cx="479.00226"
         cy="271.53052"
         rx="0.44354036"
         ry="0.65710115" />
      <path
         style="opacity:1;fill:#808080;fill-opacity:1;stroke:#aa4400;stroke-width:0;stroke-linecap:round;stroke-linejoin:round;stroke-miterlimit:4;stroke-dasharray:none;stroke-opacity:1;paint-order:fill markers stroke"
         d="m 467.03577,254.8164 -7.51578,-0.14057 4.13182,2.68782 c -0.009,4.58123 -0.10668,10.05271 -0.0471,14.63889 2.53291,0.96743 9.22732,1.83261 14.29062,1.14618 0.006,-5.55488 0.13836,-11.57753 0,-15.78507 -1.71558,-0.74353 -6.24818,-1.05828 -10.00871,-0.76483 l -0.39253,-0.60989 z"
         id="path20519-0-1"
         inkscape:connector-curvature="0"
         sodipodi:nodetypes="ccccccccc" />
      <path
         sodipodi:nodetypes="cccccccccc"
         inkscape:connector-curvature="0"
         id="path20521-1-3"
         d="m 466.44046,254.79161 -3.44704,-0.29988 -2.74545,0.16785 3.83222,2.54225 c -0.009,4.58123 -0.01,9.998 0.0498,14.58418 2.53291,0.96742 8.27212,1.65555 13.33543,0.96911 0.006,-5.55487 0.10527,-10.82018 -0.0331,-15.02772 -1.71558,-0.74353 -5.9092,-0.98385 -9.66972,-0.6904 l -0.58063,-0.91583 z"
         style="opacity:1;fill:url(#linearGradient43012);fill-opacity:1;stroke:#aa4400;stroke-width:0;stroke-linecap:round;stroke-linejoin:round;stroke-miterlimit:4;stroke-dasharray:none;stroke-opacity:1;paint-order:fill markers stroke" />
    </g>
    <ellipse
       transform="rotate(-72.211418)"
       style="fill:#ffa100;fill-opacity:1;stroke:#ff8400;stroke-width:0;stroke-miterlimit:4;stroke-dasharray:none;stroke-opacity:0.8642857;paint-order:markers stroke fill"
       id="ellipse20211"
       cx="-249.62201"
       cy="142.2034"
       rx="0.24023236"
       ry="0.19579245" />
    <ellipse
       transform="rotate(159.39155)"
       ry="0.25805905"
       rx="0.31663188"
       cy="-284.36057"
       cx="42.952953"
       id="ellipse20213"
       style="fill:#ffa100;fill-opacity:1;stroke:#ff8400;stroke-width:0;stroke-miterlimit:4;stroke-dasharray:none;stroke-opacity:0.8642857;paint-order:markers stroke fill" />
    <ellipse
       style="fill:#ffa100;fill-opacity:1;stroke:#ff8400;stroke-width:0;stroke-miterlimit:4;stroke-dasharray:none;stroke-opacity:0.8642857;paint-order:markers stroke fill"
       id="ellipse20215"
       cx="133.99173"
       cy="-254.15863"
       rx="0.29439867"
       ry="0.23993868"
       transform="rotate(140.48641)" />
    <ellipse
       ry="0.20846386"
       rx="0.25577983"
       cy="-52.759922"
       cx="-282.91003"
       id="ellipse20217"
       style="fill:#ffa100;fill-opacity:1;stroke:#ff8400;stroke-width:0;stroke-miterlimit:4;stroke-dasharray:none;stroke-opacity:0.8642857;paint-order:markers stroke fill"
       transform="rotate(-112.9351)" />
    <ellipse
       ry="0.23340134"
       rx="0.28637752"
       cy="257.36841"
       cx="128.76051"
       id="ellipse20219"
       style="fill:#ffa100;fill-opacity:1;stroke:#ff8400;stroke-width:0;stroke-miterlimit:4;stroke-dasharray:none;stroke-opacity:0.8642857;paint-order:markers stroke fill"
       transform="rotate(14.40528)" />
    <ellipse
       ry="0.19579245"
       rx="0.24023236"
       cy="145.34364"
       cx="-248.47556"
       id="ellipse20221"
       style="fill:#ffa100;fill-opacity:1;stroke:#ff8400;stroke-width:0;stroke-miterlimit:4;stroke-dasharray:none;stroke-opacity:0.8642857;paint-order:markers stroke fill"
       transform="rotate(-72.211418)" />
    <ellipse
       style="fill:#ffa100;fill-opacity:1;stroke:#ff8400;stroke-width:0;stroke-miterlimit:4;stroke-dasharray:none;stroke-opacity:0.8642857;paint-order:markers stroke fill"
       id="ellipse20223"
       cx="39.779781"
       cy="-285.41248"
       rx="0.31663188"
       ry="0.25805905"
       transform="rotate(159.39155)" />
    <ellipse
       transform="rotate(-112.9351)"
       style="fill:#ffa100;fill-opacity:1;stroke:#ff8400;stroke-width:0;stroke-miterlimit:4;stroke-dasharray:none;stroke-opacity:0.8642857;paint-order:markers stroke fill"
       id="ellipse20225"
       cx="-284.0899"
       cy="-49.632069"
       rx="0.25577983"
       ry="0.20846386" />
    <ellipse
       transform="rotate(14.40528)"
       style="fill:#ffa100;fill-opacity:1;stroke:#ff8400;stroke-width:0;stroke-miterlimit:4;stroke-dasharray:none;stroke-opacity:0.8642857;paint-order:markers stroke fill"
       id="ellipse20227"
       cx="131.96295"
       cy="256.40927"
       rx="0.28637752"
       ry="0.23340134" />
    <ellipse
       transform="rotate(107.78858)"
       style="fill:#ffa100;fill-opacity:1;stroke:#ff8400;stroke-width:0;stroke-miterlimit:4;stroke-dasharray:none;stroke-opacity:0.8642857;paint-order:markers stroke fill"
       id="ellipse20229"
       cx="248.54411"
       cy="-145.59111"
       rx="0.24023236"
       ry="0.19579245" />
    <ellipse
       transform="rotate(-20.60845)"
       ry="0.25805905"
       rx="0.31663188"
       cy="284.81625"
       cx="-40.909691"
       id="ellipse20231"
       style="fill:#ffa100;fill-opacity:1;stroke:#ff8400;stroke-width:0;stroke-miterlimit:4;stroke-dasharray:none;stroke-opacity:0.8642857;paint-order:markers stroke fill" />
    <ellipse
       ry="0.20846386"
       rx="0.25577983"
       cy="54.140202"
       cx="282.39304"
       id="ellipse20233"
       style="fill:#ffa100;fill-opacity:1;stroke:#ff8400;stroke-width:0;stroke-miterlimit:4;stroke-dasharray:none;stroke-opacity:0.8642857;paint-order:markers stroke fill"
       transform="rotate(67.0649)" />
    <ellipse
       ry="0.23340134"
       rx="0.28637752"
       cy="-256.91379"
       cx="-129.13289"
       id="ellipse20235"
       style="fill:#ffa100;fill-opacity:1;stroke:#ff8400;stroke-width:0;stroke-miterlimit:4;stroke-dasharray:none;stroke-opacity:0.8642857;paint-order:markers stroke fill"
       transform="rotate(-165.59472)" />
    <ellipse
       transform="rotate(-112.9351)"
       style="fill:#ffa100;fill-opacity:1;stroke:#ff8400;stroke-width:0;stroke-miterlimit:4;stroke-dasharray:none;stroke-opacity:0.8642857;paint-order:markers stroke fill"
       id="ellipse20237"
       cx="-284.67062"
       cy="-47.638981"
       rx="0.25577983"
       ry="0.20846386" />
    <ellipse
       transform="rotate(14.40528)"
       style="fill:#ffa100;fill-opacity:1;stroke:#ff8400;stroke-width:0;stroke-miterlimit:4;stroke-dasharray:none;stroke-opacity:0.8642857;paint-order:markers stroke fill"
       id="ellipse20239"
       cx="133.89977"
       cy="255.66206"
       rx="0.28637752"
       ry="0.23340134" />
    <ellipse
       transform="rotate(-72.211418)"
       style="fill:#ffa100;fill-opacity:1;stroke:#ff8400;stroke-width:0;stroke-miterlimit:4;stroke-dasharray:none;stroke-opacity:0.8642857;paint-order:markers stroke fill"
       id="ellipse20241"
       cx="-247.13953"
       cy="149.50777"
       rx="0.24023236"
       ry="0.19579245" />
    <ellipse
       transform="rotate(159.39155)"
       ry="0.25805905"
       rx="0.31663188"
       cy="-287.70462"
       cx="32.521633"
       id="ellipse20243"
       style="fill:#ffa100;fill-opacity:1;stroke:#ff8400;stroke-width:0;stroke-miterlimit:4;stroke-dasharray:none;stroke-opacity:0.8642857;paint-order:markers stroke fill" />
    <ellipse
       ry="0.20846386"
       rx="0.25577983"
       cy="-8.1403694"
       cx="-289.78745"
       id="ellipse20245"
       style="fill:#ffa100;fill-opacity:1;stroke:#ff8400;stroke-width:0;stroke-miterlimit:4;stroke-dasharray:none;stroke-opacity:0.8642857;paint-order:markers stroke fill"
       transform="rotate(-106.15147)" />
    <ellipse
       ry="0.23340134"
       rx="0.28637752"
       cy="235.77232"
       cx="168.4066"
       id="ellipse20247"
       style="fill:#ffa100;fill-opacity:1;stroke:#ff8400;stroke-width:0;stroke-miterlimit:4;stroke-dasharray:none;stroke-opacity:0.8642857;paint-order:markers stroke fill"
       transform="rotate(21.188915)" />
    <ellipse
       ry="0.19579245"
       rx="0.24023236"
       cy="-152.32295"
       cx="246.10179"
       id="ellipse20249"
       style="fill:#ffa100;fill-opacity:1;stroke:#ff8400;stroke-width:0;stroke-miterlimit:4;stroke-dasharray:none;stroke-opacity:0.8642857;paint-order:markers stroke fill"
       transform="rotate(107.78858)" />
    <ellipse
       style="fill:#ffa100;fill-opacity:1;stroke:#ff8400;stroke-width:0;stroke-miterlimit:4;stroke-dasharray:none;stroke-opacity:0.8642857;paint-order:markers stroke fill"
       id="ellipse20251"
       cx="-33.800835"
       cy="287.23965"
       rx="0.31663188"
       ry="0.25805905"
       transform="rotate(-20.60845)" />
    <ellipse
       transform="rotate(67.0649)"
       style="fill:#ffa100;fill-opacity:1;stroke:#ff8400;stroke-width:0;stroke-miterlimit:4;stroke-dasharray:none;stroke-opacity:0.8642857;paint-order:markers stroke fill"
       id="ellipse20253"
       cx="284.15359"
       cy="49.01926"
       rx="0.25577983"
       ry="0.20846386" />
    <ellipse
       transform="rotate(-165.59472)"
       style="fill:#ffa100;fill-opacity:1;stroke:#ff8400;stroke-width:0;stroke-miterlimit:4;stroke-dasharray:none;stroke-opacity:0.8642857;paint-order:markers stroke fill"
       id="ellipse20255"
       cx="-135.89095"
       cy="-255.1176"
       rx="0.28637752"
       ry="0.23340134" />
  </g>
</svg>
