{
	"Roasting_Shop.F_sum_obsh": [
		{
			"dt": "2020-04-09T09:46:02.618Z",
			"val": 8.713
		},
		{
			"dt": "2020-04-09T09:47:42.618Z",
			"val": 9.063
		},
		{
			"dt": "2020-04-09T09:49:22.618Z",
			"val": 9.528
		},
		{
			"dt": "2020-04-09T09:51:02.618Z",
			"val": 9.979
		},
		{
			"dt": "2020-04-09T09:52:42.618Z",
			"val": 10.359
		},
		{
			"dt": "2020-04-09T09:54:22.618Z",
			"val": 10.382
		},
		{
			"dt": "2020-04-09T09:56:02.618Z",
			"val": 11.31
		},
		{
			"dt": "2020-04-09T09:57:42.618Z",
			"val": 11.538
		},
		{
			"dt": "2020-04-09T09:59:22.618Z",
			"val": 11.249
		},
		{
			"dt": "2020-04-09T10:01:02.618Z",
			"val": 11.191
		},
		{
			"dt": "2020-04-09T10:02:42.618Z",
			"val": 12.089
		},
		{
			"dt": "2020-04-09T10:04:22.618Z",
			"val": 13.072
		},
		{
			"dt": "2020-04-09T10:06:02.618Z",
			"val": 12.458
		},
		{
			"dt": "2020-04-09T10:07:42.618Z",
			"val": 11.782
		},
		{
			"dt": "2020-04-09T10:09:22.618Z",
			"val": 12.517
		},
		{
			"dt": "2020-04-09T10:11:02.618Z",
			"val": 13.347
		},
		{
			"dt": "2020-04-09T10:12:42.618Z",
			"val": 13.723
		},
		{
			"dt": "2020-04-09T10:14:22.618Z",
			"val": 12.964
		},
		{
			"dt": "2020-04-09T10:16:02.618Z",
			"val": 12.143
		},
		{
			"dt": "2020-04-09T10:17:42.618Z",
			"val": 12.779
		},
		{
			"dt": "2020-04-09T10:19:22.618Z",
			"val": 13.578
		},
		{
			"dt": "2020-04-09T10:21:02.618Z",
			"val": 12.958
		},
		{
			"dt": "2020-04-09T10:22:42.618Z",
			"val": 12.898
		},
		{
			"dt": "2020-04-09T10:24:22.618Z",
			"val": 12.507
		},
		{
			"dt": "2020-04-09T10:26:02.618Z",
			"val": 11.947
		},
		{
			"dt": "2020-04-09T10:27:42.618Z",
			"val": 11.437
		},
		{
			"dt": "2020-04-09T10:29:22.618Z",
			"val": 11.276
		},
		{
			"dt": "2020-04-09T10:31:02.618Z",
			"val": 11.575
		},
		{
			"dt": "2020-04-09T10:32:42.618Z",
			"val": 11.767
		},
		{
			"dt": "2020-04-09T10:34:22.618Z",
			"val": 11.819
		},
		{
			"dt": "2020-04-09T10:36:02.618Z",
			"val": 11.845
		},
		{
			"dt": "2020-04-09T10:37:42.618Z",
			"val": 11.535
		},
		{
			"dt": "2020-04-09T10:39:22.618Z",
			"val": 10.694
		},
		{
			"dt": "2020-04-09T10:41:02.618Z",
			"val": 10.107
		},
		{
			"dt": "2020-04-09T10:42:42.618Z",
			"val": 10.316
		},
		{
			"dt": "2020-04-09T10:44:22.618Z",
			"val": 10.298
		},
		{
			"dt": "2020-04-09T10:46:02.618Z",
			"val": 10.931
		},
		{
			"dt": "2020-04-09T10:47:42.618Z",
			"val": 10.103
		}
	],
	"Roasting_Shop.F_sum_sm": [
		{
			"dt": "2020-04-09T09:46:02.618Z",
			"val": 9.789
		},
		{
			"dt": "2020-04-09T09:47:42.618Z",
			"val": 10.367
		},
		{
			"dt": "2020-04-09T09:49:22.618Z",
			"val": 11.239
		},
		{
			"dt": "2020-04-09T09:51:02.618Z",
			"val": 11.006
		},
		{
			"dt": "2020-04-09T09:52:42.618Z",
			"val": 10.083
		},
		{
			"dt": "2020-04-09T09:54:22.618Z",
			"val": 9.599
		},
		{
			"dt": "2020-04-09T09:56:02.618Z",
			"val": 9.915
		},
		{
			"dt": "2020-04-09T09:57:42.618Z",
			"val": 10.101
		},
		{
			"dt": "2020-04-09T09:59:22.618Z",
			"val": 9.224
		},
		{
			"dt": "2020-04-09T10:01:02.618Z",
			"val": 8.399
		},
		{
			"dt": "2020-04-09T10:02:42.618Z",
			"val": 8.426
		},
		{
			"dt": "2020-04-09T10:04:22.618Z",
			"val": 8.852
		},
		{
			"dt": "2020-04-09T10:06:02.618Z",
			"val": 8.508
		},
		{
			"dt": "2020-04-09T10:07:42.618Z",
			"val": 9.393
		},
		{
			"dt": "2020-04-09T10:09:22.618Z",
			"val": 9.856
		},
		{
			"dt": "2020-04-09T10:11:02.618Z",
			"val": 10.406
		},
		{
			"dt": "2020-04-09T10:12:42.618Z",
			"val": 9.966
		},
		{
			"dt": "2020-04-09T10:14:22.618Z",
			"val": 10.35
		},
		{
			"dt": "2020-04-09T10:16:02.618Z",
			"val": 11.11
		},
		{
			"dt": "2020-04-09T10:17:42.618Z",
			"val": 10.477
		},
		{
			"dt": "2020-04-09T10:19:22.618Z",
			"val": 9.675
		},
		{
			"dt": "2020-04-09T10:21:02.618Z",
			"val": 10.154
		},
		{
			"dt": "2020-04-09T10:22:42.618Z",
			"val": 10.848
		},
		{
			"dt": "2020-04-09T10:24:22.618Z",
			"val": 10.567
		},
		{
			"dt": "2020-04-09T10:26:02.618Z",
			"val": 10.442
		},
		{
			"dt": "2020-04-09T10:27:42.618Z",
			"val": 10.861
		},
		{
			"dt": "2020-04-09T10:29:22.618Z",
			"val": 11.788
		},
		{
			"dt": "2020-04-09T10:31:02.618Z",
			"val": 11.291
		},
		{
			"dt": "2020-04-09T10:32:42.618Z",
			"val": 12.047
		},
		{
			"dt": "2020-04-09T10:34:22.618Z",
			"val": 11.072
		},
		{
			"dt": "2020-04-09T10:36:02.618Z",
			"val": 10.346
		},
		{
			"dt": "2020-04-09T10:37:42.618Z",
			"val": 10.301
		},
		{
			"dt": "2020-04-09T10:39:22.618Z",
			"val": 10.02
		},
		{
			"dt": "2020-04-09T10:41:02.618Z",
			"val": 10.209
		},
		{
			"dt": "2020-04-09T10:42:42.618Z",
			"val": 9.337
		},
		{
			"dt": "2020-04-09T10:44:22.618Z",
			"val": 8.641
		},
		{
			"dt": "2020-04-09T10:46:02.618Z",
			"val": 8.767
		},
		{
			"dt": "2020-04-09T10:47:42.618Z",
			"val": 8.324
		}
	],
	"Roasting_Shop.P_kol_g_i": [
		{
			"dt": "2020-04-09T09:46:02.618Z",
			"val": 2.044
		},
		{
			"dt": "2020-04-09T09:47:42.618Z",
			"val": 2.958
		},
		{
			"dt": "2020-04-09T09:49:22.618Z",
			"val": 2.249
		},
		{
			"dt": "2020-04-09T09:51:02.618Z",
			"val": 2.073
		},
		{
			"dt": "2020-04-09T09:52:42.618Z",
			"val": 1.858
		},
		{
			"dt": "2020-04-09T09:54:22.618Z",
			"val": 2.241
		},
		{
			"dt": "2020-04-09T09:56:02.618Z",
			"val": 2.003
		},
		{
			"dt": "2020-04-09T09:57:42.618Z",
			"val": 1.956
		},
		{
			"dt": "2020-04-09T09:59:22.618Z",
			"val": 2.136
		},
		{
			"dt": "2020-04-09T10:01:02.618Z",
			"val": 1.273
		},
		{
			"dt": "2020-04-09T10:02:42.618Z",
			"val": 2.224
		},
		{
			"dt": "2020-04-09T10:04:22.618Z",
			"val": 2.017
		},
		{
			"dt": "2020-04-09T10:06:02.618Z",
			"val": 1.478
		},
		{
			"dt": "2020-04-09T10:07:42.618Z",
			"val": 2.311
		},
		{
			"dt": "2020-04-09T10:09:22.618Z",
			"val": 3.31
		},
		{
			"dt": "2020-04-09T10:11:02.618Z",
			"val": 2.904
		},
		{
			"dt": "2020-04-09T10:12:42.618Z",
			"val": 2.668
		},
		{
			"dt": "2020-04-09T10:14:22.618Z",
			"val": 3.201
		},
		{
			"dt": "2020-04-09T10:16:02.618Z",
			"val": 3.933
		},
		{
			"dt": "2020-04-09T10:17:42.618Z",
			"val": 3.867
		},
		{
			"dt": "2020-04-09T10:19:22.618Z",
			"val": 4.809
		},
		{
			"dt": "2020-04-09T10:21:02.618Z",
			"val": 4.48
		},
		{
			"dt": "2020-04-09T10:22:42.618Z",
			"val": 5.254
		},
		{
			"dt": "2020-04-09T10:24:22.618Z",
			"val": 4.266
		},
		{
			"dt": "2020-04-09T10:26:02.618Z",
			"val": 3.827
		},
		{
			"dt": "2020-04-09T10:27:42.618Z",
			"val": 3.14
		},
		{
			"dt": "2020-04-09T10:29:22.618Z",
			"val": 2.911
		},
		{
			"dt": "2020-04-09T10:31:02.618Z",
			"val": 2.94
		},
		{
			"dt": "2020-04-09T10:32:42.618Z",
			"val": 2.518
		},
		{
			"dt": "2020-04-09T10:34:22.618Z",
			"val": 2.973
		},
		{
			"dt": "2020-04-09T10:36:02.618Z",
			"val": 3.427
		},
		{
			"dt": "2020-04-09T10:37:42.618Z",
			"val": 3.573
		},
		{
			"dt": "2020-04-09T10:39:22.618Z",
			"val": 3.491
		},
		{
			"dt": "2020-04-09T10:41:02.618Z",
			"val": 4.338
		},
		{
			"dt": "2020-04-09T10:42:42.618Z",
			"val": 3.748
		},
		{
			"dt": "2020-04-09T10:44:22.618Z",
			"val": 3.602
		},
		{
			"dt": "2020-04-09T10:46:02.618Z",
			"val": 3.471
		},
		{
			"dt": "2020-04-09T10:47:42.618Z",
			"val": 3.949
		}
	],
	"Sulfuric_Acid_Shop.P_kol_g_i": [
		{
			"dt": "2020-04-09T09:46:02.618Z",
			"val": 6.716
		},
		{
			"dt": "2020-04-09T09:47:42.618Z",
			"val": 6.205
		},
		{
			"dt": "2020-04-09T09:49:22.618Z",
			"val": 6.945
		},
		{
			"dt": "2020-04-09T09:51:02.618Z",
			"val": 7.538
		},
		{
			"dt": "2020-04-09T09:52:42.618Z",
			"val": 7.469
		},
		{
			"dt": "2020-04-09T09:54:22.618Z",
			"val": 8.459
		},
		{
			"dt": "2020-04-09T09:56:02.618Z",
			"val": 9.301
		},
		{
			"dt": "2020-04-09T09:57:42.618Z",
			"val": 9.78
		},
		{
			"dt": "2020-04-09T09:59:22.618Z",
			"val": 10.243
		},
		{
			"dt": "2020-04-09T10:01:02.618Z",
			"val": 10.575
		},
		{
			"dt": "2020-04-09T10:02:42.618Z",
			"val": 10.977
		},
		{
			"dt": "2020-04-09T10:04:22.618Z",
			"val": 10.569
		},
		{
			"dt": "2020-04-09T10:06:02.618Z",
			"val": 10.481
		},
		{
			"dt": "2020-04-09T10:07:42.618Z",
			"val": 9.72
		},
		{
			"dt": "2020-04-09T10:09:22.618Z",
			"val": 9.811
		},
		{
			"dt": "2020-04-09T10:11:02.618Z",
			"val": 9.648
		},
		{
			"dt": "2020-04-09T10:12:42.618Z",
			"val": 10.579
		},
		{
			"dt": "2020-04-09T10:14:22.618Z",
			"val": 10.774
		},
		{
			"dt": "2020-04-09T10:16:02.618Z",
			"val": 10.511
		},
		{
			"dt": "2020-04-09T10:17:42.618Z",
			"val": 9.814
		},
		{
			"dt": "2020-04-09T10:19:22.618Z",
			"val": 10.599
		},
		{
			"dt": "2020-04-09T10:21:02.618Z",
			"val": 9.61
		},
		{
			"dt": "2020-04-09T10:22:42.618Z",
			"val": 9.841
		},
		{
			"dt": "2020-04-09T10:24:22.618Z",
			"val": 10.474
		},
		{
			"dt": "2020-04-09T10:26:02.618Z",
			"val": 9.96
		},
		{
			"dt": "2020-04-09T10:27:42.618Z",
			"val": 10.913
		},
		{
			"dt": "2020-04-09T10:29:22.618Z",
			"val": 11.808
		},
		{
			"dt": "2020-04-09T10:31:02.618Z",
			"val": 11.666
		},
		{
			"dt": "2020-04-09T10:32:42.618Z",
			"val": 11.96
		},
		{
			"dt": "2020-04-09T10:34:22.618Z",
			"val": 12.462
		},
		{
			"dt": "2020-04-09T10:36:02.618Z",
			"val": 11.589
		},
		{
			"dt": "2020-04-09T10:37:42.618Z",
			"val": 10.974
		},
		{
			"dt": "2020-04-09T10:39:22.618Z",
			"val": 11.54
		},
		{
			"dt": "2020-04-09T10:41:02.618Z",
			"val": 12.507
		},
		{
			"dt": "2020-04-09T10:42:42.618Z",
			"val": 12.571
		},
		{
			"dt": "2020-04-09T10:44:22.618Z",
			"val": 12.49
		},
		{
			"dt": "2020-04-09T10:46:02.618Z",
			"val": 13.053
		},
		{
			"dt": "2020-04-09T10:47:42.618Z",
			"val": 14.029
		}
	],
	"Sulfuric_Acid_Shop.S07L": [
		{
			"dt": "2020-04-09T09:46:02.618Z",
			"val": 0.485
		},
		{
			"dt": "2020-04-09T09:47:42.618Z",
			"val": 0.696
		},
		{
			"dt": "2020-04-09T09:49:22.618Z",
			"val": 0.341
		},
		{
			"dt": "2020-04-09T09:51:02.618Z",
			"val": 0.663
		},
		{
			"dt": "2020-04-09T09:52:42.618Z",
			"val": 0.928
		},
		{
			"dt": "2020-04-09T09:54:22.618Z",
			"val": 0.467
		},
		{
			"dt": "2020-04-09T09:56:02.618Z",
			"val": 0.896
		},
		{
			"dt": "2020-04-09T09:57:42.618Z",
			"val": 0.313
		},
		{
			"dt": "2020-04-09T09:59:22.618Z",
			"val": 0.387
		},
		{
			"dt": "2020-04-09T10:01:02.618Z",
			"val": 0.88
		},
		{
			"dt": "2020-04-09T10:02:42.618Z",
			"val": 0.604
		},
		{
			"dt": "2020-04-09T10:04:22.618Z",
			"val": 1.111
		},
		{
			"dt": "2020-04-09T10:06:02.618Z",
			"val": 0.305
		},
		{
			"dt": "2020-04-09T10:07:42.618Z",
			"val": 0.632
		},
		{
			"dt": "2020-04-09T10:09:22.618Z",
			"val": 0.923
		},
		{
			"dt": "2020-04-09T10:11:02.618Z",
			"val": 0.076
		},
		{
			"dt": "2020-04-09T10:12:42.618Z",
			"val": 0.33
		},
		{
			"dt": "2020-04-09T10:14:22.618Z",
			"val": 0.6
		},
		{
			"dt": "2020-04-09T10:16:02.618Z",
			"val": 0.395
		},
		{
			"dt": "2020-04-09T10:17:42.618Z",
			"val": 0.129
		},
		{
			"dt": "2020-04-09T10:19:22.618Z",
			"val": 0.013
		},
		{
			"dt": "2020-04-09T10:21:02.618Z",
			"val": 0.128
		},
		{
			"dt": "2020-04-09T10:22:42.618Z",
			"val": 0.752
		},
		{
			"dt": "2020-04-09T10:24:22.618Z",
			"val": 0.036
		},
		{
			"dt": "2020-04-09T10:26:02.618Z",
			"val": 0.504
		},
		{
			"dt": "2020-04-09T10:27:42.618Z",
			"val": 0.291
		},
		{
			"dt": "2020-04-09T10:29:22.618Z",
			"val": 0.005
		},
		{
			"dt": "2020-04-09T10:31:02.618Z",
			"val": 0.976
		},
		{
			"dt": "2020-04-09T10:32:42.618Z",
			"val": 0.398
		},
		{
			"dt": "2020-04-09T10:34:22.618Z",
			"val": 0.181
		},
		{
			"dt": "2020-04-09T10:36:02.618Z",
			"val": 0.605
		},
		{
			"dt": "2020-04-09T10:37:42.618Z",
			"val": 1.406
		},
		{
			"dt": "2020-04-09T10:39:22.618Z",
			"val": 1.783
		},
		{
			"dt": "2020-04-09T10:41:02.618Z",
			"val": 1.172
		},
		{
			"dt": "2020-04-09T10:42:42.618Z",
			"val": 1.62
		},
		{
			"dt": "2020-04-09T10:44:22.618Z",
			"val": 2.499
		},
		{
			"dt": "2020-04-09T10:46:02.618Z",
			"val": 3.316
		},
		{
			"dt": "2020-04-09T10:47:42.618Z",
			"val": 2.788
		}
	],
	"Sulfuric_Acid_Shop.S08L": [
		{
			"dt": "2020-04-09T09:46:02.618Z",
			"val": 5.61
		},
		{
			"dt": "2020-04-09T09:47:42.618Z",
			"val": 5.17
		},
		{
			"dt": "2020-04-09T09:49:22.618Z",
			"val": 4.814
		},
		{
			"dt": "2020-04-09T09:51:02.618Z",
			"val": 4.271
		},
		{
			"dt": "2020-04-09T09:52:42.618Z",
			"val": 3.445
		},
		{
			"dt": "2020-04-09T09:54:22.618Z",
			"val": 2.683
		},
		{
			"dt": "2020-04-09T09:56:02.618Z",
			"val": 3.108
		},
		{
			"dt": "2020-04-09T09:57:42.618Z",
			"val": 2.918
		},
		{
			"dt": "2020-04-09T09:59:22.618Z",
			"val": 2.657
		},
		{
			"dt": "2020-04-09T10:01:02.618Z",
			"val": 3.489
		},
		{
			"dt": "2020-04-09T10:02:42.618Z",
			"val": 3.927
		},
		{
			"dt": "2020-04-09T10:04:22.618Z",
			"val": 3.425
		},
		{
			"dt": "2020-04-09T10:06:02.618Z",
			"val": 2.749
		},
		{
			"dt": "2020-04-09T10:07:42.618Z",
			"val": 2.777
		},
		{
			"dt": "2020-04-09T10:09:22.618Z",
			"val": 3.347
		},
		{
			"dt": "2020-04-09T10:11:02.618Z",
			"val": 3.451
		},
		{
			"dt": "2020-04-09T10:12:42.618Z",
			"val": 2.663
		},
		{
			"dt": "2020-04-09T10:14:22.618Z",
			"val": 2.696
		},
		{
			"dt": "2020-04-09T10:16:02.618Z",
			"val": 3.086
		},
		{
			"dt": "2020-04-09T10:17:42.618Z",
			"val": 3.766
		},
		{
			"dt": "2020-04-09T10:19:22.618Z",
			"val": 3.397
		},
		{
			"dt": "2020-04-09T10:21:02.618Z",
			"val": 3.023
		},
		{
			"dt": "2020-04-09T10:22:42.618Z",
			"val": 3.523
		},
		{
			"dt": "2020-04-09T10:24:22.618Z",
			"val": 3.13
		},
		{
			"dt": "2020-04-09T10:26:02.618Z",
			"val": 2.294
		},
		{
			"dt": "2020-04-09T10:27:42.618Z",
			"val": 2.721
		},
		{
			"dt": "2020-04-09T10:29:22.618Z",
			"val": 2.416
		},
		{
			"dt": "2020-04-09T10:31:02.618Z",
			"val": 3.368
		},
		{
			"dt": "2020-04-09T10:32:42.618Z",
			"val": 3.775
		},
		{
			"dt": "2020-04-09T10:34:22.618Z",
			"val": 3.456
		},
		{
			"dt": "2020-04-09T10:36:02.618Z",
			"val": 2.74
		},
		{
			"dt": "2020-04-09T10:37:42.618Z",
			"val": 3.639
		},
		{
			"dt": "2020-04-09T10:39:22.618Z",
			"val": 4.579
		},
		{
			"dt": "2020-04-09T10:41:02.618Z",
			"val": 4.756
		},
		{
			"dt": "2020-04-09T10:42:42.618Z",
			"val": 4.579
		},
		{
			"dt": "2020-04-09T10:44:22.618Z",
			"val": 4.881
		},
		{
			"dt": "2020-04-09T10:46:02.618Z",
			"val": 5.113
		},
		{
			"dt": "2020-04-09T10:47:42.618Z",
			"val": 5.245
		}
	],
	"Sulfuric_Acid_Shop.S09L": [
		{
			"dt": "2020-04-09T09:46:02.618Z",
			"val": 2.854
		},
		{
			"dt": "2020-04-09T09:47:42.618Z",
			"val": 3.686
		},
		{
			"dt": "2020-04-09T09:49:22.618Z",
			"val": 2.93
		},
		{
			"dt": "2020-04-09T09:51:02.618Z",
			"val": 2.301
		},
		{
			"dt": "2020-04-09T09:52:42.618Z",
			"val": 2.365
		},
		{
			"dt": "2020-04-09T09:54:22.618Z",
			"val": 1.472
		},
		{
			"dt": "2020-04-09T09:56:02.618Z",
			"val": 1.078
		},
		{
			"dt": "2020-04-09T09:57:42.618Z",
			"val": 0.24
		},
		{
			"dt": "2020-04-09T09:59:22.618Z",
			"val": 0.199
		},
		{
			"dt": "2020-04-09T10:01:02.618Z",
			"val": 0.058
		},
		{
			"dt": "2020-04-09T10:02:42.618Z",
			"val": 0.007
		},
		{
			"dt": "2020-04-09T10:04:22.618Z",
			"val": 0.096
		},
		{
			"dt": "2020-04-09T10:06:02.618Z",
			"val": 0.761
		},
		{
			"dt": "2020-04-09T10:07:42.618Z",
			"val": 1.732
		},
		{
			"dt": "2020-04-09T10:09:22.618Z",
			"val": 1.051
		},
		{
			"dt": "2020-04-09T10:11:02.618Z",
			"val": 0.867
		},
		{
			"dt": "2020-04-09T10:12:42.618Z",
			"val": 0.999
		},
		{
			"dt": "2020-04-09T10:14:22.618Z",
			"val": 0.132
		},
		{
			"dt": "2020-04-09T10:16:02.618Z",
			"val": 0.878
		},
		{
			"dt": "2020-04-09T10:17:42.618Z",
			"val": 0.053
		},
		{
			"dt": "2020-04-09T10:19:22.618Z",
			"val": 0.128
		},
		{
			"dt": "2020-04-09T10:21:02.618Z",
			"val": 0.377
		},
		{
			"dt": "2020-04-09T10:22:42.618Z",
			"val": 0.04
		},
		{
			"dt": "2020-04-09T10:24:22.618Z",
			"val": 0.287
		},
		{
			"dt": "2020-04-09T10:26:02.618Z",
			"val": 1.026
		},
		{
			"dt": "2020-04-09T10:27:42.618Z",
			"val": 0.445
		},
		{
			"dt": "2020-04-09T10:29:22.618Z",
			"val": 0.535
		},
		{
			"dt": "2020-04-09T10:31:02.618Z",
			"val": 0.29
		},
		{
			"dt": "2020-04-09T10:32:42.618Z",
			"val": 0.158
		},
		{
			"dt": "2020-04-09T10:34:22.618Z",
			"val": 0.694
		},
		{
			"dt": "2020-04-09T10:36:02.618Z",
			"val": 0.319
		},
		{
			"dt": "2020-04-09T10:37:42.618Z",
			"val": 0.331
		},
		{
			"dt": "2020-04-09T10:39:22.618Z",
			"val": 0.477
		},
		{
			"dt": "2020-04-09T10:41:02.618Z",
			"val": 1.041
		},
		{
			"dt": "2020-04-09T10:42:42.618Z",
			"val": 0.167
		},
		{
			"dt": "2020-04-09T10:44:22.618Z",
			"val": 0.094
		},
		{
			"dt": "2020-04-09T10:46:02.618Z",
			"val": 0.327
		},
		{
			"dt": "2020-04-09T10:47:42.618Z",
			"val": 0.285
		}
	],
	"Sulfuric_Acid_Shop.S10L": [
		{
			"dt": "2020-04-09T09:46:02.618Z",
			"val": 6.803
		},
		{
			"dt": "2020-04-09T09:47:42.618Z",
			"val": 6.739
		},
		{
			"dt": "2020-04-09T09:49:22.618Z",
			"val": 6.296
		},
		{
			"dt": "2020-04-09T09:51:02.618Z",
			"val": 6.71
		},
		{
			"dt": "2020-04-09T09:52:42.618Z",
			"val": 5.988
		},
		{
			"dt": "2020-04-09T09:54:22.618Z",
			"val": 6.72
		},
		{
			"dt": "2020-04-09T09:56:02.618Z",
			"val": 5.901
		},
		{
			"dt": "2020-04-09T09:57:42.618Z",
			"val": 5.29
		},
		{
			"dt": "2020-04-09T09:59:22.618Z",
			"val": 6.018
		},
		{
			"dt": "2020-04-09T10:01:02.618Z",
			"val": 6.034
		},
		{
			"dt": "2020-04-09T10:02:42.618Z",
			"val": 5.139
		},
		{
			"dt": "2020-04-09T10:04:22.618Z",
			"val": 5.762
		},
		{
			"dt": "2020-04-09T10:06:02.618Z",
			"val": 6.209
		},
		{
			"dt": "2020-04-09T10:07:42.618Z",
			"val": 5.737
		},
		{
			"dt": "2020-04-09T10:09:22.618Z",
			"val": 5.699
		},
		{
			"dt": "2020-04-09T10:11:02.618Z",
			"val": 5.468
		},
		{
			"dt": "2020-04-09T10:12:42.618Z",
			"val": 4.968
		},
		{
			"dt": "2020-04-09T10:14:22.618Z",
			"val": 4.948
		},
		{
			"dt": "2020-04-09T10:16:02.618Z",
			"val": 4.766
		},
		{
			"dt": "2020-04-09T10:17:42.618Z",
			"val": 4.826
		},
		{
			"dt": "2020-04-09T10:19:22.618Z",
			"val": 5.302
		},
		{
			"dt": "2020-04-09T10:21:02.618Z",
			"val": 6.143
		},
		{
			"dt": "2020-04-09T10:22:42.618Z",
			"val": 5.39
		},
		{
			"dt": "2020-04-09T10:24:22.618Z",
			"val": 4.445
		},
		{
			"dt": "2020-04-09T10:26:02.618Z",
			"val": 4.657
		},
		{
			"dt": "2020-04-09T10:27:42.618Z",
			"val": 4.634
		},
		{
			"dt": "2020-04-09T10:29:22.618Z",
			"val": 5.496
		},
		{
			"dt": "2020-04-09T10:31:02.618Z",
			"val": 5.264
		},
		{
			"dt": "2020-04-09T10:32:42.618Z",
			"val": 5.755
		},
		{
			"dt": "2020-04-09T10:34:22.618Z",
			"val": 5.836
		},
		{
			"dt": "2020-04-09T10:36:02.618Z",
			"val": 5.96
		},
		{
			"dt": "2020-04-09T10:37:42.618Z",
			"val": 5.942
		},
		{
			"dt": "2020-04-09T10:39:22.618Z",
			"val": 5.336
		},
		{
			"dt": "2020-04-09T10:41:02.618Z",
			"val": 5.447
		},
		{
			"dt": "2020-04-09T10:42:42.618Z",
			"val": 5.418
		},
		{
			"dt": "2020-04-09T10:44:22.618Z",
			"val": 6.023
		},
		{
			"dt": "2020-04-09T10:46:02.618Z",
			"val": 6.621
		},
		{
			"dt": "2020-04-09T10:47:42.618Z",
			"val": 6.374
		}
	],
	"Sulfuric_Acid_Shop.T2_tt": [
		{
			"dt": "2020-04-09T09:46:02.618Z",
			"val": 5.207
		},
		{
			"dt": "2020-04-09T09:47:42.618Z",
			"val": 4.936
		},
		{
			"dt": "2020-04-09T09:49:22.618Z",
			"val": 5.302
		},
		{
			"dt": "2020-04-09T09:51:02.618Z",
			"val": 5.844
		},
		{
			"dt": "2020-04-09T09:52:42.618Z",
			"val": 5.459
		},
		{
			"dt": "2020-04-09T09:54:22.618Z",
			"val": 5.617
		},
		{
			"dt": "2020-04-09T09:56:02.618Z",
			"val": 5.699
		},
		{
			"dt": "2020-04-09T09:57:42.618Z",
			"val": 5.454
		},
		{
			"dt": "2020-04-09T09:59:22.618Z",
			"val": 6.052
		},
		{
			"dt": "2020-04-09T10:01:02.618Z",
			"val": 5.913
		},
		{
			"dt": "2020-04-09T10:02:42.618Z",
			"val": 6.476
		},
		{
			"dt": "2020-04-09T10:04:22.618Z",
			"val": 6.425
		},
		{
			"dt": "2020-04-09T10:06:02.618Z",
			"val": 7.321
		},
		{
			"dt": "2020-04-09T10:07:42.618Z",
			"val": 6.372
		},
		{
			"dt": "2020-04-09T10:09:22.618Z",
			"val": 6.394
		},
		{
			"dt": "2020-04-09T10:11:02.618Z",
			"val": 7.143
		},
		{
			"dt": "2020-04-09T10:12:42.618Z",
			"val": 6.534
		},
		{
			"dt": "2020-04-09T10:14:22.618Z",
			"val": 6.127
		},
		{
			"dt": "2020-04-09T10:16:02.618Z",
			"val": 5.929
		},
		{
			"dt": "2020-04-09T10:17:42.618Z",
			"val": 5.642
		},
		{
			"dt": "2020-04-09T10:19:22.618Z",
			"val": 5.588
		},
		{
			"dt": "2020-04-09T10:21:02.618Z",
			"val": 6.295
		},
		{
			"dt": "2020-04-09T10:22:42.618Z",
			"val": 6.125
		},
		{
			"dt": "2020-04-09T10:24:22.618Z",
			"val": 6.515
		},
		{
			"dt": "2020-04-09T10:26:02.618Z",
			"val": 6.956
		},
		{
			"dt": "2020-04-09T10:27:42.618Z",
			"val": 7.258
		},
		{
			"dt": "2020-04-09T10:29:22.618Z",
			"val": 7.806
		},
		{
			"dt": "2020-04-09T10:31:02.618Z",
			"val": 8.591
		},
		{
			"dt": "2020-04-09T10:32:42.618Z",
			"val": 9.13
		},
		{
			"dt": "2020-04-09T10:34:22.618Z",
			"val": 9.373
		},
		{
			"dt": "2020-04-09T10:36:02.618Z",
			"val": 9.316
		},
		{
			"dt": "2020-04-09T10:37:42.618Z",
			"val": 9.468
		},
		{
			"dt": "2020-04-09T10:39:22.618Z",
			"val": 9.967
		},
		{
			"dt": "2020-04-09T10:41:02.618Z",
			"val": 9.246
		},
		{
			"dt": "2020-04-09T10:42:42.618Z",
			"val": 8.298
		},
		{
			"dt": "2020-04-09T10:44:22.618Z",
			"val": 9.014
		},
		{
			"dt": "2020-04-09T10:46:02.618Z",
			"val": 9.448
		},
		{
			"dt": "2020-04-09T10:47:42.618Z",
			"val": 8.684
		}
	],
	"Sulfuric_Acid_Shop.Vmng": [
		{
			"dt": "2020-04-09T09:46:02.618Z",
			"val": 8.133
		},
		{
			"dt": "2020-04-09T09:47:42.618Z",
			"val": 9.054
		},
		{
			"dt": "2020-04-09T09:49:22.618Z",
			"val": 9.327
		},
		{
			"dt": "2020-04-09T09:51:02.618Z",
			"val": 10.122
		},
		{
			"dt": "2020-04-09T09:52:42.618Z",
			"val": 9.589
		},
		{
			"dt": "2020-04-09T09:54:22.618Z",
			"val": 9.898
		},
		{
			"dt": "2020-04-09T09:56:02.618Z",
			"val": 9.854
		},
		{
			"dt": "2020-04-09T09:57:42.618Z",
			"val": 10.533
		},
		{
			"dt": "2020-04-09T09:59:22.618Z",
			"val": 10.188
		},
		{
			"dt": "2020-04-09T10:01:02.618Z",
			"val": 10.553
		},
		{
			"dt": "2020-04-09T10:02:42.618Z",
			"val": 9.869
		},
		{
			"dt": "2020-04-09T10:04:22.618Z",
			"val": 9.888
		},
		{
			"dt": "2020-04-09T10:06:02.618Z",
			"val": 9.282
		},
		{
			"dt": "2020-04-09T10:07:42.618Z",
			"val": 9.803
		},
		{
			"dt": "2020-04-09T10:09:22.618Z",
			"val": 9.837
		},
		{
			"dt": "2020-04-09T10:11:02.618Z",
			"val": 9.508
		},
		{
			"dt": "2020-04-09T10:12:42.618Z",
			"val": 9.824
		},
		{
			"dt": "2020-04-09T10:14:22.618Z",
			"val": 9.403
		},
		{
			"dt": "2020-04-09T10:16:02.618Z",
			"val": 9.31
		},
		{
			"dt": "2020-04-09T10:17:42.618Z",
			"val": 9.142
		},
		{
			"dt": "2020-04-09T10:19:22.618Z",
			"val": 9.928
		},
		{
			"dt": "2020-04-09T10:21:02.618Z",
			"val": 9.46
		},
		{
			"dt": "2020-04-09T10:22:42.618Z",
			"val": 9.069
		},
		{
			"dt": "2020-04-09T10:24:22.618Z",
			"val": 8.763
		},
		{
			"dt": "2020-04-09T10:26:02.618Z",
			"val": 9.479
		},
		{
			"dt": "2020-04-09T10:27:42.618Z",
			"val": 8.922
		},
		{
			"dt": "2020-04-09T10:29:22.618Z",
			"val": 9.465
		},
		{
			"dt": "2020-04-09T10:31:02.618Z",
			"val": 9.983
		},
		{
			"dt": "2020-04-09T10:32:42.618Z",
			"val": 9.49
		},
		{
			"dt": "2020-04-09T10:34:22.618Z",
			"val": 10.026
		},
		{
			"dt": "2020-04-09T10:36:02.618Z",
			"val": 9.833
		},
		{
			"dt": "2020-04-09T10:37:42.618Z",
			"val": 9.543
		},
		{
			"dt": "2020-04-09T10:39:22.618Z",
			"val": 10.376
		},
		{
			"dt": "2020-04-09T10:41:02.618Z",
			"val": 9.676
		},
		{
			"dt": "2020-04-09T10:42:42.618Z",
			"val": 10.255
		},
		{
			"dt": "2020-04-09T10:44:22.618Z",
			"val": 10.778
		},
		{
			"dt": "2020-04-09T10:46:02.618Z",
			"val": 11.539
		},
		{
			"dt": "2020-04-09T10:47:42.618Z",
			"val": 10.935
		}
	],
	"Sulfuric_Acid_Shop.Vmng2": [
		{
			"dt": "2020-04-09T09:46:02.618Z",
			"val": 0.344
		},
		{
			"dt": "2020-04-09T09:47:42.618Z",
			"val": 0.388
		},
		{
			"dt": "2020-04-09T09:49:22.618Z",
			"val": 1.057
		},
		{
			"dt": "2020-04-09T09:51:02.618Z",
			"val": 1.343
		},
		{
			"dt": "2020-04-09T09:52:42.618Z",
			"val": 0.372
		},
		{
			"dt": "2020-04-09T09:54:22.618Z",
			"val": 0.774
		},
		{
			"dt": "2020-04-09T09:56:02.618Z",
			"val": 0.079
		},
		{
			"dt": "2020-04-09T09:57:42.618Z",
			"val": 0.351
		},
		{
			"dt": "2020-04-09T09:59:22.618Z",
			"val": 0.693
		},
		{
			"dt": "2020-04-09T10:01:02.618Z",
			"val": 0.143
		},
		{
			"dt": "2020-04-09T10:02:42.618Z",
			"val": 1.127
		},
		{
			"dt": "2020-04-09T10:04:22.618Z",
			"val": 1.741
		},
		{
			"dt": "2020-04-09T10:06:02.618Z",
			"val": 2.658
		},
		{
			"dt": "2020-04-09T10:07:42.618Z",
			"val": 2.283
		},
		{
			"dt": "2020-04-09T10:09:22.618Z",
			"val": 3.081
		},
		{
			"dt": "2020-04-09T10:11:02.618Z",
			"val": 2.97
		},
		{
			"dt": "2020-04-09T10:12:42.618Z",
			"val": 3.24
		},
		{
			"dt": "2020-04-09T10:14:22.618Z",
			"val": 3.83
		},
		{
			"dt": "2020-04-09T10:16:02.618Z",
			"val": 4.277
		},
		{
			"dt": "2020-04-09T10:17:42.618Z",
			"val": 5.238
		},
		{
			"dt": "2020-04-09T10:19:22.618Z",
			"val": 5.269
		},
		{
			"dt": "2020-04-09T10:21:02.618Z",
			"val": 4.635
		},
		{
			"dt": "2020-04-09T10:22:42.618Z",
			"val": 4.017
		},
		{
			"dt": "2020-04-09T10:24:22.618Z",
			"val": 4.736
		},
		{
			"dt": "2020-04-09T10:26:02.618Z",
			"val": 4.288
		},
		{
			"dt": "2020-04-09T10:27:42.618Z",
			"val": 4.93
		},
		{
			"dt": "2020-04-09T10:29:22.618Z",
			"val": 4.522
		},
		{
			"dt": "2020-04-09T10:31:02.618Z",
			"val": 4.282
		},
		{
			"dt": "2020-04-09T10:32:42.618Z",
			"val": 3.975
		},
		{
			"dt": "2020-04-09T10:34:22.618Z",
			"val": 3.596
		},
		{
			"dt": "2020-04-09T10:36:02.618Z",
			"val": 4.032
		},
		{
			"dt": "2020-04-09T10:37:42.618Z",
			"val": 4.695
		},
		{
			"dt": "2020-04-09T10:39:22.618Z",
			"val": 4.669
		},
		{
			"dt": "2020-04-09T10:41:02.618Z",
			"val": 4.579
		},
		{
			"dt": "2020-04-09T10:42:42.618Z",
			"val": 4.765
		},
		{
			"dt": "2020-04-09T10:44:22.618Z",
			"val": 5.045
		},
		{
			"dt": "2020-04-09T10:46:02.618Z",
			"val": 4.876
		},
		{
			"dt": "2020-04-09T10:47:42.618Z",
			"val": 5.631
		}
	],
	"Waelz_Shop.RVO": [
		{
			"dt": "2020-04-09T09:46:02.618Z",
			"val": 0.808
		},
		{
			"dt": "2020-04-09T09:47:42.618Z",
			"val": 0.625
		},
		{
			"dt": "2020-04-09T09:49:22.618Z",
			"val": 1.178
		},
		{
			"dt": "2020-04-09T09:51:02.618Z",
			"val": 0.336
		},
		{
			"dt": "2020-04-09T09:52:42.618Z",
			"val": 0.5
		},
		{
			"dt": "2020-04-09T09:54:22.618Z",
			"val": 0.549
		},
		{
			"dt": "2020-04-09T09:56:02.618Z",
			"val": 0.49
		},
		{
			"dt": "2020-04-09T09:57:42.618Z",
			"val": 0.157
		},
		{
			"dt": "2020-04-09T09:59:22.618Z",
			"val": 0.439
		},
		{
			"dt": "2020-04-09T10:01:02.618Z",
			"val": 0.754
		},
		{
			"dt": "2020-04-09T10:02:42.618Z",
			"val": 0.09
		},
		{
			"dt": "2020-04-09T10:04:22.618Z",
			"val": 0.892
		},
		{
			"dt": "2020-04-09T10:06:02.618Z",
			"val": 1.196
		},
		{
			"dt": "2020-04-09T10:07:42.618Z",
			"val": 0.982
		},
		{
			"dt": "2020-04-09T10:09:22.618Z",
			"val": 1.069
		},
		{
			"dt": "2020-04-09T10:11:02.618Z",
			"val": 1.695
		},
		{
			"dt": "2020-04-09T10:12:42.618Z",
			"val": 2.598
		},
		{
			"dt": "2020-04-09T10:14:22.618Z",
			"val": 2.148
		},
		{
			"dt": "2020-04-09T10:16:02.618Z",
			"val": 2.677
		},
		{
			"dt": "2020-04-09T10:17:42.618Z",
			"val": 2.811
		},
		{
			"dt": "2020-04-09T10:19:22.618Z",
			"val": 3.399
		},
		{
			"dt": "2020-04-09T10:21:02.618Z",
			"val": 2.602
		},
		{
			"dt": "2020-04-09T10:22:42.618Z",
			"val": 2.431
		},
		{
			"dt": "2020-04-09T10:24:22.618Z",
			"val": 3.171
		},
		{
			"dt": "2020-04-09T10:26:02.618Z",
			"val": 3.566
		},
		{
			"dt": "2020-04-09T10:27:42.618Z",
			"val": 3.261
		},
		{
			"dt": "2020-04-09T10:29:22.618Z",
			"val": 2.992
		},
		{
			"dt": "2020-04-09T10:31:02.618Z",
			"val": 3.925
		},
		{
			"dt": "2020-04-09T10:32:42.618Z",
			"val": 4.543
		},
		{
			"dt": "2020-04-09T10:34:22.618Z",
			"val": 4.196
		},
		{
			"dt": "2020-04-09T10:36:02.618Z",
			"val": 3.777
		},
		{
			"dt": "2020-04-09T10:37:42.618Z",
			"val": 3.736
		},
		{
			"dt": "2020-04-09T10:39:22.618Z",
			"val": 3.88
		},
		{
			"dt": "2020-04-09T10:41:02.618Z",
			"val": 4.747
		},
		{
			"dt": "2020-04-09T10:42:42.618Z",
			"val": 4.38
		},
		{
			"dt": "2020-04-09T10:44:22.618Z",
			"val": 5.072
		},
		{
			"dt": "2020-04-09T10:46:02.618Z",
			"val": 5.365
		},
		{
			"dt": "2020-04-09T10:47:42.618Z",
			"val": 4.783
		}
	],
	"Waelz_Shop.Kr26": [
		{
			"dt": "2020-04-09T09:46:02.618Z",
			"val": 6.008
		},
		{
			"dt": "2020-04-09T09:47:42.618Z",
			"val": 6.369
		},
		{
			"dt": "2020-04-09T09:49:22.618Z",
			"val": 5.647
		},
		{
			"dt": "2020-04-09T09:51:02.618Z",
			"val": 5.447
		},
		{
			"dt": "2020-04-09T09:52:42.618Z",
			"val": 6.221
		},
		{
			"dt": "2020-04-09T09:54:22.618Z",
			"val": 6.523
		},
		{
			"dt": "2020-04-09T09:56:02.618Z",
			"val": 7.448
		},
		{
			"dt": "2020-04-09T09:57:42.618Z",
			"val": 8
		},
		{
			"dt": "2020-04-09T09:59:22.618Z",
			"val": 8.467
		},
		{
			"dt": "2020-04-09T10:01:02.618Z",
			"val": 9.207
		},
		{
			"dt": "2020-04-09T10:02:42.618Z",
			"val": 9.778
		},
		{
			"dt": "2020-04-09T10:04:22.618Z",
			"val": 9.635
		},
		{
			"dt": "2020-04-09T10:06:02.618Z",
			"val": 9.767
		},
		{
			"dt": "2020-04-09T10:07:42.618Z",
			"val": 9.621
		},
		{
			"dt": "2020-04-09T10:09:22.618Z",
			"val": 10.055
		},
		{
			"dt": "2020-04-09T10:11:02.618Z",
			"val": 9.108
		},
		{
			"dt": "2020-04-09T10:12:42.618Z",
			"val": 9.218
		},
		{
			"dt": "2020-04-09T10:14:22.618Z",
			"val": 10.104
		},
		{
			"dt": "2020-04-09T10:16:02.618Z",
			"val": 10.307
		},
		{
			"dt": "2020-04-09T10:17:42.618Z",
			"val": 11.3
		},
		{
			"dt": "2020-04-09T10:19:22.618Z",
			"val": 12.117
		},
		{
			"dt": "2020-04-09T10:21:02.618Z",
			"val": 11.804
		},
		{
			"dt": "2020-04-09T10:22:42.618Z",
			"val": 11.348
		},
		{
			"dt": "2020-04-09T10:24:22.618Z",
			"val": 10.426
		},
		{
			"dt": "2020-04-09T10:26:02.618Z",
			"val": 10.967
		},
		{
			"dt": "2020-04-09T10:27:42.618Z",
			"val": 11.753
		},
		{
			"dt": "2020-04-09T10:29:22.618Z",
			"val": 11.176
		},
		{
			"dt": "2020-04-09T10:31:02.618Z",
			"val": 10.955
		},
		{
			"dt": "2020-04-09T10:32:42.618Z",
			"val": 11.942
		},
		{
			"dt": "2020-04-09T10:34:22.618Z",
			"val": 11.53
		},
		{
			"dt": "2020-04-09T10:36:02.618Z",
			"val": 11.616
		},
		{
			"dt": "2020-04-09T10:37:42.618Z",
			"val": 11.423
		},
		{
			"dt": "2020-04-09T10:39:22.618Z",
			"val": 11.012
		},
		{
			"dt": "2020-04-09T10:41:02.618Z",
			"val": 11.616
		},
		{
			"dt": "2020-04-09T10:42:42.618Z",
			"val": 12.349
		},
		{
			"dt": "2020-04-09T10:44:22.618Z",
			"val": 11.989
		},
		{
			"dt": "2020-04-09T10:46:02.618Z",
			"val": 12.567
		},
		{
			"dt": "2020-04-09T10:47:42.618Z",
			"val": 12.419
		}
	],
	"Waelz_Shop.Kr27": [
		{
			"dt": "2020-04-09T09:46:02.618Z",
			"val": 8.114
		},
		{
			"dt": "2020-04-09T09:47:42.618Z",
			"val": 7.633
		},
		{
			"dt": "2020-04-09T09:49:22.618Z",
			"val": 7.709
		},
		{
			"dt": "2020-04-09T09:51:02.618Z",
			"val": 7.477
		},
		{
			"dt": "2020-04-09T09:52:42.618Z",
			"val": 7.245
		},
		{
			"dt": "2020-04-09T09:54:22.618Z",
			"val": 6.684
		},
		{
			"dt": "2020-04-09T09:56:02.618Z",
			"val": 6.406
		},
		{
			"dt": "2020-04-09T09:57:42.618Z",
			"val": 7.001
		},
		{
			"dt": "2020-04-09T09:59:22.618Z",
			"val": 6.547
		},
		{
			"dt": "2020-04-09T10:01:02.618Z",
			"val": 6.928
		},
		{
			"dt": "2020-04-09T10:02:42.618Z",
			"val": 6.993
		},
		{
			"dt": "2020-04-09T10:04:22.618Z",
			"val": 6.938
		},
		{
			"dt": "2020-04-09T10:06:02.618Z",
			"val": 5.951
		},
		{
			"dt": "2020-04-09T10:07:42.618Z",
			"val": 6.607
		},
		{
			"dt": "2020-04-09T10:09:22.618Z",
			"val": 6.937
		},
		{
			"dt": "2020-04-09T10:11:02.618Z",
			"val": 6.404
		},
		{
			"dt": "2020-04-09T10:12:42.618Z",
			"val": 7.028
		},
		{
			"dt": "2020-04-09T10:14:22.618Z",
			"val": 7.697
		},
		{
			"dt": "2020-04-09T10:16:02.618Z",
			"val": 7.945
		},
		{
			"dt": "2020-04-09T10:17:42.618Z",
			"val": 7.754
		},
		{
			"dt": "2020-04-09T10:19:22.618Z",
			"val": 7.812
		},
		{
			"dt": "2020-04-09T10:21:02.618Z",
			"val": 7.147
		},
		{
			"dt": "2020-04-09T10:22:42.618Z",
			"val": 7.003
		},
		{
			"dt": "2020-04-09T10:24:22.618Z",
			"val": 6.045
		},
		{
			"dt": "2020-04-09T10:26:02.618Z",
			"val": 6.437
		},
		{
			"dt": "2020-04-09T10:27:42.618Z",
			"val": 7.144
		},
		{
			"dt": "2020-04-09T10:29:22.618Z",
			"val": 6.344
		},
		{
			"dt": "2020-04-09T10:31:02.618Z",
			"val": 6.544
		},
		{
			"dt": "2020-04-09T10:32:42.618Z",
			"val": 6.759
		},
		{
			"dt": "2020-04-09T10:34:22.618Z",
			"val": 7.445
		},
		{
			"dt": "2020-04-09T10:36:02.618Z",
			"val": 8.188
		},
		{
			"dt": "2020-04-09T10:37:42.618Z",
			"val": 8.162
		},
		{
			"dt": "2020-04-09T10:39:22.618Z",
			"val": 9.017
		},
		{
			"dt": "2020-04-09T10:41:02.618Z",
			"val": 9.194
		},
		{
			"dt": "2020-04-09T10:42:42.618Z",
			"val": 8.355
		},
		{
			"dt": "2020-04-09T10:44:22.618Z",
			"val": 7.587
		},
		{
			"dt": "2020-04-09T10:46:02.618Z",
			"val": 6.687
		},
		{
			"dt": "2020-04-09T10:47:42.618Z",
			"val": 7.11
		}
	],
	"Waelz_Shop.Kr36": [
		{
			"dt": "2020-04-09T09:46:02.618Z",
			"val": 8.977
		},
		{
			"dt": "2020-04-09T09:47:42.618Z",
			"val": 8.138
		},
		{
			"dt": "2020-04-09T09:49:22.618Z",
			"val": 8.069
		},
		{
			"dt": "2020-04-09T09:51:02.618Z",
			"val": 7.738
		},
		{
			"dt": "2020-04-09T09:52:42.618Z",
			"val": 6.963
		},
		{
			"dt": "2020-04-09T09:54:22.618Z",
			"val": 7.159
		},
		{
			"dt": "2020-04-09T09:56:02.618Z",
			"val": 7.285
		},
		{
			"dt": "2020-04-09T09:57:42.618Z",
			"val": 7.417
		},
		{
			"dt": "2020-04-09T09:59:22.618Z",
			"val": 6.85
		},
		{
			"dt": "2020-04-09T10:01:02.618Z",
			"val": 6.199
		},
		{
			"dt": "2020-04-09T10:02:42.618Z",
			"val": 5.268
		},
		{
			"dt": "2020-04-09T10:04:22.618Z",
			"val": 4.455
		},
		{
			"dt": "2020-04-09T10:06:02.618Z",
			"val": 4.304
		},
		{
			"dt": "2020-04-09T10:07:42.618Z",
			"val": 5.038
		},
		{
			"dt": "2020-04-09T10:09:22.618Z",
			"val": 4.215
		},
		{
			"dt": "2020-04-09T10:11:02.618Z",
			"val": 3.258
		},
		{
			"dt": "2020-04-09T10:12:42.618Z",
			"val": 2.932
		},
		{
			"dt": "2020-04-09T10:14:22.618Z",
			"val": 2.522
		},
		{
			"dt": "2020-04-09T10:16:02.618Z",
			"val": 3.488
		},
		{
			"dt": "2020-04-09T10:17:42.618Z",
			"val": 3.483
		},
		{
			"dt": "2020-04-09T10:19:22.618Z",
			"val": 3.783
		},
		{
			"dt": "2020-04-09T10:21:02.618Z",
			"val": 3.605
		},
		{
			"dt": "2020-04-09T10:22:42.618Z",
			"val": 4.121
		},
		{
			"dt": "2020-04-09T10:24:22.618Z",
			"val": 3.222
		},
		{
			"dt": "2020-04-09T10:26:02.618Z",
			"val": 4.115
		},
		{
			"dt": "2020-04-09T10:27:42.618Z",
			"val": 4.105
		},
		{
			"dt": "2020-04-09T10:29:22.618Z",
			"val": 4.486
		},
		{
			"dt": "2020-04-09T10:31:02.618Z",
			"val": 4.743
		},
		{
			"dt": "2020-04-09T10:32:42.618Z",
			"val": 4.068
		},
		{
			"dt": "2020-04-09T10:34:22.618Z",
			"val": 3.134
		},
		{
			"dt": "2020-04-09T10:36:02.618Z",
			"val": 2.882
		},
		{
			"dt": "2020-04-09T10:37:42.618Z",
			"val": 2.87
		},
		{
			"dt": "2020-04-09T10:39:22.618Z",
			"val": 3.698
		},
		{
			"dt": "2020-04-09T10:41:02.618Z",
			"val": 3.092
		},
		{
			"dt": "2020-04-09T10:42:42.618Z",
			"val": 3.187
		},
		{
			"dt": "2020-04-09T10:44:22.618Z",
			"val": 4.089
		},
		{
			"dt": "2020-04-09T10:46:02.618Z",
			"val": 3.802
		},
		{
			"dt": "2020-04-09T10:47:42.618Z",
			"val": 4.006
		}
	],
	"Leaching_Shop.OE": [
		{
			"dt": "2020-04-09T09:46:02.618Z",
			"val": 9.653
		},
		{
			"dt": "2020-04-09T09:47:42.618Z",
			"val": 9.051
		},
		{
			"dt": "2020-04-09T09:49:22.618Z",
			"val": 8.162
		},
		{
			"dt": "2020-04-09T09:51:02.618Z",
			"val": 7.254
		},
		{
			"dt": "2020-04-09T09:52:42.618Z",
			"val": 7.427
		},
		{
			"dt": "2020-04-09T09:54:22.618Z",
			"val": 7.532
		},
		{
			"dt": "2020-04-09T09:56:02.618Z",
			"val": 7.018
		},
		{
			"dt": "2020-04-09T09:57:42.618Z",
			"val": 6.048
		},
		{
			"dt": "2020-04-09T09:59:22.618Z",
			"val": 5.511
		},
		{
			"dt": "2020-04-09T10:01:02.618Z",
			"val": 5.99
		},
		{
			"dt": "2020-04-09T10:02:42.618Z",
			"val": 5.664
		},
		{
			"dt": "2020-04-09T10:04:22.618Z",
			"val": 4.726
		},
		{
			"dt": "2020-04-09T10:06:02.618Z",
			"val": 5.069
		},
		{
			"dt": "2020-04-09T10:07:42.618Z",
			"val": 4.43
		},
		{
			"dt": "2020-04-09T10:09:22.618Z",
			"val": 4.025
		},
		{
			"dt": "2020-04-09T10:11:02.618Z",
			"val": 4.713
		},
		{
			"dt": "2020-04-09T10:12:42.618Z",
			"val": 4.311
		},
		{
			"dt": "2020-04-09T10:14:22.618Z",
			"val": 4.709
		},
		{
			"dt": "2020-04-09T10:16:02.618Z",
			"val": 3.943
		},
		{
			"dt": "2020-04-09T10:17:42.618Z",
			"val": 3.107
		},
		{
			"dt": "2020-04-09T10:19:22.618Z",
			"val": 2.931
		},
		{
			"dt": "2020-04-09T10:21:02.618Z",
			"val": 3.729
		},
		{
			"dt": "2020-04-09T10:22:42.618Z",
			"val": 3.815
		},
		{
			"dt": "2020-04-09T10:24:22.618Z",
			"val": 4.779
		},
		{
			"dt": "2020-04-09T10:26:02.618Z",
			"val": 3.9
		},
		{
			"dt": "2020-04-09T10:27:42.618Z",
			"val": 3.119
		},
		{
			"dt": "2020-04-09T10:29:22.618Z",
			"val": 2.757
		},
		{
			"dt": "2020-04-09T10:31:02.618Z",
			"val": 2.476
		},
		{
			"dt": "2020-04-09T10:32:42.618Z",
			"val": 3.289
		},
		{
			"dt": "2020-04-09T10:34:22.618Z",
			"val": 4.039
		},
		{
			"dt": "2020-04-09T10:36:02.618Z",
			"val": 3.191
		},
		{
			"dt": "2020-04-09T10:37:42.618Z",
			"val": 2.698
		},
		{
			"dt": "2020-04-09T10:39:22.618Z",
			"val": 3.451
		},
		{
			"dt": "2020-04-09T10:41:02.618Z",
			"val": 4.188
		},
		{
			"dt": "2020-04-09T10:42:42.618Z",
			"val": 4.387
		},
		{
			"dt": "2020-04-09T10:44:22.618Z",
			"val": 5.297
		},
		{
			"dt": "2020-04-09T10:46:02.618Z",
			"val": 5.995
		},
		{
			"dt": "2020-04-09T10:47:42.618Z",
			"val": 6.233
		}
	],
	"Zinc_Electrolysis_Shop.R_after-510A": [
		{
			"dt": "2020-04-09T09:46:02.618Z",
			"val": 8.2
		},
		{
			"dt": "2020-04-09T09:47:42.618Z",
			"val": 7.574
		},
		{
			"dt": "2020-04-09T09:49:22.618Z",
			"val": 8.549
		},
		{
			"dt": "2020-04-09T09:51:02.618Z",
			"val": 8.202
		},
		{
			"dt": "2020-04-09T09:52:42.618Z",
			"val": 8.061
		},
		{
			"dt": "2020-04-09T09:54:22.618Z",
			"val": 8.275
		},
		{
			"dt": "2020-04-09T09:56:02.618Z",
			"val": 9.229
		},
		{
			"dt": "2020-04-09T09:57:42.618Z",
			"val": 8.847
		},
		{
			"dt": "2020-04-09T09:59:22.618Z",
			"val": 9.024
		},
		{
			"dt": "2020-04-09T10:01:02.618Z",
			"val": 9.443
		},
		{
			"dt": "2020-04-09T10:02:42.618Z",
			"val": 9.517
		},
		{
			"dt": "2020-04-09T10:04:22.618Z",
			"val": 8.734
		},
		{
			"dt": "2020-04-09T10:06:02.618Z",
			"val": 9.614
		},
		{
			"dt": "2020-04-09T10:07:42.618Z",
			"val": 8.912
		},
		{
			"dt": "2020-04-09T10:09:22.618Z",
			"val": 8.036
		},
		{
			"dt": "2020-04-09T10:11:02.618Z",
			"val": 7.393
		},
		{
			"dt": "2020-04-09T10:12:42.618Z",
			"val": 6.453
		},
		{
			"dt": "2020-04-09T10:14:22.618Z",
			"val": 7.117
		},
		{
			"dt": "2020-04-09T10:16:02.618Z",
			"val": 7.547
		},
		{
			"dt": "2020-04-09T10:17:42.618Z",
			"val": 7.633
		},
		{
			"dt": "2020-04-09T10:19:22.618Z",
			"val": 7.233
		},
		{
			"dt": "2020-04-09T10:21:02.618Z",
			"val": 6.428
		},
		{
			"dt": "2020-04-09T10:22:42.618Z",
			"val": 5.521
		},
		{
			"dt": "2020-04-09T10:24:22.618Z",
			"val": 5.42
		},
		{
			"dt": "2020-04-09T10:26:02.618Z",
			"val": 5.139
		},
		{
			"dt": "2020-04-09T10:27:42.618Z",
			"val": 4.783
		},
		{
			"dt": "2020-04-09T10:29:22.618Z",
			"val": 4.524
		},
		{
			"dt": "2020-04-09T10:31:02.618Z",
			"val": 3.688
		},
		{
			"dt": "2020-04-09T10:32:42.618Z",
			"val": 3.904
		},
		{
			"dt": "2020-04-09T10:34:22.618Z",
			"val": 3.996
		},
		{
			"dt": "2020-04-09T10:36:02.618Z",
			"val": 3.921
		},
		{
			"dt": "2020-04-09T10:37:42.618Z",
			"val": 3.91
		},
		{
			"dt": "2020-04-09T10:39:22.618Z",
			"val": 3.79
		},
		{
			"dt": "2020-04-09T10:41:02.618Z",
			"val": 3.459
		},
		{
			"dt": "2020-04-09T10:42:42.618Z",
			"val": 3.352
		},
		{
			"dt": "2020-04-09T10:44:22.618Z",
			"val": 3.765
		},
		{
			"dt": "2020-04-09T10:46:02.618Z",
			"val": 3.286
		},
		{
			"dt": "2020-04-09T10:47:42.618Z",
			"val": 3.051
		}
	],
	"Zinc_Electrolysis_Shop.R_after-510B": [
		{
			"dt": "2020-04-09T09:46:02.618Z",
			"val": 5.302
		},
		{
			"dt": "2020-04-09T09:47:42.618Z",
			"val": 5.74
		},
		{
			"dt": "2020-04-09T09:49:22.618Z",
			"val": 4.869
		},
		{
			"dt": "2020-04-09T09:51:02.618Z",
			"val": 4.281
		},
		{
			"dt": "2020-04-09T09:52:42.618Z",
			"val": 4.251
		},
		{
			"dt": "2020-04-09T09:54:22.618Z",
			"val": 4.265
		},
		{
			"dt": "2020-04-09T09:56:02.618Z",
			"val": 3.487
		},
		{
			"dt": "2020-04-09T09:57:42.618Z",
			"val": 2.89
		},
		{
			"dt": "2020-04-09T09:59:22.618Z",
			"val": 3.647
		},
		{
			"dt": "2020-04-09T10:01:02.618Z",
			"val": 4.017
		},
		{
			"dt": "2020-04-09T10:02:42.618Z",
			"val": 3.12
		},
		{
			"dt": "2020-04-09T10:04:22.618Z",
			"val": 3.499
		},
		{
			"dt": "2020-04-09T10:06:02.618Z",
			"val": 4.147
		},
		{
			"dt": "2020-04-09T10:07:42.618Z",
			"val": 3.75
		},
		{
			"dt": "2020-04-09T10:09:22.618Z",
			"val": 4.073
		},
		{
			"dt": "2020-04-09T10:11:02.618Z",
			"val": 3.747
		},
		{
			"dt": "2020-04-09T10:12:42.618Z",
			"val": 4.66
		},
		{
			"dt": "2020-04-09T10:14:22.618Z",
			"val": 3.867
		},
		{
			"dt": "2020-04-09T10:16:02.618Z",
			"val": 3.504
		},
		{
			"dt": "2020-04-09T10:17:42.618Z",
			"val": 3.458
		},
		{
			"dt": "2020-04-09T10:19:22.618Z",
			"val": 4.354
		},
		{
			"dt": "2020-04-09T10:21:02.618Z",
			"val": 4.169
		},
		{
			"dt": "2020-04-09T10:22:42.618Z",
			"val": 4.959
		},
		{
			"dt": "2020-04-09T10:24:22.618Z",
			"val": 4.849
		},
		{
			"dt": "2020-04-09T10:26:02.618Z",
			"val": 5.642
		},
		{
			"dt": "2020-04-09T10:27:42.618Z",
			"val": 6.068
		},
		{
			"dt": "2020-04-09T10:29:22.618Z",
			"val": 6.551
		},
		{
			"dt": "2020-04-09T10:31:02.618Z",
			"val": 6.357
		},
		{
			"dt": "2020-04-09T10:32:42.618Z",
			"val": 6.482
		},
		{
			"dt": "2020-04-09T10:34:22.618Z",
			"val": 6.945
		},
		{
			"dt": "2020-04-09T10:36:02.618Z",
			"val": 7.276
		},
		{
			"dt": "2020-04-09T10:37:42.618Z",
			"val": 7.037
		},
		{
			"dt": "2020-04-09T10:39:22.618Z",
			"val": 7.938
		},
		{
			"dt": "2020-04-09T10:41:02.618Z",
			"val": 8.83
		},
		{
			"dt": "2020-04-09T10:42:42.618Z",
			"val": 9.614
		},
		{
			"dt": "2020-04-09T10:44:22.618Z",
			"val": 10.282
		},
		{
			"dt": "2020-04-09T10:46:02.618Z",
			"val": 9.929
		},
		{
			"dt": "2020-04-09T10:47:42.618Z",
			"val": 10.378
		}
	],
	"Zinc_Electrolysis_Shop.R_after-703А-B": [
		{
			"dt": "2020-04-09T09:46:02.618Z",
			"val": 5.419
		},
		{
			"dt": "2020-04-09T09:47:42.618Z",
			"val": 4.835
		},
		{
			"dt": "2020-04-09T09:49:22.618Z",
			"val": 5.509
		},
		{
			"dt": "2020-04-09T09:51:02.618Z",
			"val": 5.833
		},
		{
			"dt": "2020-04-09T09:52:42.618Z",
			"val": 4.978
		},
		{
			"dt": "2020-04-09T09:54:22.618Z",
			"val": 4.244
		},
		{
			"dt": "2020-04-09T09:56:02.618Z",
			"val": 5.187
		},
		{
			"dt": "2020-04-09T09:57:42.618Z",
			"val": 6.002
		},
		{
			"dt": "2020-04-09T09:59:22.618Z",
			"val": 5.853
		},
		{
			"dt": "2020-04-09T10:01:02.618Z",
			"val": 6.532
		},
		{
			"dt": "2020-04-09T10:02:42.618Z",
			"val": 7.409
		},
		{
			"dt": "2020-04-09T10:04:22.618Z",
			"val": 7.044
		},
		{
			"dt": "2020-04-09T10:06:02.618Z",
			"val": 7.736
		},
		{
			"dt": "2020-04-09T10:07:42.618Z",
			"val": 6.745
		},
		{
			"dt": "2020-04-09T10:09:22.618Z",
			"val": 7.015
		},
		{
			"dt": "2020-04-09T10:11:02.618Z",
			"val": 6.254
		},
		{
			"dt": "2020-04-09T10:12:42.618Z",
			"val": 6.528
		},
		{
			"dt": "2020-04-09T10:14:22.618Z",
			"val": 6.889
		},
		{
			"dt": "2020-04-09T10:16:02.618Z",
			"val": 6.836
		},
		{
			"dt": "2020-04-09T10:17:42.618Z",
			"val": 6.764
		},
		{
			"dt": "2020-04-09T10:19:22.618Z",
			"val": 7.639
		},
		{
			"dt": "2020-04-09T10:21:02.618Z",
			"val": 7.179
		},
		{
			"dt": "2020-04-09T10:22:42.618Z",
			"val": 7.212
		},
		{
			"dt": "2020-04-09T10:24:22.618Z",
			"val": 7.534
		},
		{
			"dt": "2020-04-09T10:26:02.618Z",
			"val": 8.408
		},
		{
			"dt": "2020-04-09T10:27:42.618Z",
			"val": 8.978
		},
		{
			"dt": "2020-04-09T10:29:22.618Z",
			"val": 8.47
		},
		{
			"dt": "2020-04-09T10:31:02.618Z",
			"val": 8.396
		},
		{
			"dt": "2020-04-09T10:32:42.618Z",
			"val": 8.28
		},
		{
			"dt": "2020-04-09T10:34:22.618Z",
			"val": 8.131
		},
		{
			"dt": "2020-04-09T10:36:02.618Z",
			"val": 8.674
		},
		{
			"dt": "2020-04-09T10:37:42.618Z",
			"val": 8.759
		},
		{
			"dt": "2020-04-09T10:39:22.618Z",
			"val": 9.508
		},
		{
			"dt": "2020-04-09T10:41:02.618Z",
			"val": 9.46
		},
		{
			"dt": "2020-04-09T10:42:42.618Z",
			"val": 8.486
		},
		{
			"dt": "2020-04-09T10:44:22.618Z",
			"val": 8.356
		},
		{
			"dt": "2020-04-09T10:46:02.618Z",
			"val": 7.573
		},
		{
			"dt": "2020-04-09T10:47:42.618Z",
			"val": 6.967
		}
	],
	"Hydro_Metallurgical_Shop.Level_vcs_east": [
		{
			"dt": "2020-04-09T09:46:02.618Z",
			"val": 0.3
		},
		{
			"dt": "2020-04-09T09:47:42.618Z",
			"val": 0.378
		},
		{
			"dt": "2020-04-09T09:49:22.618Z",
			"val": 0.215
		},
		{
			"dt": "2020-04-09T09:51:02.618Z",
			"val": 1.102
		},
		{
			"dt": "2020-04-09T09:52:42.618Z",
			"val": 1.148
		},
		{
			"dt": "2020-04-09T09:54:22.618Z",
			"val": 0.845
		},
		{
			"dt": "2020-04-09T09:56:02.618Z",
			"val": 1.185
		},
		{
			"dt": "2020-04-09T09:57:42.618Z",
			"val": 1.245
		},
		{
			"dt": "2020-04-09T09:59:22.618Z",
			"val": 0.405
		},
		{
			"dt": "2020-04-09T10:01:02.618Z",
			"val": 0.384
		},
		{
			"dt": "2020-04-09T10:02:42.618Z",
			"val": 0.533
		},
		{
			"dt": "2020-04-09T10:04:22.618Z",
			"val": 0.257
		},
		{
			"dt": "2020-04-09T10:06:02.618Z",
			"val": 0.994
		},
		{
			"dt": "2020-04-09T10:07:42.618Z",
			"val": 1.631
		},
		{
			"dt": "2020-04-09T10:09:22.618Z",
			"val": 2.272
		},
		{
			"dt": "2020-04-09T10:11:02.618Z",
			"val": 2.26
		},
		{
			"dt": "2020-04-09T10:12:42.618Z",
			"val": 2.642
		},
		{
			"dt": "2020-04-09T10:14:22.618Z",
			"val": 3.578
		},
		{
			"dt": "2020-04-09T10:16:02.618Z",
			"val": 4.22
		},
		{
			"dt": "2020-04-09T10:17:42.618Z",
			"val": 4.673
		},
		{
			"dt": "2020-04-09T10:19:22.618Z",
			"val": 4.07
		},
		{
			"dt": "2020-04-09T10:21:02.618Z",
			"val": 3.137
		},
		{
			"dt": "2020-04-09T10:22:42.618Z",
			"val": 3.102
		},
		{
			"dt": "2020-04-09T10:24:22.618Z",
			"val": 2.697
		},
		{
			"dt": "2020-04-09T10:26:02.618Z",
			"val": 2.376
		},
		{
			"dt": "2020-04-09T10:27:42.618Z",
			"val": 2.027
		},
		{
			"dt": "2020-04-09T10:29:22.618Z",
			"val": 2.728
		},
		{
			"dt": "2020-04-09T10:31:02.618Z",
			"val": 3.608
		},
		{
			"dt": "2020-04-09T10:32:42.618Z",
			"val": 3.566
		},
		{
			"dt": "2020-04-09T10:34:22.618Z",
			"val": 4.01
		},
		{
			"dt": "2020-04-09T10:36:02.618Z",
			"val": 4.336
		},
		{
			"dt": "2020-04-09T10:37:42.618Z",
			"val": 4.84
		},
		{
			"dt": "2020-04-09T10:39:22.618Z",
			"val": 4.407
		},
		{
			"dt": "2020-04-09T10:41:02.618Z",
			"val": 4.683
		},
		{
			"dt": "2020-04-09T10:42:42.618Z",
			"val": 5.051
		},
		{
			"dt": "2020-04-09T10:44:22.618Z",
			"val": 5.283
		},
		{
			"dt": "2020-04-09T10:46:02.618Z",
			"val": 4.533
		},
		{
			"dt": "2020-04-09T10:47:42.618Z",
			"val": 4.302
		}
	],
	"Hydro_Metallurgical_Shop.Level_vcs_west": [
		{
			"dt": "2020-04-09T09:46:02.618Z",
			"val": 5.144
		},
		{
			"dt": "2020-04-09T09:47:42.618Z",
			"val": 5.88
		},
		{
			"dt": "2020-04-09T09:49:22.618Z",
			"val": 6.004
		},
		{
			"dt": "2020-04-09T09:51:02.618Z",
			"val": 5.201
		},
		{
			"dt": "2020-04-09T09:52:42.618Z",
			"val": 5.569
		},
		{
			"dt": "2020-04-09T09:54:22.618Z",
			"val": 5.589
		},
		{
			"dt": "2020-04-09T09:56:02.618Z",
			"val": 6.425
		},
		{
			"dt": "2020-04-09T09:57:42.618Z",
			"val": 6.061
		},
		{
			"dt": "2020-04-09T09:59:22.618Z",
			"val": 5.196
		},
		{
			"dt": "2020-04-09T10:01:02.618Z",
			"val": 5.687
		},
		{
			"dt": "2020-04-09T10:02:42.618Z",
			"val": 4.84
		},
		{
			"dt": "2020-04-09T10:04:22.618Z",
			"val": 4.959
		},
		{
			"dt": "2020-04-09T10:06:02.618Z",
			"val": 5.681
		},
		{
			"dt": "2020-04-09T10:07:42.618Z",
			"val": 6.458
		},
		{
			"dt": "2020-04-09T10:09:22.618Z",
			"val": 7.136
		},
		{
			"dt": "2020-04-09T10:11:02.618Z",
			"val": 6.253
		},
		{
			"dt": "2020-04-09T10:12:42.618Z",
			"val": 5.357
		},
		{
			"dt": "2020-04-09T10:14:22.618Z",
			"val": 5.809
		},
		{
			"dt": "2020-04-09T10:16:02.618Z",
			"val": 6.49
		},
		{
			"dt": "2020-04-09T10:17:42.618Z",
			"val": 7.114
		},
		{
			"dt": "2020-04-09T10:19:22.618Z",
			"val": 7.072
		},
		{
			"dt": "2020-04-09T10:21:02.618Z",
			"val": 8.068
		},
		{
			"dt": "2020-04-09T10:22:42.618Z",
			"val": 8.041
		},
		{
			"dt": "2020-04-09T10:24:22.618Z",
			"val": 7.592
		},
		{
			"dt": "2020-04-09T10:26:02.618Z",
			"val": 7.9
		},
		{
			"dt": "2020-04-09T10:27:42.618Z",
			"val": 7.627
		},
		{
			"dt": "2020-04-09T10:29:22.618Z",
			"val": 7.848
		},
		{
			"dt": "2020-04-09T10:31:02.618Z",
			"val": 8.014
		},
		{
			"dt": "2020-04-09T10:32:42.618Z",
			"val": 8.026
		},
		{
			"dt": "2020-04-09T10:34:22.618Z",
			"val": 8.038
		},
		{
			"dt": "2020-04-09T10:36:02.618Z",
			"val": 8.42
		},
		{
			"dt": "2020-04-09T10:37:42.618Z",
			"val": 7.98
		},
		{
			"dt": "2020-04-09T10:39:22.618Z",
			"val": 7.959
		},
		{
			"dt": "2020-04-09T10:41:02.618Z",
			"val": 6.984
		},
		{
			"dt": "2020-04-09T10:42:42.618Z",
			"val": 6.155
		},
		{
			"dt": "2020-04-09T10:44:22.618Z",
			"val": 5.377
		},
		{
			"dt": "2020-04-09T10:46:02.618Z",
			"val": 6.205
		},
		{
			"dt": "2020-04-09T10:47:42.618Z",
			"val": 6.129
		}
	],
	"Hydro_Metallurgical_Shop.Q_vss1_north": [
		{
			"dt": "2020-04-09T09:46:02.618Z",
			"val": 1.362
		},
		{
			"dt": "2020-04-09T09:47:42.618Z",
			"val": 0.639
		},
		{
			"dt": "2020-04-09T09:49:22.618Z",
			"val": 1.143
		},
		{
			"dt": "2020-04-09T09:51:02.618Z",
			"val": 1.718
		},
		{
			"dt": "2020-04-09T09:52:42.618Z",
			"val": 0.978
		},
		{
			"dt": "2020-04-09T09:54:22.618Z",
			"val": 1.044
		},
		{
			"dt": "2020-04-09T09:56:02.618Z",
			"val": 2.013
		},
		{
			"dt": "2020-04-09T09:57:42.618Z",
			"val": 2.187
		},
		{
			"dt": "2020-04-09T09:59:22.618Z",
			"val": 1.435
		},
		{
			"dt": "2020-04-09T10:01:02.618Z",
			"val": 2.167
		},
		{
			"dt": "2020-04-09T10:02:42.618Z",
			"val": 1.502
		},
		{
			"dt": "2020-04-09T10:04:22.618Z",
			"val": 1.31
		},
		{
			"dt": "2020-04-09T10:06:02.618Z",
			"val": 1.245
		},
		{
			"dt": "2020-04-09T10:07:42.618Z",
			"val": 2.025
		},
		{
			"dt": "2020-04-09T10:09:22.618Z",
			"val": 1.995
		},
		{
			"dt": "2020-04-09T10:11:02.618Z",
			"val": 1.738
		},
		{
			"dt": "2020-04-09T10:12:42.618Z",
			"val": 2.603
		},
		{
			"dt": "2020-04-09T10:14:22.618Z",
			"val": 3.185
		},
		{
			"dt": "2020-04-09T10:16:02.618Z",
			"val": 3.594
		},
		{
			"dt": "2020-04-09T10:17:42.618Z",
			"val": 3.265
		},
		{
			"dt": "2020-04-09T10:19:22.618Z",
			"val": 3.2
		},
		{
			"dt": "2020-04-09T10:21:02.618Z",
			"val": 4.039
		},
		{
			"dt": "2020-04-09T10:22:42.618Z",
			"val": 4.619
		},
		{
			"dt": "2020-04-09T10:24:22.618Z",
			"val": 4.317
		},
		{
			"dt": "2020-04-09T10:26:02.618Z",
			"val": 4.109
		},
		{
			"dt": "2020-04-09T10:27:42.618Z",
			"val": 3.655
		},
		{
			"dt": "2020-04-09T10:29:22.618Z",
			"val": 4.212
		},
		{
			"dt": "2020-04-09T10:31:02.618Z",
			"val": 4.156
		},
		{
			"dt": "2020-04-09T10:32:42.618Z",
			"val": 3.327
		},
		{
			"dt": "2020-04-09T10:34:22.618Z",
			"val": 2.333
		},
		{
			"dt": "2020-04-09T10:36:02.618Z",
			"val": 2.291
		},
		{
			"dt": "2020-04-09T10:37:42.618Z",
			"val": 3.239
		},
		{
			"dt": "2020-04-09T10:39:22.618Z",
			"val": 2.34
		},
		{
			"dt": "2020-04-09T10:41:02.618Z",
			"val": 3.131
		},
		{
			"dt": "2020-04-09T10:42:42.618Z",
			"val": 3.114
		},
		{
			"dt": "2020-04-09T10:44:22.618Z",
			"val": 2.52
		},
		{
			"dt": "2020-04-09T10:46:02.618Z",
			"val": 1.76
		},
		{
			"dt": "2020-04-09T10:47:42.618Z",
			"val": 1.272
		}
	],
	"Hydro_Metallurgical_Shop.Q_vss2": [
		{
			"dt": "2020-04-09T09:46:02.618Z",
			"val": 2.662
		},
		{
			"dt": "2020-04-09T09:47:42.618Z",
			"val": 3.38
		},
		{
			"dt": "2020-04-09T09:49:22.618Z",
			"val": 2.952
		},
		{
			"dt": "2020-04-09T09:51:02.618Z",
			"val": 3.768
		},
		{
			"dt": "2020-04-09T09:52:42.618Z",
			"val": 3.479
		},
		{
			"dt": "2020-04-09T09:54:22.618Z",
			"val": 3.842
		},
		{
			"dt": "2020-04-09T09:56:02.618Z",
			"val": 3.084
		},
		{
			"dt": "2020-04-09T09:57:42.618Z",
			"val": 2.618
		},
		{
			"dt": "2020-04-09T09:59:22.618Z",
			"val": 3.3
		},
		{
			"dt": "2020-04-09T10:01:02.618Z",
			"val": 4.246
		},
		{
			"dt": "2020-04-09T10:02:42.618Z",
			"val": 5.083
		},
		{
			"dt": "2020-04-09T10:04:22.618Z",
			"val": 5.391
		},
		{
			"dt": "2020-04-09T10:06:02.618Z",
			"val": 4.605
		},
		{
			"dt": "2020-04-09T10:07:42.618Z",
			"val": 4.414
		},
		{
			"dt": "2020-04-09T10:09:22.618Z",
			"val": 4.357
		},
		{
			"dt": "2020-04-09T10:11:02.618Z",
			"val": 3.79
		},
		{
			"dt": "2020-04-09T10:12:42.618Z",
			"val": 3.523
		},
		{
			"dt": "2020-04-09T10:14:22.618Z",
			"val": 2.984
		},
		{
			"dt": "2020-04-09T10:16:02.618Z",
			"val": 2.278
		},
		{
			"dt": "2020-04-09T10:17:42.618Z",
			"val": 2.975
		},
		{
			"dt": "2020-04-09T10:19:22.618Z",
			"val": 2.199
		},
		{
			"dt": "2020-04-09T10:21:02.618Z",
			"val": 2.765
		},
		{
			"dt": "2020-04-09T10:22:42.618Z",
			"val": 1.89
		},
		{
			"dt": "2020-04-09T10:24:22.618Z",
			"val": 2.824
		},
		{
			"dt": "2020-04-09T10:26:02.618Z",
			"val": 2.052
		},
		{
			"dt": "2020-04-09T10:27:42.618Z",
			"val": 1.527
		},
		{
			"dt": "2020-04-09T10:29:22.618Z",
			"val": 0.958
		},
		{
			"dt": "2020-04-09T10:31:02.618Z",
			"val": 1.224
		},
		{
			"dt": "2020-04-09T10:32:42.618Z",
			"val": 0.925
		},
		{
			"dt": "2020-04-09T10:34:22.618Z",
			"val": 0.046
		},
		{
			"dt": "2020-04-09T10:36:02.618Z",
			"val": 0.96
		},
		{
			"dt": "2020-04-09T10:37:42.618Z",
			"val": 0.798
		},
		{
			"dt": "2020-04-09T10:39:22.618Z",
			"val": 1.523
		},
		{
			"dt": "2020-04-09T10:41:02.618Z",
			"val": 2.284
		},
		{
			"dt": "2020-04-09T10:42:42.618Z",
			"val": 1.653
		},
		{
			"dt": "2020-04-09T10:44:22.618Z",
			"val": 1.044
		},
		{
			"dt": "2020-04-09T10:46:02.618Z",
			"val": 1.578
		},
		{
			"dt": "2020-04-09T10:47:42.618Z",
			"val": 2.515
		}
	],
	"Hydro_Metallurgical_Shop.Q_vss3_north": [
		{
			"dt": "2020-04-09T09:46:02.618Z",
			"val": 5.196
		},
		{
			"dt": "2020-04-09T09:47:42.618Z",
			"val": 4.849
		},
		{
			"dt": "2020-04-09T09:49:22.618Z",
			"val": 5.617
		},
		{
			"dt": "2020-04-09T09:51:02.618Z",
			"val": 4.816
		},
		{
			"dt": "2020-04-09T09:52:42.618Z",
			"val": 4.618
		},
		{
			"dt": "2020-04-09T09:54:22.618Z",
			"val": 5.019
		},
		{
			"dt": "2020-04-09T09:56:02.618Z",
			"val": 5.279
		},
		{
			"dt": "2020-04-09T09:57:42.618Z",
			"val": 6.087
		},
		{
			"dt": "2020-04-09T09:59:22.618Z",
			"val": 6.988
		},
		{
			"dt": "2020-04-09T10:01:02.618Z",
			"val": 7.561
		},
		{
			"dt": "2020-04-09T10:02:42.618Z",
			"val": 6.895
		},
		{
			"dt": "2020-04-09T10:04:22.618Z",
			"val": 5.985
		},
		{
			"dt": "2020-04-09T10:06:02.618Z",
			"val": 6.423
		},
		{
			"dt": "2020-04-09T10:07:42.618Z",
			"val": 7.385
		},
		{
			"dt": "2020-04-09T10:09:22.618Z",
			"val": 7.04
		},
		{
			"dt": "2020-04-09T10:11:02.618Z",
			"val": 7.334
		},
		{
			"dt": "2020-04-09T10:12:42.618Z",
			"val": 7.561
		},
		{
			"dt": "2020-04-09T10:14:22.618Z",
			"val": 7.619
		},
		{
			"dt": "2020-04-09T10:16:02.618Z",
			"val": 7.575
		},
		{
			"dt": "2020-04-09T10:17:42.618Z",
			"val": 6.752
		},
		{
			"dt": "2020-04-09T10:19:22.618Z",
			"val": 6.403
		},
		{
			"dt": "2020-04-09T10:21:02.618Z",
			"val": 6.183
		},
		{
			"dt": "2020-04-09T10:22:42.618Z",
			"val": 5.39
		},
		{
			"dt": "2020-04-09T10:24:22.618Z",
			"val": 5.386
		},
		{
			"dt": "2020-04-09T10:26:02.618Z",
			"val": 4.544
		},
		{
			"dt": "2020-04-09T10:27:42.618Z",
			"val": 5.185
		},
		{
			"dt": "2020-04-09T10:29:22.618Z",
			"val": 4.788
		},
		{
			"dt": "2020-04-09T10:31:02.618Z",
			"val": 5.758
		},
		{
			"dt": "2020-04-09T10:32:42.618Z",
			"val": 6.578
		},
		{
			"dt": "2020-04-09T10:34:22.618Z",
			"val": 6.734
		},
		{
			"dt": "2020-04-09T10:36:02.618Z",
			"val": 7.604
		},
		{
			"dt": "2020-04-09T10:37:42.618Z",
			"val": 8.328
		},
		{
			"dt": "2020-04-09T10:39:22.618Z",
			"val": 7.389
		},
		{
			"dt": "2020-04-09T10:41:02.618Z",
			"val": 7.913
		},
		{
			"dt": "2020-04-09T10:42:42.618Z",
			"val": 8.667
		},
		{
			"dt": "2020-04-09T10:44:22.618Z",
			"val": 8.897
		},
		{
			"dt": "2020-04-09T10:46:02.618Z",
			"val": 9.268
		},
		{
			"dt": "2020-04-09T10:47:42.618Z",
			"val": 9.085
		}
	],
	"Hydro_Metallurgical_Shop.Q_vss3_south": [
		{
			"dt": "2020-04-09T09:46:02.618Z",
			"val": 2.114
		},
		{
			"dt": "2020-04-09T09:47:42.618Z",
			"val": 1.736
		},
		{
			"dt": "2020-04-09T09:49:22.618Z",
			"val": 0.83
		},
		{
			"dt": "2020-04-09T09:51:02.618Z",
			"val": 0.878
		},
		{
			"dt": "2020-04-09T09:52:42.618Z",
			"val": 1.643
		},
		{
			"dt": "2020-04-09T09:54:22.618Z",
			"val": 2.234
		},
		{
			"dt": "2020-04-09T09:56:02.618Z",
			"val": 2.318
		},
		{
			"dt": "2020-04-09T09:57:42.618Z",
			"val": 2.513
		},
		{
			"dt": "2020-04-09T09:59:22.618Z",
			"val": 2.952
		},
		{
			"dt": "2020-04-09T10:01:02.618Z",
			"val": 1.996
		},
		{
			"dt": "2020-04-09T10:02:42.618Z",
			"val": 1.661
		},
		{
			"dt": "2020-04-09T10:04:22.618Z",
			"val": 1.594
		},
		{
			"dt": "2020-04-09T10:06:02.618Z",
			"val": 0.973
		},
		{
			"dt": "2020-04-09T10:07:42.618Z",
			"val": 0.17
		},
		{
			"dt": "2020-04-09T10:09:22.618Z",
			"val": 0.278
		},
		{
			"dt": "2020-04-09T10:11:02.618Z",
			"val": 0.702
		},
		{
			"dt": "2020-04-09T10:12:42.618Z",
			"val": 0.568
		},
		{
			"dt": "2020-04-09T10:14:22.618Z",
			"val": 1.392
		},
		{
			"dt": "2020-04-09T10:16:02.618Z",
			"val": 0.518
		},
		{
			"dt": "2020-04-09T10:17:42.618Z",
			"val": 0.341
		},
		{
			"dt": "2020-04-09T10:19:22.618Z",
			"val": 0.999
		},
		{
			"dt": "2020-04-09T10:21:02.618Z",
			"val": 1.263
		},
		{
			"dt": "2020-04-09T10:22:42.618Z",
			"val": 1.507
		},
		{
			"dt": "2020-04-09T10:24:22.618Z",
			"val": 0.882
		},
		{
			"dt": "2020-04-09T10:26:02.618Z",
			"val": 0.55
		},
		{
			"dt": "2020-04-09T10:27:42.618Z",
			"val": 1.302
		},
		{
			"dt": "2020-04-09T10:29:22.618Z",
			"val": 0.39
		},
		{
			"dt": "2020-04-09T10:31:02.618Z",
			"val": 0.138
		},
		{
			"dt": "2020-04-09T10:32:42.618Z",
			"val": 0.527
		},
		{
			"dt": "2020-04-09T10:34:22.618Z",
			"val": 0.512
		},
		{
			"dt": "2020-04-09T10:36:02.618Z",
			"val": 1.106
		},
		{
			"dt": "2020-04-09T10:37:42.618Z",
			"val": 2.061
		},
		{
			"dt": "2020-04-09T10:39:22.618Z",
			"val": 2.909
		},
		{
			"dt": "2020-04-09T10:41:02.618Z",
			"val": 3.502
		},
		{
			"dt": "2020-04-09T10:42:42.618Z",
			"val": 3.019
		},
		{
			"dt": "2020-04-09T10:44:22.618Z",
			"val": 2.096
		},
		{
			"dt": "2020-04-09T10:46:02.618Z",
			"val": 2.437
		},
		{
			"dt": "2020-04-09T10:47:42.618Z",
			"val": 2.632
		}
	],
	"Hydro_Metallurgical_Shop.RIR": [
		{
			"dt": "2020-04-09T09:46:02.618Z",
			"val": 5.558
		},
		{
			"dt": "2020-04-09T09:47:42.618Z",
			"val": 5.95
		},
		{
			"dt": "2020-04-09T09:49:22.618Z",
			"val": 6.077
		},
		{
			"dt": "2020-04-09T09:51:02.618Z",
			"val": 5.942
		},
		{
			"dt": "2020-04-09T09:52:42.618Z",
			"val": 5.026
		},
		{
			"dt": "2020-04-09T09:54:22.618Z",
			"val": 5.963
		},
		{
			"dt": "2020-04-09T09:56:02.618Z",
			"val": 6.476
		},
		{
			"dt": "2020-04-09T09:57:42.618Z",
			"val": 6.541
		},
		{
			"dt": "2020-04-09T09:59:22.618Z",
			"val": 5.975
		},
		{
			"dt": "2020-04-09T10:01:02.618Z",
			"val": 6.514
		},
		{
			"dt": "2020-04-09T10:02:42.618Z",
			"val": 5.551
		},
		{
			"dt": "2020-04-09T10:04:22.618Z",
			"val": 6.546
		},
		{
			"dt": "2020-04-09T10:06:02.618Z",
			"val": 7.524
		},
		{
			"dt": "2020-04-09T10:07:42.618Z",
			"val": 7.261
		},
		{
			"dt": "2020-04-09T10:09:22.618Z",
			"val": 6.749
		},
		{
			"dt": "2020-04-09T10:11:02.618Z",
			"val": 7.224
		},
		{
			"dt": "2020-04-09T10:12:42.618Z",
			"val": 7.929
		},
		{
			"dt": "2020-04-09T10:14:22.618Z",
			"val": 6.94
		},
		{
			"dt": "2020-04-09T10:16:02.618Z",
			"val": 6.924
		},
		{
			"dt": "2020-04-09T10:17:42.618Z",
			"val": 6.617
		},
		{
			"dt": "2020-04-09T10:19:22.618Z",
			"val": 6.316
		},
		{
			"dt": "2020-04-09T10:21:02.618Z",
			"val": 5.414
		},
		{
			"dt": "2020-04-09T10:22:42.618Z",
			"val": 4.773
		},
		{
			"dt": "2020-04-09T10:24:22.618Z",
			"val": 4.094
		},
		{
			"dt": "2020-04-09T10:26:02.618Z",
			"val": 4.174
		},
		{
			"dt": "2020-04-09T10:27:42.618Z",
			"val": 4.214
		},
		{
			"dt": "2020-04-09T10:29:22.618Z",
			"val": 4.74
		},
		{
			"dt": "2020-04-09T10:31:02.618Z",
			"val": 4.9
		},
		{
			"dt": "2020-04-09T10:32:42.618Z",
			"val": 4.055
		},
		{
			"dt": "2020-04-09T10:34:22.618Z",
			"val": 4.861
		},
		{
			"dt": "2020-04-09T10:36:02.618Z",
			"val": 5.804
		},
		{
			"dt": "2020-04-09T10:37:42.618Z",
			"val": 6.086
		},
		{
			"dt": "2020-04-09T10:39:22.618Z",
			"val": 6.841
		},
		{
			"dt": "2020-04-09T10:41:02.618Z",
			"val": 6.967
		},
		{
			"dt": "2020-04-09T10:42:42.618Z",
			"val": 6.634
		},
		{
			"dt": "2020-04-09T10:44:22.618Z",
			"val": 7.036
		},
		{
			"dt": "2020-04-09T10:46:02.618Z",
			"val": 7.313
		},
		{
			"dt": "2020-04-09T10:47:42.618Z",
			"val": 7.234
		}
	],
	"Energy_Shop.Q_O2": [
		{
			"dt": "2020-04-09T09:46:02.618Z",
			"val": 0.861
		},
		{
			"dt": "2020-04-09T09:47:42.618Z",
			"val": 1.602
		},
		{
			"dt": "2020-04-09T09:49:22.618Z",
			"val": 2.491
		},
		{
			"dt": "2020-04-09T09:51:02.618Z",
			"val": 3.217
		},
		{
			"dt": "2020-04-09T09:52:42.618Z",
			"val": 3.447
		},
		{
			"dt": "2020-04-09T09:54:22.618Z",
			"val": 3.317
		},
		{
			"dt": "2020-04-09T09:56:02.618Z",
			"val": 4.036
		},
		{
			"dt": "2020-04-09T09:57:42.618Z",
			"val": 3.062
		},
		{
			"dt": "2020-04-09T09:59:22.618Z",
			"val": 4.01
		},
		{
			"dt": "2020-04-09T10:01:02.618Z",
			"val": 4.057
		},
		{
			"dt": "2020-04-09T10:02:42.618Z",
			"val": 3.088
		},
		{
			"dt": "2020-04-09T10:04:22.618Z",
			"val": 3.534
		},
		{
			"dt": "2020-04-09T10:06:02.618Z",
			"val": 3.476
		},
		{
			"dt": "2020-04-09T10:07:42.618Z",
			"val": 3.254
		},
		{
			"dt": "2020-04-09T10:09:22.618Z",
			"val": 2.91
		},
		{
			"dt": "2020-04-09T10:11:02.618Z",
			"val": 2.586
		},
		{
			"dt": "2020-04-09T10:12:42.618Z",
			"val": 2.967
		},
		{
			"dt": "2020-04-09T10:14:22.618Z",
			"val": 2.337
		},
		{
			"dt": "2020-04-09T10:16:02.618Z",
			"val": 3.077
		},
		{
			"dt": "2020-04-09T10:17:42.618Z",
			"val": 3.838
		},
		{
			"dt": "2020-04-09T10:19:22.618Z",
			"val": 4.528
		},
		{
			"dt": "2020-04-09T10:21:02.618Z",
			"val": 4.177
		},
		{
			"dt": "2020-04-09T10:22:42.618Z",
			"val": 3.516
		},
		{
			"dt": "2020-04-09T10:24:22.618Z",
			"val": 3.367
		},
		{
			"dt": "2020-04-09T10:26:02.618Z",
			"val": 4.151
		},
		{
			"dt": "2020-04-09T10:27:42.618Z",
			"val": 3.447
		},
		{
			"dt": "2020-04-09T10:29:22.618Z",
			"val": 2.922
		},
		{
			"dt": "2020-04-09T10:31:02.618Z",
			"val": 3.876
		},
		{
			"dt": "2020-04-09T10:32:42.618Z",
			"val": 4.124
		},
		{
			"dt": "2020-04-09T10:34:22.618Z",
			"val": 3.982
		},
		{
			"dt": "2020-04-09T10:36:02.618Z",
			"val": 4.367
		},
		{
			"dt": "2020-04-09T10:37:42.618Z",
			"val": 4.334
		},
		{
			"dt": "2020-04-09T10:39:22.618Z",
			"val": 4.78
		},
		{
			"dt": "2020-04-09T10:41:02.618Z",
			"val": 5.23
		},
		{
			"dt": "2020-04-09T10:42:42.618Z",
			"val": 4.797
		},
		{
			"dt": "2020-04-09T10:44:22.618Z",
			"val": 4.577
		},
		{
			"dt": "2020-04-09T10:46:02.618Z",
			"val": 5.495
		},
		{
			"dt": "2020-04-09T10:47:42.618Z",
			"val": 5.715
		}
	],
	"Energy_Shop.Q_water": [
		{
			"dt": "2020-04-09T09:46:02.618Z",
			"val": 0.673
		},
		{
			"dt": "2020-04-09T09:47:42.618Z",
			"val": 0.655
		},
		{
			"dt": "2020-04-09T09:49:22.618Z",
			"val": 1.446
		},
		{
			"dt": "2020-04-09T09:51:02.618Z",
			"val": 0.447
		},
		{
			"dt": "2020-04-09T09:52:42.618Z",
			"val": 1.375
		},
		{
			"dt": "2020-04-09T09:54:22.618Z",
			"val": 2.26
		},
		{
			"dt": "2020-04-09T09:56:02.618Z",
			"val": 2.397
		},
		{
			"dt": "2020-04-09T09:57:42.618Z",
			"val": 2.934
		},
		{
			"dt": "2020-04-09T09:59:22.618Z",
			"val": 3.781
		},
		{
			"dt": "2020-04-09T10:01:02.618Z",
			"val": 3.187
		},
		{
			"dt": "2020-04-09T10:02:42.618Z",
			"val": 3.679
		},
		{
			"dt": "2020-04-09T10:04:22.618Z",
			"val": 3.016
		},
		{
			"dt": "2020-04-09T10:06:02.618Z",
			"val": 2.441
		},
		{
			"dt": "2020-04-09T10:07:42.618Z",
			"val": 2.744
		},
		{
			"dt": "2020-04-09T10:09:22.618Z",
			"val": 1.773
		},
		{
			"dt": "2020-04-09T10:11:02.618Z",
			"val": 2.73
		},
		{
			"dt": "2020-04-09T10:12:42.618Z",
			"val": 3.544
		},
		{
			"dt": "2020-04-09T10:14:22.618Z",
			"val": 3.64
		},
		{
			"dt": "2020-04-09T10:16:02.618Z",
			"val": 3.641
		},
		{
			"dt": "2020-04-09T10:17:42.618Z",
			"val": 3.254
		},
		{
			"dt": "2020-04-09T10:19:22.618Z",
			"val": 4.068
		},
		{
			"dt": "2020-04-09T10:21:02.618Z",
			"val": 4.67
		},
		{
			"dt": "2020-04-09T10:22:42.618Z",
			"val": 4.722
		},
		{
			"dt": "2020-04-09T10:24:22.618Z",
			"val": 5.612
		},
		{
			"dt": "2020-04-09T10:26:02.618Z",
			"val": 6.442
		},
		{
			"dt": "2020-04-09T10:27:42.618Z",
			"val": 6.122
		},
		{
			"dt": "2020-04-09T10:29:22.618Z",
			"val": 6.356
		},
		{
			"dt": "2020-04-09T10:31:02.618Z",
			"val": 6.721
		},
		{
			"dt": "2020-04-09T10:32:42.618Z",
			"val": 6.513
		},
		{
			"dt": "2020-04-09T10:34:22.618Z",
			"val": 6.854
		},
		{
			"dt": "2020-04-09T10:36:02.618Z",
			"val": 6.212
		},
		{
			"dt": "2020-04-09T10:37:42.618Z",
			"val": 5.955
		},
		{
			"dt": "2020-04-09T10:39:22.618Z",
			"val": 4.96
		},
		{
			"dt": "2020-04-09T10:41:02.618Z",
			"val": 5.029
		},
		{
			"dt": "2020-04-09T10:42:42.618Z",
			"val": 5.396
		},
		{
			"dt": "2020-04-09T10:44:22.618Z",
			"val": 5.499
		},
		{
			"dt": "2020-04-09T10:46:02.618Z",
			"val": 6.478
		},
		{
			"dt": "2020-04-09T10:47:42.618Z",
			"val": 5.558
		}
	],
	"Energy_Shop.Q_gas": [
		{
			"dt": "2020-04-09T09:46:02.618Z",
			"val": 3.756
		},
		{
			"dt": "2020-04-09T09:47:42.618Z",
			"val": 2.842
		},
		{
			"dt": "2020-04-09T09:49:22.618Z",
			"val": 2.023
		},
		{
			"dt": "2020-04-09T09:51:02.618Z",
			"val": 1.626
		},
		{
			"dt": "2020-04-09T09:52:42.618Z",
			"val": 1.491
		},
		{
			"dt": "2020-04-09T09:54:22.618Z",
			"val": 1.533
		},
		{
			"dt": "2020-04-09T09:56:02.618Z",
			"val": 0.684
		},
		{
			"dt": "2020-04-09T09:57:42.618Z",
			"val": 0.459
		},
		{
			"dt": "2020-04-09T09:59:22.618Z",
			"val": 0.921
		},
		{
			"dt": "2020-04-09T10:01:02.618Z",
			"val": 1.077
		},
		{
			"dt": "2020-04-09T10:02:42.618Z",
			"val": 1.881
		},
		{
			"dt": "2020-04-09T10:04:22.618Z",
			"val": 1.044
		},
		{
			"dt": "2020-04-09T10:06:02.618Z",
			"val": 1.256
		},
		{
			"dt": "2020-04-09T10:07:42.618Z",
			"val": 1.598
		},
		{
			"dt": "2020-04-09T10:09:22.618Z",
			"val": 1.375
		},
		{
			"dt": "2020-04-09T10:11:02.618Z",
			"val": 1.233
		},
		{
			"dt": "2020-04-09T10:12:42.618Z",
			"val": 0.982
		},
		{
			"dt": "2020-04-09T10:14:22.618Z",
			"val": 0.42
		},
		{
			"dt": "2020-04-09T10:16:02.618Z",
			"val": 0.1
		},
		{
			"dt": "2020-04-09T10:17:42.618Z",
			"val": 0.507
		},
		{
			"dt": "2020-04-09T10:19:22.618Z",
			"val": 1.189
		},
		{
			"dt": "2020-04-09T10:21:02.618Z",
			"val": 0.596
		},
		{
			"dt": "2020-04-09T10:22:42.618Z",
			"val": 0.01
		},
		{
			"dt": "2020-04-09T10:24:22.618Z",
			"val": 0.913
		},
		{
			"dt": "2020-04-09T10:26:02.618Z",
			"val": 1.362
		},
		{
			"dt": "2020-04-09T10:27:42.618Z",
			"val": 1.894
		},
		{
			"dt": "2020-04-09T10:29:22.618Z",
			"val": 1.157
		},
		{
			"dt": "2020-04-09T10:31:02.618Z",
			"val": 0.9
		},
		{
			"dt": "2020-04-09T10:32:42.618Z",
			"val": 0.434
		},
		{
			"dt": "2020-04-09T10:34:22.618Z",
			"val": 1.117
		},
		{
			"dt": "2020-04-09T10:36:02.618Z",
			"val": 1.746
		},
		{
			"dt": "2020-04-09T10:37:42.618Z",
			"val": 2.181
		},
		{
			"dt": "2020-04-09T10:39:22.618Z",
			"val": 1.878
		},
		{
			"dt": "2020-04-09T10:41:02.618Z",
			"val": 2.812
		},
		{
			"dt": "2020-04-09T10:42:42.618Z",
			"val": 3.197
		},
		{
			"dt": "2020-04-09T10:44:22.618Z",
			"val": 3.338
		},
		{
			"dt": "2020-04-09T10:46:02.618Z",
			"val": 3.281
		},
		{
			"dt": "2020-04-09T10:47:42.618Z",
			"val": 4.132
		}
	],
	"Electrical_Shop": []
}