{
	"Leach_Thickener1.Duct": [
		{
			"dt": "2020-04-07T08:07:42.442Z",
			"val": 8.095
		},
		{
			"dt": "2020-04-07T08:09:22.442Z",
			"val": 8.27
		},
		{
			"dt": "2020-04-07T08:11:02.442Z",
			"val": 7.489
		},
		{
			"dt": "2020-04-07T08:12:42.442Z",
			"val": 7.141
		},
		{
			"dt": "2020-04-07T08:14:22.442Z",
			"val": 6.522
		},
		{
			"dt": "2020-04-07T08:16:02.442Z",
			"val": 6.495
		},
		{
			"dt": "2020-04-07T08:17:42.442Z",
			"val": 5.8
		},
		{
			"dt": "2020-04-07T08:19:22.442Z",
			"val": 5.288
		},
		{
			"dt": "2020-04-07T08:21:02.442Z",
			"val": 6.244
		},
		{
			"dt": "2020-04-07T08:22:42.442Z",
			"val": 6.369
		},
		{
			"dt": "2020-04-07T08:24:22.442Z",
			"val": 6.132
		},
		{
			"dt": "2020-04-07T08:26:02.442Z",
			"val": 6.499
		},
		{
			"dt": "2020-04-07T08:27:42.442Z",
			"val": 6.072
		},
		{
			"dt": "2020-04-07T08:29:22.442Z",
			"val": 6.628
		},
		{
			"dt": "2020-04-07T08:31:02.442Z",
			"val": 6.535
		},
		{
			"dt": "2020-04-07T08:32:42.442Z",
			"val": 5.616
		},
		{
			"dt": "2020-04-07T08:34:22.442Z",
			"val": 4.637
		},
		{
			"dt": "2020-04-07T08:36:02.442Z",
			"val": 3.807
		},
		{
			"dt": "2020-04-07T08:37:42.442Z",
			"val": 2.88
		},
		{
			"dt": "2020-04-07T08:39:22.442Z",
			"val": 2.59
		},
		{
			"dt": "2020-04-07T08:41:02.442Z",
			"val": 2.589
		},
		{
			"dt": "2020-04-07T08:42:42.442Z",
			"val": 2.697
		},
		{
			"dt": "2020-04-07T08:44:22.442Z",
			"val": 2.94
		},
		{
			"dt": "2020-04-07T08:46:02.442Z",
			"val": 3.21
		},
		{
			"dt": "2020-04-07T08:47:42.442Z",
			"val": 2.81
		},
		{
			"dt": "2020-04-07T08:49:22.442Z",
			"val": 2.336
		},
		{
			"dt": "2020-04-07T08:51:02.442Z",
			"val": 1.49
		},
		{
			"dt": "2020-04-07T08:52:42.442Z",
			"val": 2.007
		},
		{
			"dt": "2020-04-07T08:54:22.442Z",
			"val": 1.63
		},
		{
			"dt": "2020-04-07T08:56:02.442Z",
			"val": 0.691
		},
		{
			"dt": "2020-04-07T08:57:42.442Z",
			"val": 0.477
		},
		{
			"dt": "2020-04-07T08:59:22.442Z",
			"val": 0.296
		},
		{
			"dt": "2020-04-07T09:01:02.442Z",
			"val": 0.818
		},
		{
			"dt": "2020-04-07T09:02:42.442Z",
			"val": 1.213
		},
		{
			"dt": "2020-04-07T09:04:22.442Z",
			"val": 0.723
		},
		{
			"dt": "2020-04-07T09:06:02.442Z",
			"val": 1.364
		},
		{
			"dt": "2020-04-07T09:07:42.442Z",
			"val": 1
		},
		{
			"dt": "2020-04-07T09:09:22.442Z",
			"val": 0.579
		}
	],
	"Leach_Thickener2.Duct": [
		{
			"dt": "2020-04-07T08:07:42.442Z",
			"val": 1.766
		},
		{
			"dt": "2020-04-07T08:09:22.442Z",
			"val": 2.353
		},
		{
			"dt": "2020-04-07T08:11:02.442Z",
			"val": 1.622
		},
		{
			"dt": "2020-04-07T08:12:42.442Z",
			"val": 2.207
		},
		{
			"dt": "2020-04-07T08:14:22.442Z",
			"val": 3.188
		},
		{
			"dt": "2020-04-07T08:16:02.442Z",
			"val": 2.273
		},
		{
			"dt": "2020-04-07T08:17:42.442Z",
			"val": 1.915
		},
		{
			"dt": "2020-04-07T08:19:22.442Z",
			"val": 1.027
		},
		{
			"dt": "2020-04-07T08:21:02.442Z",
			"val": 1.264
		},
		{
			"dt": "2020-04-07T08:22:42.442Z",
			"val": 0.761
		},
		{
			"dt": "2020-04-07T08:24:22.442Z",
			"val": 0.772
		},
		{
			"dt": "2020-04-07T08:26:02.442Z",
			"val": 1.083
		},
		{
			"dt": "2020-04-07T08:27:42.442Z",
			"val": 1.007
		},
		{
			"dt": "2020-04-07T08:29:22.442Z",
			"val": 1.943
		},
		{
			"dt": "2020-04-07T08:31:02.442Z",
			"val": 2.631
		},
		{
			"dt": "2020-04-07T08:32:42.442Z",
			"val": 2.772
		},
		{
			"dt": "2020-04-07T08:34:22.442Z",
			"val": 3.494
		},
		{
			"dt": "2020-04-07T08:36:02.442Z",
			"val": 3.595
		},
		{
			"dt": "2020-04-07T08:37:42.442Z",
			"val": 4.336
		},
		{
			"dt": "2020-04-07T08:39:22.442Z",
			"val": 4.758
		},
		{
			"dt": "2020-04-07T08:41:02.442Z",
			"val": 5.147
		},
		{
			"dt": "2020-04-07T08:42:42.442Z",
			"val": 5.485
		},
		{
			"dt": "2020-04-07T08:44:22.442Z",
			"val": 4.793
		},
		{
			"dt": "2020-04-07T08:46:02.442Z",
			"val": 5.372
		},
		{
			"dt": "2020-04-07T08:47:42.442Z",
			"val": 4.987
		},
		{
			"dt": "2020-04-07T08:49:22.442Z",
			"val": 5.692
		},
		{
			"dt": "2020-04-07T08:51:02.442Z",
			"val": 4.701
		},
		{
			"dt": "2020-04-07T08:52:42.442Z",
			"val": 5.164
		},
		{
			"dt": "2020-04-07T08:54:22.442Z",
			"val": 5.595
		},
		{
			"dt": "2020-04-07T08:56:02.442Z",
			"val": 5.949
		},
		{
			"dt": "2020-04-07T08:57:42.442Z",
			"val": 6.441
		},
		{
			"dt": "2020-04-07T08:59:22.442Z",
			"val": 7.377
		},
		{
			"dt": "2020-04-07T09:01:02.442Z",
			"val": 6.891
		},
		{
			"dt": "2020-04-07T09:02:42.442Z",
			"val": 6.783
		},
		{
			"dt": "2020-04-07T09:04:22.442Z",
			"val": 7.761
		},
		{
			"dt": "2020-04-07T09:06:02.442Z",
			"val": 8
		},
		{
			"dt": "2020-04-07T09:07:42.442Z",
			"val": 8.54
		},
		{
			"dt": "2020-04-07T09:09:22.442Z",
			"val": 7.626
		}
	],
	"Leach_Thickener3.Duct": [
		{
			"dt": "2020-04-07T08:07:42.442Z",
			"val": 7.309
		},
		{
			"dt": "2020-04-07T08:09:22.442Z",
			"val": 8.04
		},
		{
			"dt": "2020-04-07T08:11:02.442Z",
			"val": 7.752
		},
		{
			"dt": "2020-04-07T08:12:42.442Z",
			"val": 8.112
		},
		{
			"dt": "2020-04-07T08:14:22.442Z",
			"val": 8.991
		},
		{
			"dt": "2020-04-07T08:16:02.442Z",
			"val": 8.77
		},
		{
			"dt": "2020-04-07T08:17:42.442Z",
			"val": 9.294
		},
		{
			"dt": "2020-04-07T08:19:22.442Z",
			"val": 10.234
		},
		{
			"dt": "2020-04-07T08:21:02.442Z",
			"val": 11.123
		},
		{
			"dt": "2020-04-07T08:22:42.442Z",
			"val": 10.984
		},
		{
			"dt": "2020-04-07T08:24:22.442Z",
			"val": 11.434
		},
		{
			"dt": "2020-04-07T08:26:02.442Z",
			"val": 11.191
		},
		{
			"dt": "2020-04-07T08:27:42.442Z",
			"val": 10.688
		},
		{
			"dt": "2020-04-07T08:29:22.442Z",
			"val": 11.55
		},
		{
			"dt": "2020-04-07T08:31:02.442Z",
			"val": 11.707
		},
		{
			"dt": "2020-04-07T08:32:42.442Z",
			"val": 10.999
		},
		{
			"dt": "2020-04-07T08:34:22.442Z",
			"val": 10.715
		},
		{
			"dt": "2020-04-07T08:36:02.442Z",
			"val": 10.423
		},
		{
			"dt": "2020-04-07T08:37:42.442Z",
			"val": 10.385
		},
		{
			"dt": "2020-04-07T08:39:22.442Z",
			"val": 10.414
		},
		{
			"dt": "2020-04-07T08:41:02.442Z",
			"val": 10.452
		},
		{
			"dt": "2020-04-07T08:42:42.442Z",
			"val": 10.875
		},
		{
			"dt": "2020-04-07T08:44:22.442Z",
			"val": 10.655
		},
		{
			"dt": "2020-04-07T08:46:02.442Z",
			"val": 10.022
		},
		{
			"dt": "2020-04-07T08:47:42.442Z",
			"val": 9.041
		},
		{
			"dt": "2020-04-07T08:49:22.442Z",
			"val": 8.6
		},
		{
			"dt": "2020-04-07T08:51:02.442Z",
			"val": 8.463
		},
		{
			"dt": "2020-04-07T08:52:42.442Z",
			"val": 7.966
		},
		{
			"dt": "2020-04-07T08:54:22.442Z",
			"val": 7.563
		},
		{
			"dt": "2020-04-07T08:56:02.442Z",
			"val": 7.551
		},
		{
			"dt": "2020-04-07T08:57:42.442Z",
			"val": 7.328
		},
		{
			"dt": "2020-04-07T08:59:22.442Z",
			"val": 8.159
		},
		{
			"dt": "2020-04-07T09:01:02.442Z",
			"val": 9.031
		},
		{
			"dt": "2020-04-07T09:02:42.442Z",
			"val": 9.237
		},
		{
			"dt": "2020-04-07T09:04:22.442Z",
			"val": 9.538
		},
		{
			"dt": "2020-04-07T09:06:02.442Z",
			"val": 8.664
		},
		{
			"dt": "2020-04-07T09:07:42.442Z",
			"val": 9.176
		},
		{
			"dt": "2020-04-07T09:09:22.442Z",
			"val": 9.165
		}
	],
	"Leach_Thickener4.Duct": [
		{
			"dt": "2020-04-07T08:07:42.442Z",
			"val": 10.346
		},
		{
			"dt": "2020-04-07T08:09:22.442Z",
			"val": 10.606
		},
		{
			"dt": "2020-04-07T08:11:02.442Z",
			"val": 11.137
		},
		{
			"dt": "2020-04-07T08:12:42.442Z",
			"val": 10.945
		},
		{
			"dt": "2020-04-07T08:14:22.442Z",
			"val": 10.449
		},
		{
			"dt": "2020-04-07T08:16:02.442Z",
			"val": 10.263
		},
		{
			"dt": "2020-04-07T08:17:42.442Z",
			"val": 10.199
		},
		{
			"dt": "2020-04-07T08:19:22.442Z",
			"val": 9.233
		},
		{
			"dt": "2020-04-07T08:21:02.442Z",
			"val": 8.698
		},
		{
			"dt": "2020-04-07T08:22:42.442Z",
			"val": 8.516
		},
		{
			"dt": "2020-04-07T08:24:22.442Z",
			"val": 7.67
		},
		{
			"dt": "2020-04-07T08:26:02.442Z",
			"val": 6.782
		},
		{
			"dt": "2020-04-07T08:27:42.442Z",
			"val": 6.235
		},
		{
			"dt": "2020-04-07T08:29:22.442Z",
			"val": 7.138
		},
		{
			"dt": "2020-04-07T08:31:02.442Z",
			"val": 7.71
		},
		{
			"dt": "2020-04-07T08:32:42.442Z",
			"val": 6.92
		},
		{
			"dt": "2020-04-07T08:34:22.442Z",
			"val": 7.576
		},
		{
			"dt": "2020-04-07T08:36:02.442Z",
			"val": 8.37
		},
		{
			"dt": "2020-04-07T08:37:42.442Z",
			"val": 9.037
		},
		{
			"dt": "2020-04-07T08:39:22.442Z",
			"val": 9.472
		},
		{
			"dt": "2020-04-07T08:41:02.442Z",
			"val": 9.342
		},
		{
			"dt": "2020-04-07T08:42:42.442Z",
			"val": 9.343
		},
		{
			"dt": "2020-04-07T08:44:22.442Z",
			"val": 10.241
		},
		{
			"dt": "2020-04-07T08:46:02.442Z",
			"val": 9.278
		},
		{
			"dt": "2020-04-07T08:47:42.442Z",
			"val": 9.21
		},
		{
			"dt": "2020-04-07T08:49:22.442Z",
			"val": 8.876
		},
		{
			"dt": "2020-04-07T08:51:02.442Z",
			"val": 8.12
		},
		{
			"dt": "2020-04-07T08:52:42.442Z",
			"val": 9.084
		},
		{
			"dt": "2020-04-07T08:54:22.442Z",
			"val": 8.688
		},
		{
			"dt": "2020-04-07T08:56:02.442Z",
			"val": 8.765
		},
		{
			"dt": "2020-04-07T08:57:42.442Z",
			"val": 9.55
		},
		{
			"dt": "2020-04-07T08:59:22.442Z",
			"val": 10.05
		},
		{
			"dt": "2020-04-07T09:01:02.442Z",
			"val": 10.921
		},
		{
			"dt": "2020-04-07T09:02:42.442Z",
			"val": 10.724
		},
		{
			"dt": "2020-04-07T09:04:22.442Z",
			"val": 10.843
		},
		{
			"dt": "2020-04-07T09:06:02.442Z",
			"val": 11.011
		},
		{
			"dt": "2020-04-07T09:07:42.442Z",
			"val": 11.984
		},
		{
			"dt": "2020-04-07T09:09:22.442Z",
			"val": 12.015
		}
	],
	"Leach_Thickener5.Duct": [
		{
			"dt": "2020-04-07T08:07:42.442Z",
			"val": 2.077
		},
		{
			"dt": "2020-04-07T08:09:22.442Z",
			"val": 1.171
		},
		{
			"dt": "2020-04-07T08:11:02.442Z",
			"val": 0.725
		},
		{
			"dt": "2020-04-07T08:12:42.442Z",
			"val": 1.604
		},
		{
			"dt": "2020-04-07T08:14:22.442Z",
			"val": 1.463
		},
		{
			"dt": "2020-04-07T08:16:02.442Z",
			"val": 0.841
		},
		{
			"dt": "2020-04-07T08:17:42.442Z",
			"val": 0.121
		},
		{
			"dt": "2020-04-07T08:19:22.442Z",
			"val": 0.661
		},
		{
			"dt": "2020-04-07T08:21:02.442Z",
			"val": 1.325
		},
		{
			"dt": "2020-04-07T08:22:42.442Z",
			"val": 2.157
		},
		{
			"dt": "2020-04-07T08:24:22.442Z",
			"val": 1.824
		},
		{
			"dt": "2020-04-07T08:26:02.442Z",
			"val": 1.677
		},
		{
			"dt": "2020-04-07T08:27:42.442Z",
			"val": 1.178
		},
		{
			"dt": "2020-04-07T08:29:22.442Z",
			"val": 0.661
		},
		{
			"dt": "2020-04-07T08:31:02.442Z",
			"val": 0.088
		},
		{
			"dt": "2020-04-07T08:32:42.442Z",
			"val": 0.758
		},
		{
			"dt": "2020-04-07T08:34:22.442Z",
			"val": 1.511
		},
		{
			"dt": "2020-04-07T08:36:02.442Z",
			"val": 0.943
		},
		{
			"dt": "2020-04-07T08:37:42.442Z",
			"val": 1.608
		},
		{
			"dt": "2020-04-07T08:39:22.442Z",
			"val": 2.585
		},
		{
			"dt": "2020-04-07T08:41:02.442Z",
			"val": 2.182
		},
		{
			"dt": "2020-04-07T08:42:42.442Z",
			"val": 2.452
		},
		{
			"dt": "2020-04-07T08:44:22.442Z",
			"val": 1.531
		},
		{
			"dt": "2020-04-07T08:46:02.442Z",
			"val": 1.854
		},
		{
			"dt": "2020-04-07T08:47:42.442Z",
			"val": 2.839
		},
		{
			"dt": "2020-04-07T08:49:22.442Z",
			"val": 2.313
		},
		{
			"dt": "2020-04-07T08:51:02.442Z",
			"val": 3
		},
		{
			"dt": "2020-04-07T08:52:42.442Z",
			"val": 3.713
		},
		{
			"dt": "2020-04-07T08:54:22.442Z",
			"val": 4.701
		},
		{
			"dt": "2020-04-07T08:56:02.442Z",
			"val": 5.606
		},
		{
			"dt": "2020-04-07T08:57:42.442Z",
			"val": 5.042
		},
		{
			"dt": "2020-04-07T08:59:22.442Z",
			"val": 5.897
		},
		{
			"dt": "2020-04-07T09:01:02.442Z",
			"val": 6.534
		},
		{
			"dt": "2020-04-07T09:02:42.442Z",
			"val": 6.325
		},
		{
			"dt": "2020-04-07T09:04:22.442Z",
			"val": 7.301
		},
		{
			"dt": "2020-04-07T09:06:02.442Z",
			"val": 6.553
		},
		{
			"dt": "2020-04-07T09:07:42.442Z",
			"val": 6.525
		},
		{
			"dt": "2020-04-07T09:09:22.442Z",
			"val": 7.492
		}
	],
	"Leach_Thickener6.Duct": [
		{
			"dt": "2020-04-07T08:07:42.442Z",
			"val": 3.992
		},
		{
			"dt": "2020-04-07T08:09:22.442Z",
			"val": 4.749
		},
		{
			"dt": "2020-04-07T08:11:02.442Z",
			"val": 4.7
		},
		{
			"dt": "2020-04-07T08:12:42.442Z",
			"val": 5.49
		},
		{
			"dt": "2020-04-07T08:14:22.442Z",
			"val": 4.936
		},
		{
			"dt": "2020-04-07T08:16:02.442Z",
			"val": 5.663
		},
		{
			"dt": "2020-04-07T08:17:42.442Z",
			"val": 4.694
		},
		{
			"dt": "2020-04-07T08:19:22.442Z",
			"val": 4.578
		},
		{
			"dt": "2020-04-07T08:21:02.442Z",
			"val": 5.468
		},
		{
			"dt": "2020-04-07T08:22:42.442Z",
			"val": 5.627
		},
		{
			"dt": "2020-04-07T08:24:22.442Z",
			"val": 4.731
		},
		{
			"dt": "2020-04-07T08:26:02.442Z",
			"val": 5.562
		},
		{
			"dt": "2020-04-07T08:27:42.442Z",
			"val": 5.81
		},
		{
			"dt": "2020-04-07T08:29:22.442Z",
			"val": 6.707
		},
		{
			"dt": "2020-04-07T08:31:02.442Z",
			"val": 7.137
		},
		{
			"dt": "2020-04-07T08:32:42.442Z",
			"val": 7.965
		},
		{
			"dt": "2020-04-07T08:34:22.442Z",
			"val": 7.855
		},
		{
			"dt": "2020-04-07T08:36:02.442Z",
			"val": 8.387
		},
		{
			"dt": "2020-04-07T08:37:42.442Z",
			"val": 8.383
		},
		{
			"dt": "2020-04-07T08:39:22.442Z",
			"val": 9.236
		},
		{
			"dt": "2020-04-07T08:41:02.442Z",
			"val": 8.328
		},
		{
			"dt": "2020-04-07T08:42:42.442Z",
			"val": 9.296
		},
		{
			"dt": "2020-04-07T08:44:22.442Z",
			"val": 9.292
		},
		{
			"dt": "2020-04-07T08:46:02.442Z",
			"val": 9.554
		},
		{
			"dt": "2020-04-07T08:47:42.442Z",
			"val": 8.941
		},
		{
			"dt": "2020-04-07T08:49:22.442Z",
			"val": 9.683
		},
		{
			"dt": "2020-04-07T08:51:02.442Z",
			"val": 10.533
		},
		{
			"dt": "2020-04-07T08:52:42.442Z",
			"val": 10.727
		},
		{
			"dt": "2020-04-07T08:54:22.442Z",
			"val": 10.068
		},
		{
			"dt": "2020-04-07T08:56:02.442Z",
			"val": 11.03
		},
		{
			"dt": "2020-04-07T08:57:42.442Z",
			"val": 10.657
		},
		{
			"dt": "2020-04-07T08:59:22.442Z",
			"val": 10.83
		},
		{
			"dt": "2020-04-07T09:01:02.442Z",
			"val": 10.452
		},
		{
			"dt": "2020-04-07T09:02:42.442Z",
			"val": 9.599
		},
		{
			"dt": "2020-04-07T09:04:22.442Z",
			"val": 8.951
		},
		{
			"dt": "2020-04-07T09:06:02.442Z",
			"val": 8.922
		},
		{
			"dt": "2020-04-07T09:07:42.442Z",
			"val": 8.412
		},
		{
			"dt": "2020-04-07T09:09:22.442Z",
			"val": 7.798
		}
	],
	"Leach_Thickener7.Duct": [
		{
			"dt": "2020-04-07T08:07:42.442Z",
			"val": 1.878
		},
		{
			"dt": "2020-04-07T08:09:22.442Z",
			"val": 0.909
		},
		{
			"dt": "2020-04-07T08:11:02.442Z",
			"val": 1.293
		},
		{
			"dt": "2020-04-07T08:12:42.442Z",
			"val": 1.985
		},
		{
			"dt": "2020-04-07T08:14:22.442Z",
			"val": 2.612
		},
		{
			"dt": "2020-04-07T08:16:02.442Z",
			"val": 2.17
		},
		{
			"dt": "2020-04-07T08:17:42.442Z",
			"val": 1.88
		},
		{
			"dt": "2020-04-07T08:19:22.442Z",
			"val": 2.156
		},
		{
			"dt": "2020-04-07T08:21:02.442Z",
			"val": 2.495
		},
		{
			"dt": "2020-04-07T08:22:42.442Z",
			"val": 2.16
		},
		{
			"dt": "2020-04-07T08:24:22.442Z",
			"val": 1.943
		},
		{
			"dt": "2020-04-07T08:26:02.442Z",
			"val": 1.713
		},
		{
			"dt": "2020-04-07T08:27:42.442Z",
			"val": 0.851
		},
		{
			"dt": "2020-04-07T08:29:22.442Z",
			"val": 0.983
		},
		{
			"dt": "2020-04-07T08:31:02.442Z",
			"val": 0.52
		},
		{
			"dt": "2020-04-07T08:32:42.442Z",
			"val": 0.71
		},
		{
			"dt": "2020-04-07T08:34:22.442Z",
			"val": 0.867
		},
		{
			"dt": "2020-04-07T08:36:02.442Z",
			"val": 1.731
		},
		{
			"dt": "2020-04-07T08:37:42.442Z",
			"val": 1.616
		},
		{
			"dt": "2020-04-07T08:39:22.442Z",
			"val": 1.922
		},
		{
			"dt": "2020-04-07T08:41:02.442Z",
			"val": 2.492
		},
		{
			"dt": "2020-04-07T08:42:42.442Z",
			"val": 3.371
		},
		{
			"dt": "2020-04-07T08:44:22.442Z",
			"val": 2.829
		},
		{
			"dt": "2020-04-07T08:46:02.442Z",
			"val": 2.523
		},
		{
			"dt": "2020-04-07T08:47:42.442Z",
			"val": 3.273
		},
		{
			"dt": "2020-04-07T08:49:22.442Z",
			"val": 3.366
		},
		{
			"dt": "2020-04-07T08:51:02.442Z",
			"val": 4.301
		},
		{
			"dt": "2020-04-07T08:52:42.442Z",
			"val": 3.61
		},
		{
			"dt": "2020-04-07T08:54:22.442Z",
			"val": 2.832
		},
		{
			"dt": "2020-04-07T08:56:02.442Z",
			"val": 2.606
		},
		{
			"dt": "2020-04-07T08:57:42.442Z",
			"val": 2.966
		},
		{
			"dt": "2020-04-07T08:59:22.442Z",
			"val": 2.159
		},
		{
			"dt": "2020-04-07T09:01:02.442Z",
			"val": 1.727
		},
		{
			"dt": "2020-04-07T09:02:42.442Z",
			"val": 0.806
		},
		{
			"dt": "2020-04-07T09:04:22.442Z",
			"val": 0.595
		},
		{
			"dt": "2020-04-07T09:06:02.442Z",
			"val": 0.98
		},
		{
			"dt": "2020-04-07T09:07:42.442Z",
			"val": 0.081
		},
		{
			"dt": "2020-04-07T09:09:22.442Z",
			"val": 0.764
		}
	],
	"Leach_Thickener8.Duct": [
		{
			"dt": "2020-04-07T08:07:42.442Z",
			"val": 5.353
		},
		{
			"dt": "2020-04-07T08:09:22.442Z",
			"val": 4.574
		},
		{
			"dt": "2020-04-07T08:11:02.442Z",
			"val": 4.526
		},
		{
			"dt": "2020-04-07T08:12:42.442Z",
			"val": 4.502
		},
		{
			"dt": "2020-04-07T08:14:22.442Z",
			"val": 5.211
		},
		{
			"dt": "2020-04-07T08:16:02.442Z",
			"val": 5.113
		},
		{
			"dt": "2020-04-07T08:17:42.442Z",
			"val": 5.47
		},
		{
			"dt": "2020-04-07T08:19:22.442Z",
			"val": 5.042
		},
		{
			"dt": "2020-04-07T08:21:02.442Z",
			"val": 4.209
		},
		{
			"dt": "2020-04-07T08:22:42.442Z",
			"val": 4.99
		},
		{
			"dt": "2020-04-07T08:24:22.442Z",
			"val": 4.008
		},
		{
			"dt": "2020-04-07T08:26:02.442Z",
			"val": 3.061
		},
		{
			"dt": "2020-04-07T08:27:42.442Z",
			"val": 3.605
		},
		{
			"dt": "2020-04-07T08:29:22.442Z",
			"val": 3.94
		},
		{
			"dt": "2020-04-07T08:31:02.442Z",
			"val": 4.609
		},
		{
			"dt": "2020-04-07T08:32:42.442Z",
			"val": 4.233
		},
		{
			"dt": "2020-04-07T08:34:22.442Z",
			"val": 4.949
		},
		{
			"dt": "2020-04-07T08:36:02.442Z",
			"val": 4.901
		},
		{
			"dt": "2020-04-07T08:37:42.442Z",
			"val": 4.68
		},
		{
			"dt": "2020-04-07T08:39:22.442Z",
			"val": 3.879
		},
		{
			"dt": "2020-04-07T08:41:02.442Z",
			"val": 2.984
		},
		{
			"dt": "2020-04-07T08:42:42.442Z",
			"val": 2.475
		},
		{
			"dt": "2020-04-07T08:44:22.442Z",
			"val": 3.358
		},
		{
			"dt": "2020-04-07T08:46:02.442Z",
			"val": 3.388
		},
		{
			"dt": "2020-04-07T08:47:42.442Z",
			"val": 3.15
		},
		{
			"dt": "2020-04-07T08:49:22.442Z",
			"val": 3.666
		},
		{
			"dt": "2020-04-07T08:51:02.442Z",
			"val": 2.926
		},
		{
			"dt": "2020-04-07T08:52:42.442Z",
			"val": 3.914
		},
		{
			"dt": "2020-04-07T08:54:22.442Z",
			"val": 3.546
		},
		{
			"dt": "2020-04-07T08:56:02.442Z",
			"val": 4.044
		},
		{
			"dt": "2020-04-07T08:57:42.442Z",
			"val": 4.09
		},
		{
			"dt": "2020-04-07T08:59:22.442Z",
			"val": 4.614
		},
		{
			"dt": "2020-04-07T09:01:02.442Z",
			"val": 5.483
		},
		{
			"dt": "2020-04-07T09:02:42.442Z",
			"val": 6.006
		},
		{
			"dt": "2020-04-07T09:04:22.442Z",
			"val": 6.151
		},
		{
			"dt": "2020-04-07T09:06:02.442Z",
			"val": 5.495
		},
		{
			"dt": "2020-04-07T09:07:42.442Z",
			"val": 6.493
		},
		{
			"dt": "2020-04-07T09:09:22.442Z",
			"val": 7.179
		}
	],
	"Leach_Thickener9.Duct": [
		{
			"dt": "2020-04-07T08:07:42.442Z",
			"val": 0.434
		},
		{
			"dt": "2020-04-07T08:09:22.442Z",
			"val": 0.453
		},
		{
			"dt": "2020-04-07T08:11:02.442Z",
			"val": 0.132
		},
		{
			"dt": "2020-04-07T08:12:42.442Z",
			"val": 0.208
		},
		{
			"dt": "2020-04-07T08:14:22.442Z",
			"val": 0.594
		},
		{
			"dt": "2020-04-07T08:16:02.442Z",
			"val": 1.376
		},
		{
			"dt": "2020-04-07T08:17:42.442Z",
			"val": 2.333
		},
		{
			"dt": "2020-04-07T08:19:22.442Z",
			"val": 1.86
		},
		{
			"dt": "2020-04-07T08:21:02.442Z",
			"val": 2.86
		},
		{
			"dt": "2020-04-07T08:22:42.442Z",
			"val": 3.547
		},
		{
			"dt": "2020-04-07T08:24:22.442Z",
			"val": 3.204
		},
		{
			"dt": "2020-04-07T08:26:02.442Z",
			"val": 3.555
		},
		{
			"dt": "2020-04-07T08:27:42.442Z",
			"val": 4.272
		},
		{
			"dt": "2020-04-07T08:29:22.442Z",
			"val": 3.695
		},
		{
			"dt": "2020-04-07T08:31:02.442Z",
			"val": 4.174
		},
		{
			"dt": "2020-04-07T08:32:42.442Z",
			"val": 3.5
		},
		{
			"dt": "2020-04-07T08:34:22.442Z",
			"val": 4.492
		},
		{
			"dt": "2020-04-07T08:36:02.442Z",
			"val": 5.385
		},
		{
			"dt": "2020-04-07T08:37:42.442Z",
			"val": 5.699
		},
		{
			"dt": "2020-04-07T08:39:22.442Z",
			"val": 6.251
		},
		{
			"dt": "2020-04-07T08:41:02.442Z",
			"val": 6.115
		},
		{
			"dt": "2020-04-07T08:42:42.442Z",
			"val": 5.803
		},
		{
			"dt": "2020-04-07T08:44:22.442Z",
			"val": 5.639
		},
		{
			"dt": "2020-04-07T08:46:02.442Z",
			"val": 4.746
		},
		{
			"dt": "2020-04-07T08:47:42.442Z",
			"val": 4.978
		},
		{
			"dt": "2020-04-07T08:49:22.442Z",
			"val": 4.581
		},
		{
			"dt": "2020-04-07T08:51:02.442Z",
			"val": 5.237
		},
		{
			"dt": "2020-04-07T08:52:42.442Z",
			"val": 6.186
		},
		{
			"dt": "2020-04-07T08:54:22.442Z",
			"val": 6.428
		},
		{
			"dt": "2020-04-07T08:56:02.442Z",
			"val": 6.394
		},
		{
			"dt": "2020-04-07T08:57:42.442Z",
			"val": 5.917
		},
		{
			"dt": "2020-04-07T08:59:22.442Z",
			"val": 5.353
		},
		{
			"dt": "2020-04-07T09:01:02.442Z",
			"val": 6.097
		},
		{
			"dt": "2020-04-07T09:02:42.442Z",
			"val": 5.803
		},
		{
			"dt": "2020-04-07T09:04:22.442Z",
			"val": 6.416
		},
		{
			"dt": "2020-04-07T09:06:02.442Z",
			"val": 7.248
		},
		{
			"dt": "2020-04-07T09:07:42.442Z",
			"val": 8.059
		},
		{
			"dt": "2020-04-07T09:09:22.442Z",
			"val": 7.903
		}
	],
	"Leach_Thickener10.Duct": [
		{
			"dt": "2020-04-07T08:07:42.442Z",
			"val": 10.655
		},
		{
			"dt": "2020-04-07T08:09:22.442Z",
			"val": 10.914
		},
		{
			"dt": "2020-04-07T08:11:02.442Z",
			"val": 10.94
		},
		{
			"dt": "2020-04-07T08:12:42.442Z",
			"val": 11.579
		},
		{
			"dt": "2020-04-07T08:14:22.442Z",
			"val": 11.113
		},
		{
			"dt": "2020-04-07T08:16:02.442Z",
			"val": 11.379
		},
		{
			"dt": "2020-04-07T08:17:42.442Z",
			"val": 12.129
		},
		{
			"dt": "2020-04-07T08:19:22.442Z",
			"val": 11.49
		},
		{
			"dt": "2020-04-07T08:21:02.442Z",
			"val": 11.46
		},
		{
			"dt": "2020-04-07T08:22:42.442Z",
			"val": 11.918
		},
		{
			"dt": "2020-04-07T08:24:22.442Z",
			"val": 11.793
		},
		{
			"dt": "2020-04-07T08:26:02.442Z",
			"val": 12.211
		},
		{
			"dt": "2020-04-07T08:27:42.442Z",
			"val": 12.842
		},
		{
			"dt": "2020-04-07T08:29:22.442Z",
			"val": 13.838
		},
		{
			"dt": "2020-04-07T08:31:02.442Z",
			"val": 14.15
		},
		{
			"dt": "2020-04-07T08:32:42.442Z",
			"val": 14.966
		},
		{
			"dt": "2020-04-07T08:34:22.442Z",
			"val": 14.14
		},
		{
			"dt": "2020-04-07T08:36:02.442Z",
			"val": 15.132
		},
		{
			"dt": "2020-04-07T08:37:42.442Z",
			"val": 15.796
		},
		{
			"dt": "2020-04-07T08:39:22.442Z",
			"val": 16.052
		},
		{
			"dt": "2020-04-07T08:41:02.442Z",
			"val": 15.345
		},
		{
			"dt": "2020-04-07T08:42:42.442Z",
			"val": 14.423
		},
		{
			"dt": "2020-04-07T08:44:22.442Z",
			"val": 15.283
		},
		{
			"dt": "2020-04-07T08:46:02.442Z",
			"val": 14.588
		},
		{
			"dt": "2020-04-07T08:47:42.442Z",
			"val": 14.273
		},
		{
			"dt": "2020-04-07T08:49:22.442Z",
			"val": 14.196
		},
		{
			"dt": "2020-04-07T08:51:02.442Z",
			"val": 13.339
		},
		{
			"dt": "2020-04-07T08:52:42.442Z",
			"val": 13.218
		},
		{
			"dt": "2020-04-07T08:54:22.442Z",
			"val": 13.785
		},
		{
			"dt": "2020-04-07T08:56:02.442Z",
			"val": 13.662
		},
		{
			"dt": "2020-04-07T08:57:42.442Z",
			"val": 14.247
		},
		{
			"dt": "2020-04-07T08:59:22.442Z",
			"val": 14.474
		},
		{
			"dt": "2020-04-07T09:01:02.442Z",
			"val": 14.634
		},
		{
			"dt": "2020-04-07T09:02:42.442Z",
			"val": 15.119
		},
		{
			"dt": "2020-04-07T09:04:22.442Z",
			"val": 14.604
		},
		{
			"dt": "2020-04-07T09:06:02.442Z",
			"val": 13.629
		},
		{
			"dt": "2020-04-07T09:07:42.442Z",
			"val": 13.722
		},
		{
			"dt": "2020-04-07T09:09:22.442Z",
			"val": 13.026
		}
	],
	"Leach_Thickener12.Duct": [
		{
			"dt": "2020-04-07T08:07:42.442Z",
			"val": 6.265
		},
		{
			"dt": "2020-04-07T08:09:22.442Z",
			"val": 5.682
		},
		{
			"dt": "2020-04-07T08:11:02.442Z",
			"val": 6.347
		},
		{
			"dt": "2020-04-07T08:12:42.442Z",
			"val": 6.065
		},
		{
			"dt": "2020-04-07T08:14:22.442Z",
			"val": 6.315
		},
		{
			"dt": "2020-04-07T08:16:02.442Z",
			"val": 5.385
		},
		{
			"dt": "2020-04-07T08:17:42.442Z",
			"val": 4.401
		},
		{
			"dt": "2020-04-07T08:19:22.442Z",
			"val": 4.285
		},
		{
			"dt": "2020-04-07T08:21:02.442Z",
			"val": 5.135
		},
		{
			"dt": "2020-04-07T08:22:42.442Z",
			"val": 5.664
		},
		{
			"dt": "2020-04-07T08:24:22.442Z",
			"val": 6.199
		},
		{
			"dt": "2020-04-07T08:26:02.442Z",
			"val": 5.65
		},
		{
			"dt": "2020-04-07T08:27:42.442Z",
			"val": 5.849
		},
		{
			"dt": "2020-04-07T08:29:22.442Z",
			"val": 4.981
		},
		{
			"dt": "2020-04-07T08:31:02.442Z",
			"val": 5.633
		},
		{
			"dt": "2020-04-07T08:32:42.442Z",
			"val": 5.48
		},
		{
			"dt": "2020-04-07T08:34:22.442Z",
			"val": 5.846
		},
		{
			"dt": "2020-04-07T08:36:02.442Z",
			"val": 5.69
		},
		{
			"dt": "2020-04-07T08:37:42.442Z",
			"val": 4.942
		},
		{
			"dt": "2020-04-07T08:39:22.442Z",
			"val": 4.208
		},
		{
			"dt": "2020-04-07T08:41:02.442Z",
			"val": 5.18
		},
		{
			"dt": "2020-04-07T08:42:42.442Z",
			"val": 5.414
		},
		{
			"dt": "2020-04-07T08:44:22.442Z",
			"val": 4.633
		},
		{
			"dt": "2020-04-07T08:46:02.442Z",
			"val": 3.797
		},
		{
			"dt": "2020-04-07T08:47:42.442Z",
			"val": 3.197
		},
		{
			"dt": "2020-04-07T08:49:22.442Z",
			"val": 3.197
		},
		{
			"dt": "2020-04-07T08:51:02.442Z",
			"val": 2.69
		},
		{
			"dt": "2020-04-07T08:52:42.442Z",
			"val": 3.079
		},
		{
			"dt": "2020-04-07T08:54:22.442Z",
			"val": 2.862
		},
		{
			"dt": "2020-04-07T08:56:02.442Z",
			"val": 3.378
		},
		{
			"dt": "2020-04-07T08:57:42.442Z",
			"val": 4.375
		},
		{
			"dt": "2020-04-07T08:59:22.442Z",
			"val": 5.153
		},
		{
			"dt": "2020-04-07T09:01:02.442Z",
			"val": 4.493
		},
		{
			"dt": "2020-04-07T09:02:42.442Z",
			"val": 4.154
		},
		{
			"dt": "2020-04-07T09:04:22.442Z",
			"val": 3.79
		},
		{
			"dt": "2020-04-07T09:06:02.442Z",
			"val": 3.762
		},
		{
			"dt": "2020-04-07T09:07:42.442Z",
			"val": 3.334
		},
		{
			"dt": "2020-04-07T09:09:22.442Z",
			"val": 4.248
		}
	],
	"Leach_Thickener11.Duct": [
		{
			"dt": "2020-04-07T08:07:42.442Z",
			"val": 0.021
		},
		{
			"dt": "2020-04-07T08:09:22.442Z",
			"val": 0.344
		},
		{
			"dt": "2020-04-07T08:11:02.442Z",
			"val": 0.121
		},
		{
			"dt": "2020-04-07T08:12:42.442Z",
			"val": 0.034
		},
		{
			"dt": "2020-04-07T08:14:22.442Z",
			"val": 0.074
		},
		{
			"dt": "2020-04-07T08:16:02.442Z",
			"val": 0.634
		},
		{
			"dt": "2020-04-07T08:17:42.442Z",
			"val": 0.408
		},
		{
			"dt": "2020-04-07T08:19:22.442Z",
			"val": 0.101
		},
		{
			"dt": "2020-04-07T08:21:02.442Z",
			"val": 0.948
		},
		{
			"dt": "2020-04-07T08:22:42.442Z",
			"val": 1.887
		},
		{
			"dt": "2020-04-07T08:24:22.442Z",
			"val": 2.839
		},
		{
			"dt": "2020-04-07T08:26:02.442Z",
			"val": 1.93
		},
		{
			"dt": "2020-04-07T08:27:42.442Z",
			"val": 2.339
		},
		{
			"dt": "2020-04-07T08:29:22.442Z",
			"val": 1.587
		},
		{
			"dt": "2020-04-07T08:31:02.442Z",
			"val": 1.378
		},
		{
			"dt": "2020-04-07T08:32:42.442Z",
			"val": 0.728
		},
		{
			"dt": "2020-04-07T08:34:22.442Z",
			"val": 0.134
		},
		{
			"dt": "2020-04-07T08:36:02.442Z",
			"val": 0.437
		},
		{
			"dt": "2020-04-07T08:37:42.442Z",
			"val": 0.364
		},
		{
			"dt": "2020-04-07T08:39:22.442Z",
			"val": 0.101
		},
		{
			"dt": "2020-04-07T08:41:02.442Z",
			"val": 0.104
		},
		{
			"dt": "2020-04-07T08:42:42.442Z",
			"val": 0.648
		},
		{
			"dt": "2020-04-07T08:44:22.442Z",
			"val": 0.48
		},
		{
			"dt": "2020-04-07T08:46:02.442Z",
			"val": 0.195
		},
		{
			"dt": "2020-04-07T08:47:42.442Z",
			"val": 0.501
		},
		{
			"dt": "2020-04-07T08:49:22.442Z",
			"val": 1.474
		},
		{
			"dt": "2020-04-07T08:51:02.442Z",
			"val": 1.407
		},
		{
			"dt": "2020-04-07T08:52:42.442Z",
			"val": 2.038
		},
		{
			"dt": "2020-04-07T08:54:22.442Z",
			"val": 1.207
		},
		{
			"dt": "2020-04-07T08:56:02.442Z",
			"val": 1.737
		},
		{
			"dt": "2020-04-07T08:57:42.442Z",
			"val": 2.727
		},
		{
			"dt": "2020-04-07T08:59:22.442Z",
			"val": 2.148
		},
		{
			"dt": "2020-04-07T09:01:02.442Z",
			"val": 1.748
		},
		{
			"dt": "2020-04-07T09:02:42.442Z",
			"val": 2.069
		},
		{
			"dt": "2020-04-07T09:04:22.442Z",
			"val": 1.419
		},
		{
			"dt": "2020-04-07T09:06:02.442Z",
			"val": 1.971
		},
		{
			"dt": "2020-04-07T09:07:42.442Z",
			"val": 2.767
		},
		{
			"dt": "2020-04-07T09:09:22.442Z",
			"val": 2.734
		}
	]
}