<?xml version="1.0" encoding="UTF-8" standalone="no"?>
<!-- Created with Inkscape (http://www.inkscape.org/) -->

<svg
   xmlns:dc="http://purl.org/dc/elements/1.1/"
   xmlns:cc="http://creativecommons.org/ns#"
   xmlns:rdf="http://www.w3.org/1999/02/22-rdf-syntax-ns#"
   xmlns:svg="http://www.w3.org/2000/svg"
   xmlns="http://www.w3.org/2000/svg"
   xmlns:sodipodi="http://sodipodi.sourceforge.net/DTD/sodipodi-0.dtd"
   xmlns:inkscape="http://www.inkscape.org/namespaces/inkscape"
   width="65"
   height="33"
   viewBox="0 0 17.197916 8.7312502"
   version="1.1"
   id="svg16444"
   inkscape:version="0.92.4 (5da689c313, 2019-01-14)"
   sodipodi:docname="pump_90_003.svg">
  <defs
     id="defs16438">
    <inkscape:perspective
       sodipodi:type="inkscape:persp3d"
       inkscape:vp_x="0 : 8.5989585 : 1"
       inkscape:vp_y="0 : 1000 : 0"
       inkscape:vp_z="8.7312497 : 8.5989585 : 1"
       inkscape:persp3d-origin="4.3656248 : 5.732639 : 1"
       id="perspective3012" />
  </defs>
  <sodipodi:namedview
     id="base"
     pagecolor="#ffffff"
     bordercolor="#666666"
     borderopacity="1.0"
     inkscape:pageopacity="0.0"
     inkscape:pageshadow="2"
     inkscape:zoom="15.839192"
     inkscape:cx="23.837939"
     inkscape:cy="19.014736"
     inkscape:document-units="mm"
     inkscape:current-layer="layer1"
     showgrid="false"
     units="px"
     inkscape:window-width="1920"
     inkscape:window-height="1001"
     inkscape:window-x="-9"
     inkscape:window-y="-9"
     inkscape:window-maximized="1"
     inkscape:snap-nodes="false" />
  <metadata
     id="metadata16441">
    <rdf:RDF>
      <cc:Work
         rdf:about="">
        <dc:format>image/svg+xml</dc:format>
        <dc:type
           rdf:resource="http://purl.org/dc/dcmitype/StillImage" />
        <dc:title />
      </cc:Work>
    </rdf:RDF>
  </metadata>
  <g
     inkscape:label="Layer 1"
     inkscape:groupmode="layer"
     id="layer1"
     transform="translate(0,-288.26874)">
    <path
       inkscape:connector-curvature="0"
       id="rect28573"
       d="m 1.1764411,294.25103 c 0.0131,0.14865 0.0268,0.24527 0.0268,0.24527 h 3.71841 c -0.28334,-0.54135 -0.43197,-1.14051 -0.43332,-1.74876 7.1e-4,-0.62435 0.15666,-1.23904 0.45396,-1.79144 -0.72363,0.69044 -1.8526,1.29339 -3.32168,1.32388 -0.24962,0.006 -0.37938,0.1141 -0.44411,0.28185 z m 0.42537,-0.75409 c -0.003,-0.4554 0.11655,-0.71044 0.47926,-0.78786 0.82523,-0.17608 1.42558,-0.10643 2.46161,-1.11707 -0.33435,0.85451 -0.4438,1.57797 -0.29733,2.21023 -1.03594,0.032 -1.91821,0.0245 -2.57226,0.0352 -0.0469,-0.0643 -0.0705,-0.18867 -0.0712,-0.34046 z m 3.23301,-0.7494 c -6e-5,2.1128 1.74963,3.82541 3.90835,3.82533 2.1587309,8e-5 3.9088909,-1.71254 3.9088109,-3.82533 8e-5,-2.1128 -1.75008,-3.82541 -3.9088109,-3.82534 -2.15872,-8e-5 -3.90841,1.71254 -3.90835,3.82534 z m 1.00734,0.0239 c 4.8e-4,-0.63384 0.21712,-1.24971 0.61576,-1.74923 -0.0176,0.0123 -0.0326,0.0259 -0.0497,0.0385 0.52055,-0.68802 1.34848,-1.14005 2.28714,-1.15506 -2e-5,2.4e-4 0,6.9e-4 0,9.5e-4 0.0191,-0.001 0.0384,-0.002 0.0577,-0.003 0.0191,7.1e-4 0.0384,0.002 0.0577,0.003 -1e-5,-2.4e-4 10e-6,-6.9e-4 0,-9.5e-4 0.92128,0.0147 1.7359409,0.45004 2.2580609,1.1166 h -0.0105 c 0.24361,0.30524 0.41832,0.65463 0.51822,1.02422 0.004,0.0166 0.009,0.033 0.0131,0.0497 0.0118,0.0483 0.0223,0.0969 0.0319,0.14585 0.0118,0.0671 0.0236,0.13444 0.0309,0.20306 7.2e-4,0.006 0.003,0.0128 0.003,0.0192 0.009,0.0932 0.0145,0.18763 0.0145,0.28325 -4.5e-4,0.63384 -0.21706,1.24925 -0.61572,1.74877 0.0174,-0.0123 0.0322,-0.0251 0.0492,-0.0375 -0.52055,0.68781 -1.3486409,1.13911 -2.2871309,1.15412 v -4.6e-4 c -0.0191,10e-4 -0.038,10e-4 -0.0572,0.002 -0.0191,-8e-4 -0.038,-0.001 -0.0572,-0.002 v 4.6e-4 c -0.92139,-0.0147 -1.73687,-0.4499 -2.259,-1.1166 h 0.0118 c -0.24387,-0.30556 -0.41882,-0.65466 -0.51868,-1.02468 -0.004,-0.0161 -0.009,-0.0321 -0.0131,-0.0483 -0.0118,-0.0486 -0.0218,-0.0976 -0.0313,-0.14679 -0.0118,-0.0654 -0.0232,-0.13102 -0.0306,-0.1979 -7.2e-4,-0.009 -0.003,-0.0168 -0.004,-0.0253 -0.009,-0.0927 -0.0142,-0.18675 -0.0142,-0.28185 z m 6.5406309,2.04281 c 0.74911,-0.64381 1.991519,-1.3475 3.460489,-1.50491 0.11341,-0.003 0.20158,-0.0301 0.27294,-0.0741 v -2.21304 h -3.539269 c 0.27556,0.53516 0.4196,1.12605 0.42113,1.72532 -2.3e-4,0.73211 -0.21382,1.44898 -0.61529,2.06672 z m 0.57917,-0.66077 c 0.33406,-0.85413 0.44375,-1.6434 0.29734,-2.27541 1.035929,-0.032 1.419699,0.0228 2.073749,0.0122 0.81171,0.0794 0.44211,1.14861 0.0563,1.25401 -0.82507,0.17605 -1.391599,-9.8e-4 -2.427359,1.00921 z"
       style="fill:#cccccc;fill-opacity:1;stroke:#ffffff;stroke-width:0;stroke-linejoin:round;stroke-miterlimit:4;stroke-dasharray:none;stroke-opacity:1;paint-order:markers stroke fill" />
    <rect
       y="0.47280934"
       x="-295.0416"
       height="0.53057134"
       width="3.1336873"
       id="rect28695"
       style="fill:#cccccc;fill-opacity:1;stroke:#ff0000;stroke-width:0;stroke-linejoin:round;stroke-miterlimit:4;stroke-dasharray:none;stroke-opacity:1;paint-order:markers stroke fill"
       transform="rotate(-90)" />
    <rect
       style="fill:#cccccc;fill-opacity:1;stroke:#ff0000;stroke-width:0;stroke-linejoin:round;stroke-miterlimit:4;stroke-dasharray:none;stroke-opacity:1;paint-order:markers stroke fill"
       id="rect28697"
       width="3.1336873"
       height="0.53057134"
       x="-293.79886"
       y="16.352053"
       transform="rotate(-90)" />
    <path
       style="fill:#00ff00;fill-opacity:1;stroke:#ffffff;stroke-width:0;stroke-linejoin:round;stroke-miterlimit:4;stroke-dasharray:none;stroke-opacity:1;paint-order:markers stroke fill"
       d="m 6.2886521,291.45588 c -0.00152,-0.004 -0.00712,0.006 -0.04083,0.0727 -0.02981,0.0576 -0.058555,0.11741 -0.085465,0.18103 -0.022499,0.053 -0.063106,0.1571 -0.065789,0.16955 -0.00406,0.017 0.033755,0.14895 0.064969,0.23083 0.1316187,0.35171 0.338113,0.51161 0.583225,0.69186 0.2526905,0.15633 0.5920632,0.26103 0.9425503,0.29097 0.05879,0.005 0.1079133,0.007 0.1087192,0.004 2.816e-4,-9.5e-4 0.016939,-0.0276 0.02896,-0.0481 a 0.98022794,0.95937208 30 0 0 0.1792349,0.30791 l -0.00938,0.0323 c -0.026644,0.09 -0.070356,0.20546 -0.1041518,0.2734 -0.289455,0.49935 -0.4964748,0.62234 -0.9133679,0.68016 -0.1048824,6e-5 -0.1912352,-0.0147 -0.2939022,-0.0505 -0.067062,-0.0231 -0.1518941,-0.0636 -0.2115693,-0.1 -0.016352,-0.01 -0.030412,-0.0175 -0.031671,-0.0178 -0.0031,-6.3e-4 8.465e-4,0.009 0.042457,0.072 0.034829,0.0549 0.0726,0.10973 0.114235,0.1648 0.034281,0.046 0.1046435,0.13281 0.1142349,0.14124 0.012978,0.0118 0.1454521,0.0452 0.2320483,0.0591 0.3703957,0.0619 0.6125438,-0.0372 0.8912035,-0.15931 l -4.49e-4,-2.6e-4 c 0.2616007,-0.14085 0.5220665,-0.38219 0.7232349,-0.67072 0.031593,-0.0448 0.051024,-0.0784 0.05289,-0.0856 a 0.98022794,0.95937208 30 0 0 0.29057,0.002 l 0.035342,0.0396 c 0.062707,0.0696 0.1379633,0.16776 0.1787755,0.23169 0.2749147,0.50748 0.2716748,0.74867 0.1034764,1.13444 -0.054966,0.0892 -0.1123123,0.15553 -0.196351,0.22449 -0.055215,0.0444 -0.1333216,0.0963 -0.1954058,0.12867 -0.016753,0.008 -0.030914,0.0163 -0.031694,0.0175 -0.00156,0.003 0.00746,0.003 0.083099,0.002 0.064977,-0.001 0.1316503,-0.005 0.2003671,-0.0122 0.057166,-0.005 0.1678731,-0.0196 0.1801708,-0.0233 0.016897,-0.006 0.1145995,-0.10049 0.1718207,-0.167 0.2461697,-0.28358 0.2878014,-0.54249 0.3291154,-0.84391 0.016447,-0.29665 -0.053666,-0.64449 -0.1947916,-0.96666 -0.02368,-0.0542 -0.045336,-0.0985 -0.048607,-0.0978 -5.236e-4,6e-5 -0.00687,-0.006 -0.00871,-0.009 a 0.98022794,0.95937208 30 0 0 0.08613,-0.12198 0.98022794,0.95937208 30 0 0 0.05479,-0.1129 l 0.049432,-0.01 c 0.091663,-0.0195 0.2141448,-0.0355 0.2898964,-0.0389 0.5769645,0.0156 0.7844165,0.13885 1.0343995,0.47739 0.05011,0.092 0.07833,0.17477 0.09594,0.28206 0.01101,0.0701 0.01667,0.16413 0.01373,0.23397 -0.0014,0.0184 -9.17e-4,0.0343 -1.4e-4,0.0357 0.0015,0.004 0.0061,-0.005 0.04231,-0.0713 0.0316,-0.0568 0.0616,-0.1167 0.09008,-0.17962 0.02428,-0.052 0.06659,-0.15494 0.06951,-0.16739 0.0042,-0.0172 -0.02942,-0.1494 -0.05868,-0.23214 -0.122558,-0.35495 -0.325564,-0.52021 -0.566039,-0.70665 l 2.67e-4,-4.7e-4 c -0.248693,-0.1625 -0.585543,-0.27559 -0.9351207,-0.31444 -0.058824,-0.006 -0.1072766,-0.01 -0.10832,-0.007 -5.511e-4,0.002 0.00755,0.0375 0.015167,0.0699 a 0.98022794,0.95937208 30 0 0 -0.2120154,-0.38059 l 0.016614,-0.0498 c 0.027902,-0.0895 0.073928,-0.20405 0.1081433,-0.27171 0.29634,-0.49528 0.5057449,-0.6156 0.9233879,-0.66758 0.104848,0.001 0.190749,0.0171 0.29294,0.0543 0.06674,0.0241 0.151244,0.0658 0.210461,0.10298 0.01608,0.009 0.02991,0.0184 0.03154,0.0178 0.0031,6.4e-4 -0.0014,-0.008 -0.04167,-0.0722 -0.03413,-0.0553 -0.07135,-0.11084 -0.11201,-0.16651 -0.03372,-0.0464 -0.102356,-0.1337 -0.111756,-0.14236 -0.01298,-0.0118 -0.145085,-0.0472 -0.23133,-0.0625 -0.369495,-0.067 -0.6129691,0.0287 -0.8933363,0.14696 l -4.583e-4,-2.7e-4 c -0.2635997,0.13711 -0.5275059,0.37463 -0.7326748,0.66033 -0.033729,0.0484 -0.060799,0.0893 -0.058621,0.0915 7.08e-4,7.7e-4 -0.00546,0.0195 -0.00911,0.0368 a 0.98022794,0.95937208 30 0 0 -0.3131988,0.008 l 0.036986,-0.009 -0.03951,-0.0419 c -0.064546,-0.068 -0.1425018,-0.16381 -0.1845563,-0.22698 -0.2877023,-0.50036 -0.2907644,-0.74148 -0.1324276,-1.13139 0.052253,-0.0908 0.1080372,-0.15812 0.1903068,-0.22922 0.053893,-0.0463 0.1311123,-0.0999 0.1924191,-0.13348 0.015737,-0.009 0.030177,-0.0175 0.03105,-0.0186 0.00173,-0.003 -0.00793,-0.002 -0.083244,7.8e-4 -0.064901,0.003 -0.1313184,0.009 -0.1999051,0.0167 -0.057082,0.007 -0.167141,0.0241 -0.1792777,0.028 -0.016897,0.006 -0.1122109,0.10336 -0.1675179,0.17135 -0.2388024,0.28982 -0.2740997,0.54896 -0.3075204,0.85144 -0.00888,0.29698 0.070007,0.64319 0.219318,0.96167 0.025009,0.0535 0.047768,0.0969 0.050785,0.096 2.059e-4,-6e-5 0.00533,7.7e-4 0.00706,0.002 a 0.98022794,0.95937208 30 0 0 -0.083498,0.12102 0.98022794,0.95937208 30 0 0 -0.079724,0.18188 l -0.012848,-0.0389 -0.05567,0.013 c -0.091097,0.022 -0.2132162,0.0421 -0.2889223,0.0469 -0.5771878,-0.001 -0.7873054,-0.11913 -1.0458074,-0.45123 -0.052583,-0.0907 -0.08314,-0.17284 -0.1035269,-0.27965 -0.013278,-0.0698 -0.020565,-0.16338 -0.019013,-0.23333 4.122e-4,-0.0187 -9.98e-5,-0.035 -7.837e-4,-0.0362 z"
       id="ellipse13400"
       inkscape:connector-curvature="0" />
    <path
       sodipodi:type="star"
       style="opacity:0.98000004;fill:#00ff00;fill-opacity:1;stroke:#ececec;stroke-width:0;stroke-linecap:round;stroke-linejoin:round;stroke-miterlimit:4;stroke-dasharray:none;stroke-opacity:1;paint-order:fill markers stroke"
       id="path3064"
       sodipodi:sides="3"
       sodipodi:cx="12.695303"
       sodipodi:cy="286.07535"
       sodipodi:r1="4.2339506"
       sodipodi:r2="3.6667085"
       sodipodi:arg1="0.83563519"
       sodipodi:arg2="1.8828327"
       inkscape:flatsided="true"
       inkscape:rounded="0"
       inkscape:randomized="0"
       d="m 15.535042,289.21577 -6.9792896,-2.25134 5.4393626,-4.91858 z"
       transform="matrix(0.06628703,0.16944317,-0.20275909,0.05684704,73.175691,270.65944)" />
    <path
       transform="matrix(0.06618515,0.16948299,-0.20279323,0.05672513,61.256411,277.72913)"
       d="m 15.535042,289.21577 -6.9792896,-2.25134 5.4393626,-4.91858 z"
       inkscape:randomized="0"
       inkscape:rounded="0"
       inkscape:flatsided="true"
       sodipodi:arg2="1.8828327"
       sodipodi:arg1="0.83563519"
       sodipodi:r2="3.6667085"
       sodipodi:r1="4.2339506"
       sodipodi:cy="286.07535"
       sodipodi:cx="12.695303"
       sodipodi:sides="3"
       id="path3066"
       style="opacity:0.98000004;fill:#00ff00;fill-opacity:1;stroke:#ececec;stroke-width:0;stroke-linecap:round;stroke-linejoin:round;stroke-miterlimit:4;stroke-dasharray:none;stroke-opacity:1;paint-order:fill markers stroke"
       sodipodi:type="star" />
    <rect
       style="opacity:0.98000004;fill:#00ff00;fill-opacity:1;stroke:#cccccc;stroke-width:0.00831398;stroke-linecap:round;stroke-linejoin:round;stroke-miterlimit:4;stroke-dasharray:none;stroke-opacity:1;paint-order:fill markers stroke"
       id="rect3094"
       width="0.39168602"
       height="3.1081779"
       x="-296.30841"
       y="0.51898241"
       transform="rotate(-90)" />
    <rect
       y="12.462585"
       x="-289.27338"
       height="3.1081779"
       width="0.39168602"
       id="rect3096"
       style="opacity:0.98000004;fill:#00ff00;fill-opacity:1;stroke:#cccccc;stroke-width:0;stroke-linecap:round;stroke-linejoin:round;stroke-miterlimit:4;stroke-dasharray:none;stroke-opacity:1;paint-order:fill markers stroke"
       transform="rotate(-90)" />
  </g>
</svg>
