<?xml version="1.0" encoding="UTF-8" standalone="no"?>
<!-- Created with Inkscape (http://www.inkscape.org/) -->

<svg
   xmlns:dc="http://purl.org/dc/elements/1.1/"
   xmlns:cc="http://creativecommons.org/ns#"
   xmlns:rdf="http://www.w3.org/1999/02/22-rdf-syntax-ns#"
   xmlns:svg="http://www.w3.org/2000/svg"
   xmlns="http://www.w3.org/2000/svg"
   xmlns:sodipodi="http://sodipodi.sourceforge.net/DTD/sodipodi-0.dtd"
   xmlns:inkscape="http://www.inkscape.org/namespaces/inkscape"
   width="100"
   height="30"
   viewBox="0 0 26.458333 7.9375003"
   version="1.1"
   id="svg1853"
   inkscape:version="0.92.4 (5da689c313, 2019-01-14)"
   sodipodi:docname="water_001.svg">
  <defs
     id="defs1847" />
  <sodipodi:namedview
     id="base"
     pagecolor="#ffffff"
     bordercolor="#666666"
     borderopacity="1.0"
     inkscape:pageopacity="0.0"
     inkscape:pageshadow="2"
     inkscape:zoom="3.959798"
     inkscape:cx="47.652189"
     inkscape:cy="-4.6559436"
     inkscape:document-units="mm"
     inkscape:current-layer="layer1"
     showgrid="false"
     units="px"
     inkscape:window-width="1920"
     inkscape:window-height="1001"
     inkscape:window-x="-9"
     inkscape:window-y="-9"
     inkscape:window-maximized="1" />
  <metadata
     id="metadata1850">
    <rdf:RDF>
      <cc:Work
         rdf:about="">
        <dc:format>image/svg+xml</dc:format>
        <dc:type
           rdf:resource="http://purl.org/dc/dcmitype/StillImage" />
        <dc:title></dc:title>
      </cc:Work>
    </rdf:RDF>
  </metadata>
  <g
     inkscape:label="Layer 1"
     inkscape:groupmode="layer"
     id="layer1"
     transform="translate(0,-289.06248)">
    <path
       style="opacity:1;fill:#cccccc;fill-opacity:0.40909095;stroke:#ececec;stroke-width:0;stroke-linecap:round;stroke-linejoin:round;stroke-miterlimit:4;stroke-dasharray:none;stroke-opacity:1;paint-order:fill markers stroke"
       d="m 13.663035,290.27912 a 9.6134165,2.5574138 0 0 0 -7.0608671,0.82656 9.6134165,2.5574138 0 0 1 6.6947261,-0.72194 9.6134165,2.5574138 0 0 1 9.613544,2.55704 9.6134165,2.5574138 0 0 1 -2.259003,1.64712 9.6134165,2.5574138 0 0 0 2.625144,-1.75174 9.6134165,2.5574138 0 0 0 -9.613544,-2.55704 z"
       id="path1743"
       inkscape:connector-curvature="0" />
    <path
       style="opacity:1;fill:#cccccc;fill-opacity:0.40909095;stroke:#ececec;stroke-width:0;stroke-linecap:round;stroke-linejoin:round;stroke-miterlimit:4;stroke-dasharray:none;stroke-opacity:1;paint-order:fill markers stroke"
       d="m 6.1167029,290.98908 a 10.202217,2.7514998 0 0 0 -3.022347,1.9517 10.202217,2.7514998 0 0 0 10.2025381,2.75155 10.202217,2.7514998 0 0 0 7.545794,-0.90392 10.202217,2.7514998 0 0 1 -7.179653,0.79931 10.202217,2.7514998 0 0 1 -10.2025381,-2.75156 10.202217,2.7514998 0 0 1 2.656206,-1.84708 z"
       id="path1745"
       inkscape:connector-curvature="0" />
    <path
       id="path1747"
       d="m 12.799262,290.79693 a 7.7742363,2.068145 0 0 1 5.710026,0.66842 7.7742363,2.068145 0 0 0 -5.413927,-0.58382 7.7742363,2.068145 0 0 0 -7.7743401,2.06784 7.7742363,2.068145 0 0 0 1.826816,1.332 7.7742363,2.068145 0 0 1 -2.122915,-1.4166 7.7742363,2.068145 0 0 1 7.7743401,-2.06784 z"
       style="opacity:1;fill:#cccccc;fill-opacity:0.40909095;stroke:#ececec;stroke-width:0;stroke-linecap:round;stroke-linejoin:round;stroke-miterlimit:4;stroke-dasharray:none;stroke-opacity:1;paint-order:fill markers stroke"
       inkscape:connector-curvature="0" />
    <path
       id="path1749"
       d="m 18.901884,291.37106 a 8.250391,2.2250996 0 0 1 2.444129,1.57831 8.250391,2.2250996 0 0 1 -8.250652,2.22514 8.250391,2.2250996 0 0 1 -6.1021791,-0.73099 8.250391,2.2250996 0 0 0 5.8060801,0.64639 8.250391,2.2250996 0 0 0 8.250652,-2.22514 8.250391,2.2250996 0 0 0 -2.14803,-1.49371 z"
       style="opacity:1;fill:#cccccc;fill-opacity:0.40909095;stroke:#ececec;stroke-width:0;stroke-linecap:round;stroke-linejoin:round;stroke-miterlimit:4;stroke-dasharray:none;stroke-opacity:1;paint-order:fill markers stroke"
       inkscape:connector-curvature="0" />
    <path
       style="opacity:1;fill:#cccccc;fill-opacity:0.36868687;stroke:#ececec;stroke-width:0;stroke-linecap:round;stroke-linejoin:round;stroke-miterlimit:4;stroke-dasharray:none;stroke-opacity:1;paint-order:fill markers stroke"
       d="m 13.296767,289.64305 a 12.228401,3.2979539 0 0 0 -12.2283981,3.29799 12.228401,3.2979539 0 0 0 12.2283981,3.29794 12.228401,3.2979539 0 0 0 12.228398,-3.29794 12.228401,3.2979539 0 0 0 -12.228398,-3.29799 z m 0,0.23261 a 11.522663,3.065322 0 0 1 11.522696,3.06538 11.522663,3.065322 0 0 1 -11.522696,3.06523 11.522663,3.065322 0 0 1 -11.5226961,-3.06523 11.522663,3.065322 0 0 1 11.5226961,-3.06538 z"
       id="path1751"
       inkscape:connector-curvature="0" />
  </g>
</svg>
