<?xml version="1.0" encoding="UTF-8" standalone="no"?>
<!-- Created with Inkscape (http://www.inkscape.org/) -->

<svg
   xmlns:dc="http://purl.org/dc/elements/1.1/"
   xmlns:cc="http://creativecommons.org/ns#"
   xmlns:rdf="http://www.w3.org/1999/02/22-rdf-syntax-ns#"
   xmlns:svg="http://www.w3.org/2000/svg"
   xmlns="http://www.w3.org/2000/svg"
   xmlns:sodipodi="http://sodipodi.sourceforge.net/DTD/sodipodi-0.dtd"
   xmlns:inkscape="http://www.inkscape.org/namespaces/inkscape"
   width="100"
   height="30"
   viewBox="0 0 26.458333 7.9375003"
   version="1.1"
   id="svg1853"
   inkscape:version="0.92.4 (5da689c313, 2019-01-14)"
   sodipodi:docname="water_003.svg">
  <defs
     id="defs1847" />
  <sodipodi:namedview
     id="base"
     pagecolor="#ffffff"
     bordercolor="#666666"
     borderopacity="1.0"
     inkscape:pageopacity="0.0"
     inkscape:pageshadow="2"
     inkscape:zoom="3.959798"
     inkscape:cx="39.349084"
     inkscape:cy="16.52337"
     inkscape:document-units="mm"
     inkscape:current-layer="layer1"
     showgrid="false"
     units="px"
     inkscape:window-width="1920"
     inkscape:window-height="1001"
     inkscape:window-x="-9"
     inkscape:window-y="-9"
     inkscape:window-maximized="1"
     inkscape:snap-nodes="false" />
  <metadata
     id="metadata1850">
    <rdf:RDF>
      <cc:Work
         rdf:about="">
        <dc:format>image/svg+xml</dc:format>
        <dc:type
           rdf:resource="http://purl.org/dc/dcmitype/StillImage" />
        <dc:title></dc:title>
      </cc:Work>
    </rdf:RDF>
  </metadata>
  <g
     inkscape:label="Layer 1"
     inkscape:groupmode="layer"
     id="layer1"
     transform="translate(0,-289.06248)">
    <path
       style="opacity:1;fill:#cccccc;fill-opacity:0.40909095;stroke:#ececec;stroke-width:0;stroke-linecap:round;stroke-linejoin:round;stroke-miterlimit:4;stroke-dasharray:none;stroke-opacity:1;paint-order:fill markers stroke"
       d="m 13.733946,289.87724 a 11.040842,2.9371452 0 0 0 -8.1092835,0.94928 11.040842,2.9371452 0 0 1 7.6887765,-0.82913 11.040842,2.9371452 0 0 1 11.040988,2.93672 11.040842,2.9371452 0 0 1 -2.594426,1.89169 11.040842,2.9371452 0 0 0 3.014933,-2.01184 11.040842,2.9371452 0 0 0 -11.040988,-2.93672 z"
       id="path1743"
       inkscape:connector-curvature="0" />
    <path
       style="opacity:1;fill:#cccccc;fill-opacity:0.40909095;stroke:#ececec;stroke-width:0;stroke-linecap:round;stroke-linejoin:round;stroke-miterlimit:4;stroke-dasharray:none;stroke-opacity:1;paint-order:fill markers stroke"
       d="m 5.0671144,290.69261 a 11.717069,3.1600496 0 0 0 -3.4711129,2.2415 11.717069,3.1600496 0 0 0 11.7174375,3.1601 11.717069,3.1600496 0 0 0 8.666213,-1.03814 11.717069,3.1600496 0 0 1 -8.245706,0.918 11.717069,3.1600496 0 0 1 -11.7174379,-3.16011 11.717069,3.1600496 0 0 1 3.0506063,-2.12135 z"
       id="path1745"
       inkscape:connector-curvature="0" />
    <path
       id="path1747"
       d="m 12.693558,290.19786 a 9.9020379,2.6341944 0 0 1 7.272855,0.85136 9.9020379,2.6341944 0 0 0 -6.895714,-0.74361 9.9020379,2.6341944 0 0 0 -9.9021702,2.63381 9.9020379,2.6341944 0 0 0 2.326814,1.69657 9.9020379,2.6341944 0 0 1 -2.7039549,-1.80432 9.9020379,2.6341944 0 0 1 9.9021701,-2.63381 z"
       style="opacity:1;fill:#cccccc;fill-opacity:0.40909095;stroke:#ececec;stroke-width:0;stroke-linecap:round;stroke-linejoin:round;stroke-miterlimit:4;stroke-dasharray:none;stroke-opacity:1;paint-order:fill markers stroke"
       inkscape:connector-curvature="0" />
    <path
       id="path1749"
       d="m 20.466462,290.92912 a 10.508516,2.8341074 0 0 1 3.113085,2.0103 10.508516,2.8341074 0 0 1 -10.508848,2.83416 10.508516,2.8341074 0 0 1 -7.7723402,-0.93106 10.508516,2.8341074 0 0 0 7.3951992,0.82331 10.508516,2.8341074 0 0 0 10.508849,-2.83416 10.508516,2.8341074 0 0 0 -2.735945,-1.90255 z"
       style="opacity:1;fill:#cccccc;fill-opacity:0.40909095;stroke:#ececec;stroke-width:0;stroke-linecap:round;stroke-linejoin:round;stroke-miterlimit:4;stroke-dasharray:none;stroke-opacity:1;paint-order:fill markers stroke"
       inkscape:connector-curvature="0" />
    <path
       style="opacity:1;fill:#cccccc;fill-opacity:0.36868687;stroke:#ececec;stroke-width:0;stroke-linecap:round;stroke-linejoin:round;stroke-miterlimit:4;stroke-dasharray:none;stroke-opacity:1;paint-order:fill markers stroke"
       d="M 50.255859 2.1933594 A 46.217578 12.464708 0 0 0 4.0371094 14.658203 A 46.217578 12.464708 0 0 0 50.255859 27.123047 A 46.217578 12.464708 0 0 0 96.472656 14.658203 A 46.217578 12.464708 0 0 0 50.255859 2.1933594 z M 50.255859 2.4160156 A 45.389938 12.241496 0 0 1 95.644531 14.658203 A 45.389938 12.241496 0 0 1 50.255859 26.900391 A 45.389938 12.241496 0 0 1 4.8652344 14.658203 A 45.389938 12.241496 0 0 1 50.255859 2.4160156 z "
       transform="matrix(0.26458333,0,0,0.26458333,0,289.06248)"
       id="path1751" />
    <path
       inkscape:connector-curvature="0"
       id="path2433"
       d="m 13.614807,290.55245 a 8.6425901,2.2991492 0 0 0 -6.3478139,0.74309 8.6425901,2.2991492 0 0 1 6.0186479,-0.64903 8.6425901,2.2991492 0 0 1 8.642705,2.29881 8.6425901,2.2991492 0 0 1 -2.030874,1.48078 8.6425901,2.2991492 0 0 0 2.36004,-1.57483 8.6425901,2.2991492 0 0 0 -8.642705,-2.29882 z"
       style="opacity:1;fill:#cccccc;fill-opacity:0.40909095;stroke:#ececec;stroke-width:0;stroke-linecap:round;stroke-linejoin:round;stroke-miterlimit:4;stroke-dasharray:none;stroke-opacity:1;paint-order:fill markers stroke" />
    <path
       inkscape:connector-curvature="0"
       id="path2435"
       d="m 6.8305536,291.19071 a 9.1719298,2.4736352 0 0 0 -2.7171305,1.75461 9.1719298,2.4736352 0 0 0 9.1722179,2.47368 9.1719298,2.4736352 0 0 0 6.783771,-0.81264 9.1719298,2.4736352 0 0 1 -6.454605,0.71859 9.1719298,2.4736352 0 0 1 -9.1722182,-2.47368 9.1719298,2.4736352 0 0 1 2.3879648,-1.66056 z"
       style="opacity:1;fill:#cccccc;fill-opacity:0.40909095;stroke:#ececec;stroke-width:0;stroke-linecap:round;stroke-linejoin:round;stroke-miterlimit:4;stroke-dasharray:none;stroke-opacity:1;paint-order:fill markers stroke" />
  </g>
</svg>
